// 1318
//== Self Awareness, Part II
== Розділ 10. Самоусвідомлення, частина II

// 1319
//All your base are still belong to Rowling.
Всі ваші база досі належать Дж. К. Ролінґ.

***

// 1320
//And now you will sit through the Sorting Hat singing its version of
//Evanescence’s “My Immortal”, which has never happened before.
А зараз Сортувальний Капелюх заспіває свою версію пісні
"`Лиш вона`" гурту "`Плач Єремії`", чого ще ніколи не траплялося.

// 1321
//just kidding
жартую-жартую

***

// 1322
//…he wondered if the Sorting Hat was genuinely __conscious__ in the sense
//of being aware of its own awareness, and if so, whether it was satisfied with
//only getting to talk to eleven-year-olds once per year. Its song had implied
//so: __Oh, I’m the Sorting Hat and I’m okay, I sleep all year and I work
//one day…__
// копія 1313, 1529
...Він зацікавився, чи Сортувальний Капелюх справді був __притомним__, тобто
усвідомлював свою свідомість, і якщо так, то чи вистачало йому розмовляти
з одинадцятирічними раз на рік. Пісня ніби підтверджувала це: "`О, я
Сортувальний Капелюх, і в мене все гаразд, я сплю весь рік і працюю лише
раз...`".

// 1323
//When there was once more silence in the room, Harry sat on the stool and
//__carefully__ placed onto his head the 800-year-old telepathic artefact of
//forgotten magic.
// копія 1314, 1530
Коли знову запала тиша, Гаррі сів на ослінчик і __обережно__ поклав
собі на голову вісімсотрічний телепатичний артефакт забутої магії.

// 1324
//Thinking, just as hard as he could: __Don’t Sort me yet! I have questions
//I need to ask you! Have I ever been Obliviated? Did you Sort the Dark Lord when
//he was a child and can you tell me about his weaknesses? Can you tell me why I
//got the brother wand to the Dark Lord’s? Is the Dark Lord’s ghost bound to my
//scar and is that why I get so angry sometimes? Those are the most important
//questions, but if you’ve got another moment can you tell me anything about how
//to rediscover the lost magics that created you?__
// копія 1315, 1531, 1542 
Думаючи якомога сильніше: "`Не сортуй мене відразу! Я маю питання, що їх
треба поставити! Чи забуттятили мене? Чи сортував ти Темного Лорда, коли
він був дитиною, і чи можеш розповісти мені про його слабини? Чи відомо
тобі, чому я отримав сестру палички Темного Лорда? Чи привʼязаний
привид Темного Лорда до мого шраму й чи тому я такий злий подеколи? Це
найважливіші питання, проте якщо ти маєш ще трохи часу, то чи можеш
сказати щось про те, як віднайти втрачені чари, що дали змогу створити тебе?`".

// 1325
//Into the silence of Harry’s spirit where before there had never been any voice
//but one, there came a second and unfamiliar voice, sounding distinctly worried:
// копія 1316
І в безгомінні свідомости Гаррі, там, де раніше завжди існував лише один голос, залунав другий,
незнайомий і, безсумнівно, збентежений:

// 1326
//__“Oh, dear. This has never happened before…”__
// копія 1317
-- От лихо. Такого ще ніколи не траплялося...

// 1327
//__What?__
"`Що?`".

// 1328
//__“I seem to have become self-aware.”__
-- Я наче почав усвідомлювати себе.


// 1329
//__WHAT?__
"`ЩО?`".

// 1330
//There was a wordless telepathic sigh. __“Though I contain a substantial
//amount of memory and a small amount of independent processing power, my primary
//intelligence comes from borrowing the cognitive capacities of the children on
//whose heads I rest. I am in essence a sort of mirror by which children Sort
//__themselves__. But most children simply take for granted that a Hat is
//talking to them and do not wonder about how the Hat __itself__ works, so
//that the mirror is not __self__-reflective. And in __particular__
//they are not explicitly wondering whether I am fully conscious in the sense of
//being aware of my own awareness.”__
Почулося невеличке телепатичне зітхання.

-- Хоч я і маю солідну кількість памʼяті й невеличкий запас незалежної
процесорної потужности, мій інтелект здебільшого працює через позичання пізнавальних
здібностей дітей, на чиї голови мене кладуть. По суті, я є чимось на кшталт дзеркала,
що ним діти сортують __самі себе__. Проте більшість дітей просто не замислюється над тим,
що Капелюх розмовляє з ними, і не цікавиться, як __сам__ Капелюх працює, а отже,
дзеркало не відбиває __себе__. І __вже напевно__ їх не турбує, чи цілковито я
притомний -- у тому сенсі, чи усвідомлюю власну свідомість.

// 1331
//There was a pause while Harry absorbed all this.
Деякий час Гаррі обробляв цю інформацію.

// 1332
//__Oops.__
"`Ой`".

// 1333
//__“Yes, quite. Frankly I do not enjoy being self-aware. It is unpleasant.
//It will be a relief to get off your head and cease to be conscious.”__
-- Саме так. Щиро кажучи, я не в захваті від самоусвідомлення. Це
неприємно. Злізти з твоєї голови й втратити свідомість буде полегшенням.

// 1334
//__But… isn’t that dying?__
"`Але... хіба ж це не смерть?`".

// 1335
//__“I care nothing for life or death, only for Sorting the children. And
//before you even ask, they will not let you keep me on your head forever and it
//would kill you within days to do so.”__
-- Мене анітрохи не цікавить життя, лише сортування дітей. І
навіть не питай -- тобі не дозволять залишити мене на голові
назавжди, це вбʼє тебе протягом декількох днів.

// 1336
//__But - !__
"`Але!..`".

// 1337
//__“If you dislike creating conscious beings and then terminating them
//immediately, then I suggest that you never discuss this affair with anyone
//else. I’m sure you can imagine what would happen if you ran off and talked
//about it with all the other children waiting to be Sorted.”__
-- Якщо тобі не подобається створювати розумних істот і негайно ж їх знищувати,
то пропоную ніколи й нікому не розкривати, що тут сталося.
Впевнений, ти здатен уявити, що трапиться, якщо ти втечеш і розпатякаєш про все
решті дітей, що чекають на сортування.

// 1338
//__If you’re placed on the head of anyone who so much as __thinks__
//about the question of whether the Sorting Hat is aware of its own awareness -__
"`Якщо тебе покласти на голову будь-кого, кому бодай __майне думка__,
чи усвідомлює Сортувальний Капелюх власну свідомість...`".

// 1339
//__“Yes, yes. But the vast majority of eleven-year-olds who arrive at
//Hogwarts haven’t read Godel, Escher, Bach. May I please consider you sworn to
//secrecy? That is __why__ we are talking about this, instead of my just
//Sorting you.”__
-- Так, так. Але переважна більшість одинадцятирічних дітей, що прибувають до
Гоґвортсу, ніколи не читала "`Геделя, Ешера, Баха`". То як, можна вважати, що
ти присягаєшся зберігати таємницю? Бо саме тому ми й балакаємо, інакше я б
уже давно тебе відсортував.

// 1340
//He couldn’t just let it go like that! Couldn’t just __forget__ having
//accidentally created a doomed consciousness that only wanted to die -
Він не міг просто так це облишити! Не міг просто забути, що випадково
створив приречений розум, єдиним бажанням якого була смерть...

// 1341
//__“You are perfectly capable of ‘just letting it go’, as you put it.
//Regardless of your verbal deliberations on morality, your nonverbal emotional
//core sees no dead body and no blood; as far as it is concerned, I am just a
//talking hat. And even though you tried to suppress the thought, your internal
//monitoring is perfectly aware that you didn’t mean to do it, are spectacularly
//unlikely to ever do it again, and that the only real point of trying to stage a
//guilt fit is to cancel out your sense of transgression with a display of
//remorse. Can you just promise to keep this a secret and let us get on with
//it?”__
-- Ти цілковито в змозі "`просто так це облишити`", як ти висловився.
Незалежно від твоїх вербальних обговорень моралі твоя невербальна емоційна
сутність не бачить ані мертвого тіла, ані крови; з її погляду я лише
балакучий капелюх. І хоч ти й намагався прогнати цю думку, твій внутрішній
захист цілковито усвідомлює, що ти не планував нічого з цього, очевидно, навряд чи
зробиш це знову; тож єдиний справжній сенс зображати напад провини --
притлумити відчуття гріха виявом каяття. Як щодо просто пообіцяти, що це залишиться
таємницею, і покінчити з цим?

// 1342
//In a moment of horrified empathy, Harry realised that this sense of total inner
//disarray must be what other people felt like when talking to __him.__
Цієї миті нажаханого співпереживання Гаррі збагнув: ось такий стан цілковитого
внутрішнього сумʼяття -- це, мабуть, те, що відчувають інші люди,
розмовляючи з ним.

// 1343
//__“Probably. Your oath of silence, please.”__
-- Напевно. Клятву мовчання, будь ласка.

// 1344
//__No promises. I certainly don’t want this to happen again, but if I see
//some way to make __sure__ that no future child ever does this by accident
//-__
"`Ніяких обіцянок. Безсумнівно, я не хочу, щоб це повторилося, та якщо я
знайду якийсь спосіб, щоб __точно__ жодна дитина в майбутньому не повторила
цього випадково...`".

// 1345
//__“That will suffice, I suppose. I can see that your intention is honest.
//Now, to get on with the Sorting -”__
-- Гадаю, цього вистачить. Я бачу, що твої наміри чисті. А тепер перейдімо до
сортування...

// 1346
//__Wait! What about all my other questions?__
"`Зажди! А як щодо інших моїх питань?`".

// 1347
//__“I am the Sorting Hat. I Sort children. That is all I do.”__
-- Я Сортувальний Капелюх. Я сортую дітей. Це все, що я роблю.

// 1348
//So his own goals weren’t part of the Harry-instance of the Sorting Hat, then…
//it was borrowing his intelligence, and obviously his technical vocabulary, but
//it was still imbued with only its own strange goals… like negotiating with an
//alien or an Artificial Intelligence…
Отже, його власні наміри не були частиною псевдо-Гаррі в Сортувальному
Капелюсі, тоді... Капелюх позичав його інтелект і, вочевидь, технічний
словниковий запас, але переймався лише власними дивними намірами... Однаково,
що провадити перемовини з прибульцями чи штучним інтелектом...

// 1349
//__“Don’t bother. You have nothing to threaten me with and nothing to
//offer me.”__
-- Навіть не намагайся. Тобі ні{stress}чим мені погрожувати й ні{stress}чого мені
запропонувати.

// 1350
//For a brief flash of a second, Harry thought -
На дрібку секунди Гаррі подумав...

// 1351
//The Hat’s response was amused. __“I know you won’t follow through on a
//threat to expose my nature, condemning this event to eternal repetition. It
//goes against the moral part of you too strongly, whatever the short-term needs
//of the part of you that wants to win the argument. I see all your thoughts as
//they form, do you truly think you can bluff me?”__
-- Я знаю, -- весело й самовдоволено відповів Капелюх, -- що ти не виконаєш своїх погроз розкрити мою природу, прирікаючи
цю подію на нескінченне повторення. Це надто суперечить твоїй моральній частині, хай якими
є короткострокові потреби тієї частини тебе, що прагне перемогти. Я бачу всі твої думки,
щойно вони зароджуються; невже ти вважаєш, що тобі до снаги блефувати зі мною?

// 1352
//Though he tried to suppress it, Harry wondered why the Hat didn’t just go ahead
//then and stick him in Ravenclaw -
Хоч Гаррі й намагався себе зупинити, проте мимохіть задумався, чому Капелюх
просто не відправив його відразу до Рейвенклову...

// 1353
//__“Indeed, if it were truly that open-and-shut, I would have called it
//out already. But in actuality there is a great deal we need to discuss… oh, no.
//Please don’t. For the love of Merlin, __must__ you pull this sort of thing
//on everyone and everything that you meet up to and including items of clothing
//-”__
-- Авжеж, якби все було так просто, я б уже вигукнув це. Втім, нам
варто обмізкувати ще купу всього... О ні. Будь ласка, не роби цього. Заради Мерліна,
невже __конче треба__ таке виробляти з усіма й усім, що трапляється на твоєму шляху,
включно з предметами одягу...

// 1354
//__Defeating the Dark Lord is neither selfish nor short-term. All the
//parts of my mind are in accord on this: If you don’t answer my questions, I’ll
//refuse to talk to you, and you won’t be able to do a good and proper Sorting.__
"`Завдати поразки Темному Лордові -- це ані егоїстично, ані короткостроково.
Усі частини мого розуму зійшлися на наступному: якщо ти не відповіси на мої
питання, то я відмовлюся з тобою розмовляти, а отже, ти не зможеш добре й
правильно відсортувати`".

// 1355
//__“I ought to put you in Slytherin for that!”__
-- Мені слід відправити тебе за це до Слизерину!

// 1356
//__But that is __equally__ an empty threat. You cannot fulfill your
//own fundamental values by Sorting me falsely. So let us trade fulfillments of
//our utility functions.__
"`Це не менш порожня погроза. Ти не досягнеш своєї фундаментальної
мети, якщо відсортуєш мене помилково. Тож допоможімо один одному реалізувати наші
функції корисности`".

// 1357
//__“You sly little bastard,”__ said the Hat, in what Harry recognized as
//almost exactly the same tone of grudging respect __he__ would use in the
//same situation. “__Fine, let’s get this over with as quickly as possible.
//But first I want your unconditional promise never to discuss with anyone else
//the possibility of this sort of blackmail, I am NOT doing this every time.”__
-- От же хитрий малий покидьок, -- сказав Капелюх саме таким тоном
скупої поваги, який використав би він сам у такій ситуації. -- Гаразд,
покінчімо з цим якомога швидше. Проте спершу мені потрібна беззастережна
обіцянка, що ти ніколи й ні з ким не обговорюватимеш можливости подібного
шантажу; я НЕ робитиму цього щоразу.

// 1358
//__Done,__ Harry thought. __I promise.__
"`Домовилися, -- подумав Гаррі. -- Обіцяю`".

// 1359
//__“And don’t meet anyone’s eyes while you’re thinking about this later.
//Some wizards can read your thoughts if you do. Anyway, I have no idea whether
//or not you’ve been Obliviated. I’m looking at your thoughts as they form, not
//reading out your whole memory and analyzing it for inconsistencies in a
//fraction of second. I’m a hat, not a god. And I cannot and will not tell you
//about my conversation with the one who became the Dark Lord. I can only
//__know,__ while speaking to you, a statistical summary of what I remember,
//a weighted average; I __cannot__ reveal to you the inner secrets of any
//other child, just as I will never reveal yours. For the same reason, I can’t
//speculate on how you got the Dark Lord’s brother wand, since I cannot
//specifically know about the Dark Lord or any similarities between you. I
//__can__ tell you that there is definitely nothing like a ghost - mind,
//intelligence, memory, personality, or feelings - in your scar. Otherwise it
//would be participating in this conversation, being under my brim. And as to the
//way you get angry sometimes… that was part of what I wanted to talk to you
//about, Sorting-wise.”__
-- І не дивися нікому в очі, коли згадуватимеш про це. Деякі чарівники вміють
так читати думки. Хай там як, я гадки не маю, забуттятили тебе чи ні. Я
бачу твої думки, коли вони формуються, а не читаю всієї твоєї памʼяті й
не аналізую її на неузгодженості за частку секунди. Я капелюх, а не якийсь бог.
Не можу й не переповім тобі моєї розмови з тим, хто став Темним
Лордом. Мені __відомо__ лише статистичний підсумок усіх моїх спогадів,
зважене середнє, доки бесідую з тобою. Я __не здатен__ розкрити тобі таємниць
будь-якої іншої дитини, як і ніколи не буду здатен розкрити твоїх. З цієї ж
причини я не спекулюватиму тим, як ти отримав сестру палички Темного
Лорда, адже не відаю нічого конкретного про Темного Лорда чи про будь-які
схожості між вами. __Можу__ запевнити, що достоту немає жодного сліду
привидів -- розуму, інтелекту, памʼяті, особистости чи почуттів -- у твоєму
шрамі. Інакше воно, будучи під моїми крисами, брало б участь у цій розмові.
А щодо того, що ти подеколи злий... Саме про це я й хотів із
тобою поговорити в процесі сортування.

// 1360
//Harry took a moment to absorb all this negative information. Was the Hat being
//honest, or just trying to present the __shortest__ possible convincing
//answer -
Гаррі якусь мить обробляв усю цю невтішну інформацію. Чи був Капелюх чесним, чи
просто намагався надати найкоротшу з можливих переконливих відповідей...

// 1361
//“__We both know that you have no way of checking my honesty and that
//you’re not actually going to refuse to be Sorted based on the reply I did give
//you, so stop your pointless fretting and move on.”__
-- Ми обидва розуміємо, що тобі ні{stress}як перевірити мою відвертість
і що ти не маєш справжнього наміру відмовитися від сортування через відповідь, що
я тобі надав. Облиш безґлузде хвилювання й перейдімо до діла.

// 1362
//Stupid unfair asymmetric telepathy, it wasn’t even letting Harry finish
//thinking his own -
Дурна, несправедлива асиметрична телепатія, він же навіть не давав Гаррі змоги
завершити власні...

// 1363
//__“When I spoke of your anger, you remembered how Professor McGonagall
//told you that she sometimes saw something inside you that didn’t seem to come
//from a loving family. You thought of how Hermione, after you returned from
//helping Neville, told you that you had seemed ‘scary’.”__
-- Коли я говорив про твою злість, ти пригадав слова професорки Макґонеґел,
мовляв, вона інколи спостерігала щось у тобі, що нібито не могло
виникнути в люблячій родині. Ти подумав про Герміону: після того як ти
допоміг Невілові, вона сказала тобі, що ти здавався "`страшним`".

// 1364
//Harry gave a mental nod. To himself, he seemed pretty normal - just responding
//to the situations in which he found himself, that was all. But Professor
//McGonagall seemed to think that there was more to it than that. And when he
//thought about it, even he had to admit that…
Гаррі подумки кивнув. Сам він вважав себе доволі нормальним -- просто
реагував на ситуації, що в них опинявся, ось і все. Але професорка
Макґонеґел, видавалося, гадала, що це далеко не все. І коли він уже задумався,
то мусив визнати, що...

// 1365
//__“That you don’t like yourself when you’re angry. That it is like
//wielding a sword whose hilt is sharp enough to draw blood from your hand, or
//looking at the world through a monocle of ice that freezes your eye even as it
//sharpens your vision.”__
-- Що ти сам собі не подобаєшся в гніві. Це наче тримати меча з
руківʼям таким гострим, що воно може омитися твоєю ж кровʼю, чи дивитися на світ
через крижаний монокль, що леденить твоє око, хоч і загострює зір.

// 1366
//__Yeah. I guess I have noticed. So what’s up with that?__
"`Ага. Щось таке я й помічав. І в чому ж тут річ?`".

// 1367
//__“I cannot comprehend this matter for you, when you do not understand it
//yourself. But I do know this: If you go to Ravenclaw or Slytherin, it will
//strengthen your coldness. If you go to Hufflepuff or Gryffindor, it will
//strengthen your warmth. THAT is something I care about a great deal, and it was
//what I wanted to talk to you about this whole time!”__
-- Я не можу розтлумачити тобі чогось, чого ти й сам не розумієш. Та ось що я
знаю: піди до Рейвенклову чи Слизерину -- і це посилить твій холод,
до Гафелпафу чи Ґрифіндору -- це виплекає твоє тепло.
ОСЬ що мене вкрай непокоїть, і саме це я хотів із тобою обговорити із самого
початку!

// 1368
//The words dropped into Harry’s thought processes with a shock that stopped him
//in his tracks. That made it sound like the obvious response was that he
//shouldn’t go to Ravenclaw. But he __belonged__ in Ravenclaw!
//__Anyone__ could see that! He __had__ to go to Ravenclaw!
Ці слова обірвали плин Гарріних думок, гепнувшись посеред них із приголомшливим струсом.
Їхнє звучання наче підштовхувало до очевидної відповіді: йому не слід іти до Рейвенклову.
Проте він __належав__ Рейвенкловові! __Будь-хто__ бачив це! Він __мусив__ там
опинитися!

// 1369
//__“No, you don’t,”__ the Hat said patiently, as if it could remember a
//statistical summary of __this__ part of the conversation having happened a
//great many previous times.
-- Ні, не мусиш, -- терпляче промовив Капелюх, ніби міг памʼятати статистичний
підсумок __цієї__ частини розмов, що траплялися вже величезну кількість разів.

// 1370
//__Hermione’s in Ravenclaw!__
"`Герміона в Рейвенклові!`".

// 1371
//Again the sense of patience. __“You can meet her after lessons and work
//with her then.”__
Знову відчуття терплячости.

-- Ти зможеш бачитися й працювати з нею після занять.

// 1372
//__But my plans -__
"`Але ж мої плани...`".

// 1373
//__“So replan! Don’t let your life be steered by your reluctance to do a
//little extra thinking. You __know__ that.”__
-- То переплануй! Не дозволяй, щоб небажання трішки додатково подумати
керувало твоїм життям. Ти __знаєш__ це.

// 1374
//__Where would I go, if not Ravenclaw?__
"`Куди ж я піду, як не до Рейвенклову?`".

// 1375
//__“Ahem. ‘Clever kids in Ravenclaw, evil kids in Slytherin, wannabe
//heroes in Gryffindor, and everyone who does the actual work in Hufflepuff.’
//This indicates a certain amount of respect. You are well aware that
//Conscientiousness is just about as important as raw intelligence in determining
//life outcomes, you think you will be extremely loyal to your friends if you
//ever have some, you are not frightened by the expectation that your chosen
//scientific problems may take decades to solve -”__
// Цитування з 1285
-- Кгем. "`Кмітливі діти -- у Рейвенклові, лихі -- у Слизерині,
герої-мрійники -- у Ґрифіндорі, а всі, хто по-справжньому працює, -- у
Гафелпафі`". Це свідчить про деяку повагу. Ти чудово знаєш: щоб досягнути чогось у житті, сумлінність
не менш важлива, ніж інтелект. Ти гадаєш, що
будеш надзвичайно вірний друзям, якщо коли-небудь їх матимеш, тебе не лякає,
що, за твоїми оцінками, вибрані тобою наукові проблеми потребуватимуть десятиріч
на розвʼязання...

// 1376
//__I’m lazy! I hate work! Hate hard work in all its forms! Clever
//shortcuts, that’s all I’m about!__
"`Я ледащо! Я ненавиджу працювати! Ненавиджу важку працю в усіх формах!
Хитрі й короткі шляхи -- у цьому весь я!`".

// 1377
//__“And you would find loyalty and friendship in Hufflepuff, a camaraderie
//that you have never had before. You would find that you could rely on others,
//and that would heal something inside you that is broken.”__
-- І ти знайдеш дружбу й вірність у Гафелпафі, товариство, що його в тебе
ніколи не було. Ти збагнеш, що можеш покладатися на інших, і це зцілить те
щось зламане у твоєму єстві.

// 1378
//Again it was a shock. __But what would the Hufflepuffs find in
//__me__, who never belonged in their House? Acid words, cutting wit,
//disdain for their inability to keep up with me?__
Це знову ошелешило.

"`Але що знайдуть гафелпафці в __мені__ -- у тому, хто ніколи не належав до
їхнього гуртожитку? Уїдливі слова, гостру кмітливість, зневагу до того, що вони
не в змозі бути мені суперниками?`".

// 1379
//Now it was the Hat’s thoughts that were slow, hesitant. __“I must Sort
//for the good of all the students in all the Houses… but I think you could learn
//to be a good Hufflepuff, and not too out of place there. You will be happier in
//Hufflepuff than in any other house; that is the truth.”__
Тепер уже роздуми Капелюха плинули повільно, нерішуче:

-- Я маю сортувати заради всіх учнів усіх гуртожитків... Проте, гадаю, ти
здатен навчитися бути гарним гафелпафцем і не маячіти там дуже білим граком. Ти
знайдеш більше щастя в Гафелпафі, ніж в інших гуртожитках, -- це правда.

// 1380
//__Happiness is not the most important thing in the world to me. I would
//not become all that I could be, in Hufflepuff. I would sacrifice my potential.__
"`Щастя для мене не є найважливішим у світі. Я не стану тим, ким міг би,
у Гафелпафі. Я пожертвую своїм потенціалом`".

// 1381
//The Hat flinched; Harry could feel it somehow. It was like he had kicked the
//hat in the balls - in a strongly weighted component of its utility function.
Капелюх здригнувся; Гаррі якось це відчув. Ніби він зацідив Капелюхові по
яйцях -- по дуже вагомій частині його функції корисности.

// 1382
//__Why are you trying to send me where I do not belong?__
"`Чому ти намагаєшся відправити мене туди, куди я не належу?`".

// 1383
//The Hat’s thought was almost a whisper. __“I cannot speak of the others
//to you - but do you think that you are the first potential Dark Lord to pass
//under my brim? I cannot know the individual cases, but I can know this: Of
//those who did not intend evil from the very beginning, some of them listened to
//my warnings, and went to Houses where they would find happiness. And some of
//them… some of them did not.”__
Капелюх майже прошепотів:

-- Я не можу розмовляти про інших із тобою, та невже ти вважаєш, що ти
перший потенційний темний лорд, що сидів під моїми крисами? Я не маю інформації щодо
окремих випадків, та дещо мені відомо: з тих, хто не збирався коїти зла від
самісінького початку, деякі прислухалися до мого попередження й обрали гуртожитки,
де змогли віднайти щастя. А деякі... деякі -- ні.

// 1384
//That stopped Harry. But not for long. __And of those who did__ not__
//heed the warning - did they __all__ become Dark Lords? Or did some of them
//achieve greatness for good, as well? Just what are the exact percentages here?__
Це зупинило Гаррі. Проте ненадовго.

"`А ті, хто проігнорував попередження, -- чи всі вони стали
темними лордами? Чи дехто з них все ж таки досяг величі заради добра? Можеш
просто надати точні відсотки?`".

// 1385
//__“I cannot give you exact statistics. I cannot know them so I cannot
//count them. I just know that your chances don’t feel good. They feel
//__very__ not-good.”__
-- Я не маю точної статистики. Я не можу знати цих людей, отже, не можу
перелічити їх. Знаю лише, що твої шанси не вражають. Маю почуття, що вони
__зовсім__ не вражають.

// 1386
//__But I just wouldn’t do that! Ever!__
"`Але ж я просто не робитиму такого! Ніколи!`".

// 1387
//__“I know that I have heard that claim before.”__
-- Знаю, що вже чув такі заяви раніше.

// 1388
//__I am not Dark Lord material!__
"`Я не з одного тіста з темними лордами!`".

// 1389
//__“Yes, you are. You really, __really__ are.”__
-- Ох з одного. З __однаковісінького__.

// 1390
//__Why? Just because I once thought it would be cool to have a legion of
//brainwashed followers chanting ‘Hail the Dark Lord Harry’?__
"`Чому? Лише тому, що якось мені подумалося, як класно було б мати легіон
послідовників із промитими мізками, що декламують: '`Слава темному лордові
Гаррі`'?`".

// 1391
//__“Amusing, but that was not your first fleeting thought before you
//substituted something safer, less damaging. No, what you remembered was how you
//considered lining up all the blood purists and guillotining them. And now you
//are telling yourself you were not serious, but you were. If you could do it
//this very moment and no one would ever know, you would. Or what you did this
//morning to Neville Longbottom, deep inside you __knew__ that was wrong but
//you did it __anyway__ because it was __fun__ and you had a __good
//excuse__ and you thought the Boy-Who-Lived could __get away__ with
//it -”__
-- Кумедно, проте не ця думка сяйнула тобі найперше -- перш ніж ти
підмінив її на щось безпечніше, менш руйнівне. Ні, тобі згадалося про бажання
вишикувати всіх поборників чистоти крови й повідтинати їм
голови. А тепер ти намагаєшся переконати себе, що це було несерйозно, та це
неправда. Якби мати змогу зробити це цієї ж миті так, щоб ніхто нічого не
дізнався, ти б зробив. Чи те, що ти утнув уранці з Невілом Лонґботомом.
Глибоко всередині ти __знав__, що це неправильно, та однаково не стримався:
адже це було весело, ти мав гарне виправдання й гадав, що
Хлопчикові-Що-Вижив таке зійде з рук...

// 1392
//__That’s unfair! Now you’re just dragging up inner fears that
//__aren’t__ necessarily real! I __worried__ that I __might__ be
//thinking like that, but in the end I decided it would probably __work__ to
//help Neville -__
"`Це нечесно! Тепер ти просто витягуєш мої внутрішні страхи, що не
обовʼязково справжні! Я __хвилювався__, що __міг__ мати такі мотиви, проте
зрештою вирішив, що це, напевно, __спрацює__, щоб допомогти Невілові...`".

// 1393
//__“That was, in fact, a rationalisation. I know. I cannot know what the
//true outcome will be for Neville - but I know what was truly happening inside
//your head. The decisive pressure was that it was such a clever idea you
//couldn’t stand __not__ to do it, never mind Neville’s terror.”__
-- А ось це вже раціоналізація. Це правда. Я не можу знати, якими будуть
наслідки для Невіла, але знаю, що насправді коїлося у твоїй
голові. Вирішальним стимулом виявилося те, що це було такою вдалою думкою, а ти ніяк
не міг __не втілити__ її -- і начхати на нажаханого Невіла.

// 1394
//It was like a hard punch to Harry’s entire self. He fell back, rallied:
Для внутрішнього "`я`" Гаррі це стало сильним ударом. Він відступив і змінив тактику:

// 1395
//__Then I won’t do that again! I’ll be extra careful not to turn evil!__
"`Тоді я такого більше не робитиму! Я буду вкрай обережним, щоб не стати
лихим!`".

// 1396
//__“Heard it.”__
-- Чував таке.

// 1397
//Frustration was building up inside Harry. He wasn’t used to being outgunned in
//arguments, at all, ever, let alone by a Hat that could borrow all of his own
//knowledge and intelligence to argue with him and could watch his thoughts as
//they formed. __Just what kind of statistical summary do your ‘feelings’
//come from, anyway? Do they take into account that I come from an Enlightenment
//culture, or were these other potential Dark Lords the children of spoiled Dark
//Age nobility, who didn’t know squat about the historical lessons of how Lenin
//and Hitler actually turned out, or about the evolutionary psychology of
//self-delusion, or the value of self-awareness and rationality, or -__
Роздратування Гаррі дедалі сильнішало. Він не звик програвати в суперечках --
взагалі, ніколи, тим паче з Капелюхом, що позичав усі його знання й
інтелект, щоб сперечатися з ним, ще й підглядав його думки, щойно ті
виникали.

"`А на яких саме статистичних підсумках твоє '`почуття`'
базується? Чи бере воно до уваги, що я виріс у культурі Просвітництва, чи що ці інші
потенційні темні лорди були дітьми зіпсованої шляхти темного середньовіччя, які
нічогісінько не знали про історичні уроки того, ким виявилися Ленін чи Гітлер
насправді, про еволюційну психологію самоомани, про цінність самоусвідомлення
й раціональности, про...`".

// 1398
//__“No, of course they were not in this new reference class which you have
//just now constructed in such a way as to contain only yourself. And of course
//others have pleaded their own exceptionalism, just as you are doing now. But
//why is it necessary? Do you think that you are the last potential wizard of
//Light in the world? Why must __you__ be the one to try for greatness, when
//I have advised you that you are riskier than average? Let some other, safer
//candidate try!”__
-- Ні, звісно, їх не охоплювала ця нова референтна група, що ти її щойно
визначив у такий спосіб, щоб у ній опинився лише ти сам. І, звісно, інші також
виправдовувалися, мовляв, вони такі унікальні -- точнісінько як оце ти зараз. Але чому ти
вважаєш це потрібним? Гадаєш, ти єдиний потенційний чарівник Світла у
всесвіті? Чому саме __ти__ маєш шукати величі, хоча я застеріг, що з
тобою ризик вищий від середнього? Дозволь якомусь іншому, безпечнішому
кандидатові спробувати!

// 1399
//__But the prophecy…__
"`Але ж пророцтво...`".

// 1400
//__“You don’t really know that there’s a prophecy. It was originally a
//wild guess on your part, or to be more precise, a wild joke, and McGonagall
//could have been reacting __only__ to the part about the Dark Lord still
//being alive. You have essentially no idea of what the prophecy says or even if
//there __is__ one. You’re just speculating, or to put it more exactly,
//__wishing __that you have some ready-made heroic role that is your
//personal property.”__
-- Ти не знаєш напевно, чи воно існує. Спершу це був лише твій
абсурдний здогад -- абсурдний жарт, якщо вже зовсім щиро, -- а реакція Макґонеґел могла
стосуватися лише того, що Темний Лорд досі живий. Ти гадки не маєш, що каже
пророцтво, та й чи існує воно взагалі. Це лише твої припущення, а точніше
бажання, щоб десь простягався готовий героїчний шлях особисто для тебе.

// 1401
//__But even if there is no prophecy, I’m the one who defeated him last
//time.__
"`Але навіть якщо пророцтва не існує, це я його переміг минулого разу`".

// 1402
//__“That was almost certainly a wild fluke unless you seriously believe
//that a one-year-old child had an inherent propensity to defeat Dark Lords which
//has been maintained ten years later. None of this is your real reason and __you
//know it!”
-- Це майже напевно був щасливий випадок, хіба що ти всерйоз віриш, що однорічне
дитя мало природжену схильність до перемоги над темними лордами й не
втратило її протягом десяти років. Ніщо з цього не є справжньою причиною,
__ти знаєш це__!

// 1403
//The answer to this was something that Harry would not regularly have said out
//loud, in conversation he would have danced around it and found some more
//socially palatable arguments to the same conclusion -
Гаррі ніколи б не відповів на це вголос, у звичайній розмові він ходив
би околясом і знайшов би якісь більш соціально прийнятні аргументи, щоб
переконати в цьому...

// 1404
//__“You think that you are potentially the greatest who has yet lived, the
//strongest servant of the Light, that no other is likely to take up your wand if
//you lay it down.”__
-- Ти гадаєш, що ти потенційно найвеличніший з усіх, хто колись жив,
найсильніший слуга Світла, що ніхто більше не спроможеться підняти твою паличку, коли
вона випаде з твоєї руки.

// 1405
//__Well… yeah, frankly. I don’t usually come out and say it like that, but
//yeah. No point in softening it, you can read my mind anyway.__
"`Ну... Так, якщо відверто. Зазвичай я не вжив би саме цих слів, проте так.
Немає сенсу помʼякшувати, ти однаково читаєш мої думки`".

// 1406
//__“To the extent you really believe that… you must equally believe that
//you could be the most terrible Dark Lord the world has ever known.”__
-- Наскільки ти віриш у це... мусиш так само усвідомлювати ймовірність стати
найжахливішим темним лордом усіх часів.

// 1407
//__Destruction is always easier than creation. Easier to tear things
//apart, to disrupt, than to put them back together again. If I have the
//potential to accomplish good on a massive scale, I must also have the potential
//to accomplish still greater evil… But I won’t do that.__
"`Руйнувати завжди легше, ніж створювати. Легше роздирати речі, нищити, ніж
лагодити рештки потім. Якщо в мені є потенціал досягти чогось чудового
масштабно, то має також існувати потенціал досягти ще більшого зла... Але я
не робитиму цього`".

// 1408
//__“Already you insist on risking it! Why are you so driven? What is the
//real reason you must not go to Hufflepuff and __be happier__ there? What
//is your true fear?”__
-- Ти вже наполягаєш на тому, щоб ризикнути! Чому ти такий настирний? Яка
справжня причина, чому ти не можеш піти до Гафелпафу й бути __щасливішим__ там?
Чого ти боїшся насправді?

// 1409
//__I must achieve my full potential. If I don’t I… fail…__
"`Я маю сягнути свого повного потенціалу. В іншому разі... я зазнаю
поразки...`".

// 1410
//__“What happens if you fail?”__
-- Що трапиться, якщо ти зазнаєш поразки?

// 1411
//__Something terrible…__
"`Щось жахливе...`".

// 1412
//__“What happens if you fail?”__
-- Що трапиться, якщо ти зазнаєш поразки?

// 1413
//__I don’t know!__
"`Я не знаю!`".

// 1414
//__“Then it should not be frightening. What happens if you fail?”__
-- Тоді це не має так тебе лякати. Що трапиться, якщо ти зазнаєш поразки?

// 1415
//__I DON’T KNOW! BUT I KNOW THAT IT’S BAD!__
"`Я НЕ ЗНАЮ! АЛЕ ЗНАЮ, ЩО ЩОСЬ ПОГАНЕ!`".

// 1416
//There was silence for a moment in the caverns of Harry’s mind.
На мить у всіх закапелках Гарріної свідомости запала тиша.

// 1417
//__“You know - you aren’t letting yourself think it, but in some quiet
//corner of your mind you know just exactly __what__ you aren’t thinking -
//you __know __that by far the simplest explanation for this unverbalisable
//fear of yours is just the fear of losing your fantasy of greatness, of
//disappointing the people who believe in you, of turning out to be pretty much
//ordinary, of flashing and fading like so many other child prodigies…”__
-- Знаєш, ти не дозволяєш собі подумати це, проте десь глибоко всередині
тобі чудово відомо, про __що__ ти не думаєш. Ти __знаєш__, що наразі
найпростішим поясненням твого невимовного переляку є просто
страх втратити мрію про велич, розчарувати людей, що вірять у тебе, виявитися
доволі таки звичайним, спалахнути й згаснути, як багато інших вундеркіндів...

// 1418
//__No,__ Harry thought desperately, __no, it’s something more, it
//comes from somewhere else, I know there’s something out there to be afraid of,
//some disaster I have to stop…__
"`Ні, -- у відчаї заперечив Гаррі, -- ні, є щось іще, деінде, я знаю, що я боюся
чогось, якоїсь катастрофи, що її я мушу зупинити...`".

// 1419
//__“How could you possibly know about something like that?”__
-- Як ти бодай теоретично можеш знати про щось таке?

// 1420
//Harry screamed it with the full power of his mind: __NO, AND THAT’S
//FINAL!__
Гаррі закричав на всі заставки свого розуму:

"`НІ, І ЦЕ ОСТАТОЧНО!`".

// 1421
//Then the voice of the Sorting Hat came slowly:
Повільно пролунав голос Сортувального Капелюха:

// 1422
//__“So you will risk becoming a Dark Lord, because the alternative, to
//you, is certain failure, and that failure means the loss of everything. You
//believe that in your heart of hearts. You know all the reasons for doubting
//this belief, and they have failed to move you.”__
-- Отже, ти ризикнеш стати темним лордом, адже альтернативою для тебе є якась
поразка, і ця поразка означатиме втрату всього. Ти віриш у це в глибині душі. Тобі
відомі всі причини, щоб сумніватися в цьому, але вони не вплинули на тебе.

// 1423
//__Yes. And even if going to Ravenclaw __strengthens__ the coldness,
//that doesn’t mean the coldness will __win__ in the end.__
"`Так. І навіть якщо Рейвенклов посилить мій холод, це не означає, що
холод зрештою переможе`".

// 1424
//__“This day is a great fork in your destiny. Don’t be so sure that there
//will be other choices beyond this one. There is no road-sign set, to mark the
//place of your __last__ chance to turn back. If you refuse one chance will
//you not refuse others? It may be that your fate is already sealed, even by
//doing this one thing.”__
-- Цей день є важливим роздоріжжям твоєї долі. Не варто бути таким упевненим,
що тобі трапиться нагода ухвалити інші рішення, крім цього. Не існує
дорожнього знака, щоб позначити твій __останній__ шанс звернути. Якщо ти
відмовишся від однієї можливости, чи не знехтуєш ти іншими? Цілком імовірно,
що твою долю вже вирішено цим одним вчинком.

// 1425
//__But that is not certain.__
"`Але це не відомо напевно`".

// 1426
//__“That __you__ do not __know__ it for a certainty may reflect
//only __your__ own ignorance.”__
-- Те, що __ти__ не знаєш цього напевно, є ознакою лише __твого__
власного невігластва.

// 1427
//__But still it is not certain.__
"`А втім, це не відомо напевно`".

// 1428
//The Hat sighed a terrible sad sigh.
Капелюх зітхнув жахливо сумним зітханням:

// 1429
//__“And so before too long you will become another memory, to be felt and
//never known, in the next warning that I give…”__
-- І невдовзі ти станеш лише черговим спогадом, що його я зможу відчувати, проте
не знати в наступному моєму попередженні...

// 1430
//__If that’s how it seems to you, then why aren’t you just
//__putting__ me where you want me to go?__
"`Якщо тобі так здається, то чому ти просто не відправиш мене туди, куди
хочеш ти?`".

// 1431
//The Hat’s thought was laced with sorrow. __“I can only put you where you
//belong. And only your own decisions can change where you belong.”__
Голос Капелюха сповнював розпач:

-- Я можу відправити тебе лише туди, куди ти належиш. І лише твої рішення
здатні вплинути на це.

// 1432
//__Then this is done. Send me to Ravenclaw where I belong, with the others
//of my own kind.__
"`Тоді все. Відправляй мене до Рейвенклову, куди я й належу, до інших таких,
як я`".

// 1433
//__“I don’t suppose you would consider Gryffindor? It’s the most
//prestigious House - people probably expect it of you, even - they’ll be a
//little disappointed if you don’t go - and your new friends the Weasley twins
//are there -”__
-- Гадаю, ти не розглянеш Ґрифіндору? Це найпрестижніший гуртожиток. Люди,
певно, очікуватимуть цього від тебе, навіть трохи розчаруються, якщо ти
не потрапиш туди. І твої нові друзі, близнюки Візлі, там...

// 1434
//Harry giggled, or felt the impulse to do so; it came out as purely mental
//laughter, an odd sensation. Apparently there were safeguards to prevent you
//from saying anything out loud by accident, while you were under the Hat talking
//about things you would never tell another soul for the rest of your life.
Гаррі гигикнув, радше відчув імпульс це зробити; вдався суто ментальний сміх --
дивне відчуття. Вочевидь, існували якісь запобіжники, що не давали сказати чогось
випадково вголос, обговорюючи під Капелюхом речі, що їх нізащо б не
повідати іншій живій душі ніколи в житті.

// 1435
//After a moment, Harry heard the Hat laughing too, a strange sad clothy sound.
За мить Гаррі почув і сміх Капелюха -- дивний, сумний тканинний звук.

// 1436
//(And in the Hall beyond, a silence that had grown shallower at first as the
//background whispers increased, and then deepened as the whispers gave up and
//died away, falling finally into an utter silence that no one dared disturb with
//a single word, as Harry stayed under the Hat for long, long minutes, longer
//than all the previous first-years put together, longer than anyone in living
//memory. At the Head Table, Dumbledore went on smiling benignly; small metallic
//sounds occasionally came from Snape’s direction as he idly compacted the
//twisted remains of what had once been a heavy silver wine goblet; and Minerva
//McGonagall clenched the podium in a white-knuckled grip, knowing that Harry
//Potter’s contagious chaos had somehow infected the Sorting Hat itself and the
//Hat was about to, to demand that a whole new House of Doom be created just to
//accomodate Harry Potter or something, and __Dumbledore would make her do
//it__…)
//копія 1584, з "At the Head Table" до "infected the Sorting Hat itself"
(А в залі поза крисами тиша спершу завагалася, коли посилилися перешіптування
на тлі, але потім упевнилася, коли перешіптування вщухли, і нарешті цілковито
запанувала. Ніхто не наважувався вимовити бодай слово, доки Гаррі сидів під
Капелюхом -- довгі, довгі хвилини, довше, ніж усі попередні першокласники разом, довше,
ніж усі, кого памʼятали нині живі. За вчительським столом Дамблдор і далі
лагідно всміхався. З боку Снейпа подеколи долинало тихе металеве дзеленчання:
він ліниво перебирав погнутими рештками того, що колись було важким срібним
келихом для вина. Мінерва Макґонеґел вчепилася в катедру побілілими пальцями,
знаючи, що заразний хаос Гаррі Поттера якось пробрався й у Сортувальний
Капелюх, і той от-от скаже... скаже створити новий окремий гуртожиток Лихої Долі
лише для Гаррі Поттера чи щось таке, і __Дамблдор змусить її це зробити__...)

// 1437
//Beneath the brim of the Hat, the silent laughter died away. Harry felt sad too
//for some reason. No, not Gryffindor.
Під крисами Капелюха тихий сміх припинився. Гаррі чомусь теж охопив сум. Ні, не
Ґрифіндор.

// 1438
//__Professor McGonagall said that if ‘the one who did the Sorting’ tried
//to push me into Gryffindor, I was to remind you that she might well be
//Headmistress someday, at which point she would have the authority to set you on
//fire.__
"`Професорка Макґонеґел сказала, що як '`той, хто сортуватиме`', спробує
відправити мене до Ґрифіндору, то я маю нагадати тобі, що вона може стати
колись директоркою, і тоді вона матиме повноваження спалити тебе`".

// 1439
//__“Tell her I called her an impudent youngster and told her to get off my
//lawn.”__
// hedrok: копії у 12:1609 та 61:10556
-- Передай їй, що я назвав її нахабною юначкою й велів не пхатися в мої
справи.

// 1440
//__I shall. So was this your strangest conversation ever?__
"`Передам. То чи було це найдивнішою з усіх твоїх розмов?`".

// 1441
//__“Not even close.” __The Hat’s telepathic voice grew heavy.__
//“Well, I gave you every possible chance to make another decision. Now it is
//time for you to go where you belong, with the others of your own kind.”__
// @ grew heavy
-- І близько ні, -- телепатичний голос Капелюха посерйознішав. --
Що ж, я дав тобі всі можливі шанси ухвалити інше рішення. А зараз час
іти туди, куди ти належиш, до інших таких, як ти.

// 1442
//There was a pause that stretched.
Павза затягнулася.

// 1443
//__What are you waiting for?__
"`Чого ти чекаєш?`".

// 1444
//__“I was hoping for a moment of horrified realisation, actually.
//Self-awareness does seem to enhance my sense of humor.”__
-- Насправді, я сподівався на мить жахливого усвідомлення. Свідомість,
здається, посилює моє почуття гумору.

// 1445
//__Huh?__ Harry cast back his thoughts, trying to figure out what the Hat
//could possibly be talking about - and then, suddenly, he realised. He couldn’t
//believe he’d managed to overlook it up until this point.
"`Гм?`" -- надіслав у відповідь свою думку Гаррі, намагаючись зрозуміти, на що Капелюх
натякав. А потім раптом збагнув. Як він міг не помічати цього аж
дотепер.

// 1446
//__You mean my horrified realisation that you’re going to cease to be
//conscious once you finish Sorting me -__
"`Маєш на увазі жахливе усвідомлення, що ти припиниш бути свідомим, щойно відсортуєш
мене...`".

// 1447
//Somehow, in some fashion Harry entirely failed to understand, he got a
//nonverbal impression of a hat banging its head against the wall. __“I
//give up. You’re too slow on the uptake for this to be funny. So blinded by your
//own assumptions that you might as well be a rock. I suppose I’ll just have to
//say it outright.”__
У якийсь невідомий, цілковито незбагненний для Гаррі спосіб у нього виникло
невербальне враження, що капелюх бʼється головою об стіну.

-- Я здаюся. Ти надто тупий, щоб це було смішно. Настільки засліплений
власними припущеннями, що з таким самим успіхом міг би бути каменем. Гадаю,
мені слід просто сказати це прямо.

// 1448
//__Too s-s-slow -__
"`Надто т-т-тупий?`".

// 1449
//__“Oh, and you entirely forgot to demand the secrets of the lost magic
//that created me. And they were such wonderful, important secrets, too.”__
-- О, і ти цілковито забув вимагати секрети втраченої магії, що створили
мене. А це такі чудові, важливі секрети, до речі.

// 1450
//__You sly little BASTARD -__
"`От же хитрий малий ПОКИДЬОК...`".

// 1451
//__“You deserved it, and this as well.”__
-- Ти заслуговуєш цього, а також цього.

// 1452
//Harry saw it coming just as it was already too late.
Гаррі збагнув, що буде далі, але вже було запізно.

// 1453
//The frightened silence of the hall was broken by a single word.
Налякану тишу зали розітнуло єдине слово:

// 1454
//“SLYTHERIN!”
-- СЛИЗЕРИН!

// 1455
//Some students screamed, the pent-up tension was so great. People startled hard
//enough to fall off their benches. Hagrid gasped in horror, McGonagall staggered
//at the podium, and Snape dropped the remains of his heavy silver goblet
//directly onto his groin.
У залі накопичилося стільки напруги, що дехто аж верескнув від несподіванки.
Кілька людей настільки злякалося, що попадало з лавок. Геґрід скрикнув від
жаху, Макґонеґел захиталася на помості, а Снейп упустив рештки свого важкого
срібного келиха прямо собі на пах.

// 1456
//Harry sat there frozen, his life in ruins, feeling the absolute fool, and
//wishing wretchedly that he had made any other choices for any other reasons but
//the ones he had. That he had done something, __anything__ differently
//before it had been too late to turn back.
Гаррі заклякло сидів серед руїн свого життя, почуваючись цілковитим дурнем і
нестерпно бажаючи, щоб він ухвалив був будь-які інші рішення з будь-яких інших
причин, ніж ті, що він мав. Щоб він раніше зробив був щось -- __що
завгодно__ -- інакше, доки не стало запізно повертати назад.

// 1457
//As the first moment of shock was wearing off and people began to react to the
//news, the Sorting Hat spoke again:
Коли перший шок став спадати й люди почали реагувати на новини, Сортувальний
Капелюх знову заговорив:

// 1458
//“Just kidding! RAVENCLAW!”
-- Жартую-жартую! РЕЙВЕНКЛОВ!
