// 1597
//== Impulse Control
== Розділ 12. Контроль поривів

// 1598
//ph’nglui mglw’nafh J. K. Rowling wgah’nagl fhtagn
// hedrok: Взято з вікі: https://uk.wikipedia.org/wiki/Ктулху
Пхʼнґлуї мґлвʼнафх Дж. К. Ролінґ вґахʼнаґл фхтаґн

***

// 1599
//__“Wonder what’s wrong with __him__.”__
-- __Цікаво, що не так із цим.__

***

// 1600
//“Turpin, Lisa!”
// hedrok: Цікаво, чому Абабагаламага так переклала це імʼя?..
// Аліна: дійшли згоди, щоб помилки й проколи Абабагаламаги не тягнути в цей переклад.
// Тому подеколи ігноруємо канон на користь здорового ґлузду.
-- Ліза Турпін!

// 1601
//Whisper whisper whisper harry potter whisper whisper slytherin whisper whisper
//no seriously what the hell whisper whisper
Шепіт-шепіт-шепіт гаррі поттер шепіт-шепіт слизерин шепіт-шепіт ні серйозно що
це в біса шепіт-шепіт

// 1602
//“RAVENCLAW!”
-- РЕЙВЕНКЛОВ!

// 1603
//Harry joined in the applause greeting the young girl walking shyly towards the
//Ravenclaw table, her robes’ trim now changed to dark blue. Lisa Turpin appeared
//torn between her impulse to sit down as far away from Harry Potter as possible,
//and her impulse to run over, forcibly insert herself at his side and start
//tearing answers out of him.
Гаррі приєднався до оплесків, якими вітали дівчинку, що соромʼязливо йшла до
рейвенкловського стола; її мантія тепер мала темно-синю облямівку. Видавалося,
що Ліза Турпін розривалася між пориванням сісти якомога далі від Гаррі Поттера
й жагою вибороти місце поруч і почати витягати з нього відповіді.

// 1604
//Being at the center of an extraordinary and curious event, and then being
//Sorted into House Ravenclaw, was closely akin to being dipped in barbecue sauce
//and flung into a pit of starving kittens.
Побувати в центрі надзвичайної та цікавої події, а потім приєднатися
до гуртожитку Рейвенклов -- однаково, що вмочити когось у
соус барбекю й жбурнути до ями зі зголоднілими кошенятами.

// 1605
//“I promised the Sorting Hat not to talk about it,” whispered Harry for the
//umpteenth time.
-- Я пообіцяв Сортувальному Капелюхові не розповідати про це, -- уже внадцяте пробубонів Гаррі.

// 1606
//“Yes, really.”
-- Авжеж, звісно.

// 1607
//“No, I really did promise the Sorting Hat not to talk about it.”
-- Ні, я справді пообіцяв Сортувальному Капелюхові не розповідати про це.

// 1608
//“Fine, I promised the Sorting Hat not to talk about __most__ of it and the
//rest is __private__ just like __yours was__ so __stop asking.__”
-- Гаразд, я пообіцяв Сортувальному Капелюхові не розповідати про __майже__ все
з цієї розмови, а решта -- __особисте__, як це було __й у вас__, тож
__дайте спокій.__

// 1609
//“You want to know what happened? Fine! Here’s part of what happened! I told the
//Hat that Professor McGonagall threatened to set it on fire and it told me to
//tell Professor McGonagall that she was an impudent youngster and she should get
//off its lawn!”
// hedrok: про lawn - копія з 010:1439
-- Хочете знати, що сталося? Гаразд! От частина того, що сталося! Я сказав Капелюхові,
що професорка Макґонеґел погрожувала спалити його, а той попрохав передати їй,
що він назвав її нахабною юначкою й велів не пхатися в його справи!

// 1610
//“If you’re not going to believe what I say then __why are you even
//asking?__”
-- Якщо ви не збираєтеся мені вірити, то __навіщо взагалі запитуєте?__

// 1611
//“No, I don’t know how I defeated the Dark Lord either! You tell me if you
//figure it out!”
-- Ні, я теж не знаю, як я здолав Темного Лорда! Зʼясуєте -- неодмінно розкажіть!

// 1612
//“__Silence!__” shouted Professor McGonagall at the podium of the Head
//Table. ”__No talking until the Sorting Ceremony finishes!__”
-- __Тиша!__ -- гримнула професорка Макґонеґел з помосту біля вчительського стола. --
__Ніяких розмов до завершення церемонії сортування!__

// 1613
//There was a brief dip in the volume, as everyone waited to see if she was going
//to make any specific and credible threats, and then the whispers started up
//again.
Гучність ненадовго знизилася, доки всі чекали, чи збирається вона вдатися до якихось
конкретних і вартих уваги погроз, відтак перешіптування відновилися.

// 1614
//Then the silver-bearded ancient stood up from his great golden chair, smiling
//cheerfully.
Срібнобородий старець із радісною усмішкою підвівся зі свого величезного золотого стільця.

// 1615
//Instant silence. Someone frantically elbowed Harry as he tried to continue a
//whisper, and Harry cut himself off in mid-sentence.
Миттєва тиша. Хтось несамовито штурхнув Гаррі, коли той спробував відновити
шушукання, і він на півслові обірвав себе.

// 1616
//The cheerful-looking old man sat down again.
Радісний стариган знову сів.

// 1617
//__Note to self: Do not mess with Dumbledore.__
"`Примітка: не займати Дамблдора`".

// 1618
//Harry was still trying to process everything that had happened during the
//Incident with the Sorting Hat. Not the least of which was what had happened the
//instant Harry had lifted the Hat off his head; in that moment, he’d heard a
//tiny whisper as though from nowhere, something that sounded oddly like English
//and a hiss at the same time, something that had said, “__Ssalutations
//from Sslytherin to Sslytherin: if you would sseek my ssecretss, sspeak to my
//ssnake.”__
Гаррі досі намагався обробити всі події Випадку із
Сортувальним Капелюхом, не остання з яких відбулася відразу
після того, як він здійняв Капелюха з голови. Тієї миті почувся тихесенький
шепіт, що доринав ніби нізвідки й був схожим і на звичайну мову, і на
шипіння водночас: "`__С-салют від с-слизеринця с-слизеринцеві:
якш-ш-що ш-шукатимеш моїх с-секретів, поговори з моєю змією__`".

// 1619
//Harry was sorta guessing that wasn’t supposed to be part of the official
//Sorting process. And that it was a bit of extra magic set down by Salazar
//Slytherin during the making of the Hat. And that the Hat itself didn’t know
//about it. And that it was triggered when the Hat said “SLYTHERIN”, plus or
//minus some other conditions. And that a Ravenclaw like himself __really,
//really wasn’t supposed to have heard it__. And that if he could find some
//reliable way of swearing Draco to secrecy so he could ask him about it, that
//would be an excellent time to have some Comed-Tea handy.
Гаррі підозрював, що це аж ніяк не мало бути частиною офіційного процесу
сортування. І що тут не минулося без додаткового закляття від Салазара Слизерина, що його
він наклав на Капелюх під час створення. І що сам Капелюх не знав про це. І що
воно запускалося, коли Капелюх вимовляв: "`СЛИЗЕРИН`", плюс-мінус якісь додаткові
умови. І що жоден рейвенкловець __справді-справді не мав цього
почути__. І що знайти б якийсь надійний спосіб змусити Драко заприсягнутися
тримати все в таємниці та як слід його розпитати, то було б якраз до речі почастуватися
пирсконадом.

// 1620
//__Boy, you resolve not to go down the path of a Dark Lord and the
//universe starts messing with you the instant the Hat comes off your head. Some
//days it just doesn’t pay to fight destiny. Maybe I’ll wait until tomorrow to
//start on my resolution to not be a Dark Lord.__
"`Їй-бо, вирішуєш не йти шляхом темного лорда, як всесвіт починає насміхатися
з тебе, щойно ти знімаєш Капелюха з голови. Деякі дні просто не створені для боротьби з долею.
Мабуть, зачекаю до завтра, щоб узятися нищити в собі темного лорда`".

// 1621
//“GRYFFINDOR!”
-- ҐРИФІНДОР!

// 1622
//Ron Weasley got a __lot__ of applause, and not just from the Gryffindors.
//Apparently the Weasley family was widely liked around here. Harry, after a
//moment, smiled and started applauding along with the others.
Рон Візлі зірвав багато оплесків, і не лише від ґрифіндорців. Схоже,
родина Візлі була тут доволі популярною. За мить Гаррі всміхнувся й приєднався
до овацій.

// 1623
//Then again, there was no time like today to turn back from the Dark Side.
З другого боку, можливо, саме сьогодні йому випала унікальна нагода звернути зі
стежки до Темної Сторони.
// 1624
//Stuff destiny and stuff the universe. He’d show that Hat.
До дідька долю й до дідька всесвіт. Він ще покаже Капелюхові.

// 1625
//“Zabini, Blaise!”
-- Блез Забіні!

// 1626
//Pause.
Павза.

// 1627
//“SLYTHERIN!” shouted the hat.
-- СЛИЗЕРИН! -- вигукнув Капелюх.

// 1628
//Harry applauded Zabini too, ignoring the odd looks he was getting from everyone
//including Zabini.
Гаррі аплодував і Забіні, ігноруючи дивні погляди, що їх кидали на нього всі,
включно із Забіні.
// 1629
//No other name was called out after that, and Harry realised that “Zabini,
//Blaise” did sound close to the end of the alphabet. Great, so now he’d
//__only__ applauded Zabini… Oh well.
Жодного імені після цього не пролунало, і Гаррі збагнув, що Блез Забіні
завершував список першокласників. Чудово, він плескав __тільки__
Забіні... Ну й нехай.

// 1630
//Dumbledore got up again and began heading towards the podium. Apparently they
//were about to be treated to a speech -
Дамблдор підвівся й рушив до підвищення. Схоже, вони зараз
вислухають промову...

// 1631
//And Harry was struck by the inspiration for a __brilliant__ experimental
//test.
І тут Гаррі сяйнула ідея геніального досліду.

// 1632
//Hermione had said that Dumbledore was the most powerful wizard alive, right?
Герміона обмовилася була, що Дамблдор -- наймогутніший із живих чарівників, чи не
так?

// 1633
//Harry reached into his pouch and whispered, “Comed-Tea”.
Гаррі потягнувся до свого капшучка й пробубонів:

-- Пирсконад.

// 1634
//For the Comed-Tea to work, it would have to make Dumbledore say something
//__so__ ridiculous during his speech that even in Harry’s state of mental
//preparedness, he would __still__ choke. Like, all the Hogwarts students
//had to not wear any clothes for the whole school year, or everyone was going to
//be transformed into cats.
Щоб напій подіяв, Дамблдор мусив би вставити у свою
промову щось украй сміховинне, щоб навіть попри цілковиту
ментальну готовність Гаррі однаково похлинувся. Наприклад, що всім учням
Гоґвортсу заборонено носити одяг упродовж року чи що всіх треба перетворити на
котів.

// 1635
//But then if __anyone in the world__ could resist the power of the
//Comed-Tea, it would be Dumbledore. So if this worked, the Comed-Tea was
//literally __invincible.__
Проте якщо хтось у світі й здатен протистояти владі пирсконаду, то це
Дамблдор. Отже, якщо це спрацює, то пирсконад буквально __непереможний__.

// 1636
//Harry pulled the ring on the Comed-Tea under the table, wanting to do this a
//bit unobtrusively. The can made a quiet hissing noise. A few heads turned to
//look at him, but soon turned back as -
Гаррі потягнув за кільце бляшанки під столом, адже волів виконати все непомітно.
Рідина тихо зашипіла. Декілька пар очей зиркнуло в його напрямку, та невдовзі
повернулося назад, коли...

// 1637
//“Welcome! Welcome to a new year at Hogwarts!” said Dumbledore, beaming at the
//students with his arms opened wide, as if nothing could have pleased him more
//than to see them all there.
// hedrok: пряма мова Дамблдора - з оригіналу.
-- Вітаю вас! Вітаю вас із початком нового навчального року в Гоґвортсі! --
мовив Дамблдор до учнів, широко розкриваючи обійми, ніби ніщо не
могло втішити його більше, ніж бачити їх усіх тут.

// 1638
//Harry took a first mouthful of Comed-Tea and lowered the can again. He would
//swallow the pop a little at a time and try not to choke no matter __what__
//Dumbledore said -
Гаррі набрав повен рот пирсконаду й знову опустив бляшанку. Він робитиме маленькі
ковтки й намагатиметься не похлинутися, __хай там що__ верзтиме Дамблдор.

// 1639
//“Before we begin our banquet, I would like to say a few words. And here they
//are: Happy happy boom boom swamp swamp swamp! Thank you!”
// hedrok: крім самих слів, все з оригіналу.
-- Перед бенкетом я хотів би сказати ще кілька слів. Ось вони: щастя-щастя,
бах-бах, твань-твань-твань! Дякую!

// 1640
//Everyone clapped and cheered, and Dumbledore sat down again.
Усі схвально зааплодували, і Дамблдор вернувся на своє місце.

// 1641
//Harry sat frozen as pop trickled out of the corners of his mouth. He had, at
//least, managed to choke __quietly__.
Гаррі заклякло сидів, а напій струменів із кутків його рота. Принаймні він впорався
похлинутися тихо.
// 1642
//He really really __really__ shouldn’t have done that. Amazing how
//much__ more obvious__ that became __one second __after it was__
//too late__.
Йому справді, справді, __справді__ не варто було цього робити. Дивовижно,
наскільки очевиднішим це стало за секунду після того, як уже виявилося
запізно.

// 1643
//In retrospect he probably should have noticed something wrong when he was
//thinking about everyone being turned into cats… or even before then, remembered
//his mental note not to mess with Dumbledore… or his newfound resolution to be
//more considerate of others… or maybe if he’d had __one single scrap __of
//__common sense__…
Озираючись назад, Гаррі, напевно, мав збагнути, що він робить щось не те, ще
на думці про перетворення всіх на котів... Чи ще раніше -- пригадавши свою
ментальну примітку не займати Дамблдора... Чи нещодавнє рішення більше
зважати на почуття інших... Чи якби він мав __бодай дещицю здорового
ґлузду__...

// 1644
//It was hopeless. He was corrupt to the core. Hail the Dark Lord Harry. You
//couldn’t fight fate.
// @ corrupt to the core - має ж бути в нас якийсь сталий вираз?!
Це безнадійно. Він геть зіпсутий. Слава темному лордові Гаррі.
Боротися з долею неможливо.

// 1645
//Someone was asking Harry if he was all right. (Others were starting to serve
//themselves food, which had magically appeared on the table, whatever.)
// hedrok: @ whatever - гадаю автор має на увазі, що Гаррі цим вже не здивуєш
// і перекладав відповідною.
Хтось питав, чи все в нього гаразд. (Інші почали накладати собі їжі, що
магічно -- ото новина -- зʼявилася на столі.)

// 1646
//“I’m all right,” Harry said. “Excuse me. Um. Was that a… __normal__ speech
//for the Headmaster? You all… didn’t seem… very surprised…”
-- Усе гаразд, -- запевнив Гаррі. -- Перепрошую. Ем. А це була...
__нормальна__ промова для директора? Ви всі... не видавалися... дуже
здивованими...

// 1647
//“Oh, Dumbledore’s insane, of course,” said an older-looking Ravenclaw sitting
//next to him who had introduced himself with some name Harry didn’t even begin
//to remember. “Lots of fun, incredibly powerful wizard, but completely bonkers.”
//He paused. “At some later point I’d also like to ask why green fluid came out
//of your lips and then disappeared, though I expect you promised the Sorting Hat
//not to talk about that either.”
-- Та Дамблдор божевільний, звісно, -- відповів старший на вигляд рейвенкловець,
що сидів біля нього і якось відрекомендувався був, проте Гаррі навіть не намагався
запамʼятати як. -- Ото сміхота, надзвичайно могутній чарівник, проте геть клепки
розгубив, -- він спинився на хвильку. -- Трохи згодом я також хотів би дізнатися, чому з твоїх
губ потекла, а потім зникла зелена рідина. Та боюся, що ти обіцяв Сортувальному
Капелюхові й про це не розповідати.

// 1648
//With a great effort, Harry stopped himself from glancing down at the
//incriminating can of Comed-Tea in his hand.
Величезним зусиллям волі Гаррі не поглянув на бляшанку в руці, що
видало б його.

// 1649
//After all, the Comed-Tea hadn’t just arbitrarily __materialised__ a
//Quibbler headline about him and Draco. Draco had explained it in a way that
//made it seem like it had all happened… naturally? As if it had __altered
//history to fit?__
Зрештою, пирсконад не взяв і не матеріалізував був заголовок "`Базікала`" про
нього й Драко. Той пояснив усе так, ніби воно сталося... природно? Ніби
пирсконад __змінив історію, щоб усе збігалося__?

// 1650
//Harry was mentally imagining himself banging his forehead against the table.
//__Wham, wham, wham__ went his head within his mind.
Гаррі ментально уявив, як він бʼється головою об стіл. "`Бум-бум-бум`", --
видавала подумки його голова.

// 1651
//Another student lowered her voice to a whisper. “I hear that Dumbledore is
//secretly a genius mastermind controlling lots of stuff and he uses the insanity
//as a cover so that no one will suspect him.”
Інша учениця стишила голос до шепоту:

-- Я чула, що Дамблдор насправді геній, який таємно керує купою усього й
використовує своє божевілля як прикриття, щоб ніхто його не запідозрив.

// 1652
//“I’ve heard that too,” whispered a third student, and there were furtive nods
//from around the table.
-- І я таке чув, -- прошепотів хтось третій, і за столом покрадьки закивали.

// 1653
//This couldn’t help but catch Harry’s attention.
Це не могло не привернути Гарріної уваги.

// 1654
//“I see,” whispered Harry, lowering his own voice. “So everyone knows that
//Dumbledore is secretly a mastermind.”
-- Зрозуміло, -- прошепотів він, і ще стишив голос. -- Отже, всі знають, що
Дамблдор таємно всім керує.

// 1655
//Most of the students nodded. One or two looked suddenly thoughtful, including
//the older student sitting next to Harry.
Більшість учнів кивнула. Один чи двоє раптом замислилися, включно зі старшокласником,
що сидів біля Гаррі.

// 1656
//__Are you sure this is the Ravenclaw table?__ Harry managed not to ask out
//loud.
"`Це точно рейвенкловський стіл?`". Гаррі спромігся не бовкнути цього вголос.

// 1657
//“Brilliant!” Harry whispered. “If everyone knows, no one will suspect it’s a
//secret!”
-- Геніально! -- зашепотів він. -- Якщо всі знають, то ніхто не запідозрить,
що це таємниця!

// 1658
//“Exactly,” whispered a student, and then he frowned. “Wait, that doesn’t sound
//quite right -”
-- Саме так, -- погодився його сусід, а потім насупився. -- Зажди, щось тут не
те...

// 1659
//__Note to self: The 75th percentile of Hogwarts students a.k.a. Ravenclaw
//House is not the world’s most exclusive program for gifted children.__
// hedrok: @ 75th percentile (https://uk.wikipedia.org/wiki/Квантиль)
"`Примітка: верхній квартиль гоґвортських учнів, також відомий як гуртожиток
Рейвенклов, не є найвидатнішою програмою світу для обдарованих дітей`".

// 1660
//But at least he’d learned an important fact today. The Comed-Tea was
//omnipotent. And __that__ meant…
Принаймні він відкрив сьогодні важливий факт -- пирсконад усемогутній.
А __це__ означало...

// 1661
//Harry blinked in surprise as his mind finally made the obvious connection.
Гаррі кліпнув від подиву, коли його розум нарешті збагнув очевидний наслідок.

// 1662
//…__that__ meant that as soon as he learned a spell to temporarily alter
//his own sense of humor, he could make __anything __happen, by making it so
//that he would __only__ find that __one thing__ surprising enough to
//do a spit-take, and then drinking a can of Comed-Tea.
...__Це__ означало, щойно він опанує закляття, яке тимчасово змінює
його власне почуття гумору, то зможе змусити трапитися __що завгодно__:
зробити так, щоб __саме це__ було __єдиним__ з його погляду досить
кумедним, щоб похлинутися, і випити бляшанку пирсконаду.

// 1663
//__Well that was a short little journey to godhood. Even I expected this
//to take longer than my first day of school.__
"`Що ж, шлях до божественности виявився коротким. Навіть я очікував, що це потребуватиме
більше часу, ніж перший день школи`".

// 1664
//Come to think of it, he had also completely wrecked Hogwarts within ten minutes
//flat of getting Sorted.
Якщо подумати, то він заодно цілковито зіпсував Гоґвортс протягом не більш як
десяти хвилин після сортування.
// 1665
//Harry did feel a certain amount of regret about this - Merlin knew what an
//insane Headmaster was going to do to his next seven years of schooling - but he
//couldn’t __help__ feeling a twinge of pride, too.
Гаррі навіть дещо шкодував про це; лише Мерлінові відомо, що божевільний
директор збирався витворити з його наступними сімома роками шкільного життя.
Проте він також не міг стримати раптової гордости.

// 1666
//Tomorrow. No later than tomorrow at the very latest he was going to stop
//walking down the path that led to Dark Lord Harry. A prospect which was
//sounding scarier by the minute.
Завтра. Щонайпізніше завтра він зверне зі шляху, що веде до темного лорда
Гаррі. Перспектива, що видавалася дедалі страшнішою щохвилини.
// 1667
//And yet also, somehow, increasingly attractive. Part of his mind was already
//visualising the minions’ uniforms.
А втім, чомусь водночас дедалі привабливішою. Частина його розуму вже
уявляла уніформу для посіпак.

// 1668
//“Eat,” the older student sitting next to him growled, and jabbed Harry in the
//ribs. “Don’t think. Eat.”
-- Їж, -- прогарчав поруч старший рейвенкловець, штурхнувши Гаррі під ребра. -- Не думай.
Їж.

// 1669
//Harry automatically started loading up his plate with whatever was in front of
//him, blue sausages with tiny glowing bits, whatever.
Гаррі автоматично почав набирати собі на тарелю все, що потрапило під руку. Сині
сосиски з маленькими блискітками? Ото новина.

// 1670
//“What were you thinking about, the Sorting -” began to say Padma Patil, one of
//the other first-year Ravenclaws.
-- Про що ти задумався, про Сортувальний... -- почала було Падма Патіл, одна з
нова{stress}чок Рейвенклову.

// 1671
//“No pestering during mealtimes!” chorused at least three people. “House Rule!”
//added another. “Otherwise we’d all starve around here.”
-- Не надокучати за їжею! -- хором відізвалося принаймні три людини.

-- Це правило гуртожитку! -- додав хтось інший. -- Інакше ми всі померли б із
голоду.

// 1672
//Harry was finding himself really, really hoping that his clever new idea didn’t
//__actually__ work. And that the Comed-Tea worked some other way and didn’t
//__actually__ have the omnipotent power to alter reality. It wasn’t that he
//didn’t __want__ to be omnipotent. It was that he just couldn’t bear the
//thought of living in a universe that really worked like that. There was
//something __undignified__ about ascending through the clever use of fizzy
//drinks.
Гаррі з подивом зрозумів, що він дуже-дуже сподівався, що його кмітлива нова
ідея __насправді__ не подіє. І що пирсконад працював якось інакше й
__насправді__ не мав всемогутньої сили змінювати реальність. Не те щоб йому не
кортіло стати всемогутнім. Просто він не міг стерпіти життя у всесвіті,
ось так-от влаштованому. Було щось негідне в захопленні влади за допомогою
хитромудрого використання газованого напою.

// 1673
//But he __was__ going to test it experimentally.
Однак він збирався перевірити це експериментально.

// 1674
//“You know,” said the older student next to him in a quite pleasant tone, “we
//have a system for forcing people like you to eat, would you like to find out
//what it is?”
-- А знаєш, -- тихо й лагідно звернувся до нього старший учень, -- ми маємо метод
змушувати таких людей, як ти, їсти. Хочеш дізнатися який?

// 1675
//Harry gave up and started eating his blue sausage. It was quite good,
//especially the glowing bits.
Гаррі здався й заходився їсти синю сосиску. Виявилося доволі смачно, особливо
блискітки.

// 1676
//Dinner passed with surprising rapidity. Harry tried to sample at least a little
//of all the weird new foods he saw. His curiosity couldn’t stand the thought of
//__not knowing__ how something tasted. Thank goodness this wasn’t a
//restaurant where you had to order only one thing and you never found out what
//all the other things on the menu tasted like. Harry __hated__ that, it was
//like a torture chamber for anyone with a spark of curiosity: __Find out
//about only one of the mysteries on this list, ha ha ha!__
Вечеря завершилася навдивовижу швидко. Гаррі намагався скуштувати бодай
трохи кожної дивної нової страви, що її бачив. Його допитливість не могла
змиритися з незнанням того, як щось смакувало. Дяка богам, це не
ресторан, де треба замовити щось одне й ніколи не довідатися, яка на смак інша їжа в меню.
Гаррі ненавидів таке, це було ніби катівнею для будь-кого з іскрою цікавости:
"`Виберіть лише одну з таємниць у списку, ха-ха-ха!`".

// 1677
//Then it was time for dessert, which Harry had completely forgotten to leave
//room for. He gave up after sampling a small bit of treacle tart. Surely all
//these things would pass around at least once again over the course of the
//school year.
Потім настав час десерту: Гаррі геть забув залишити для нього місце
й здався після невеличкого шматочка мелясового пирога. Звісно, всі ці наїдки
подадуть ще бодай раз протягом навчального року.

// 1678
//So what was on his to-do list, besides the ordinary school things?
// Варіант від ikakok: То що залишалось в його списку справ, якщо забрати
// звичайні шкільні обовʼязки?
То що ж було в його переліку справ, крім звичайних шкільних обовʼязків?

// 1679
//__To-do 1. Research mind-alteration charms so you can test the Comed-Tea
//and see whether you actually did figure out a path to omnipotence. Actually,
//just research every kind of mind magic you can find. Mind is the foundation of
//our power as humans, any kind of magic that affects it is the most important
//sort of magic there is.__
"`Завдання 1. Дослідити чари зміни розуму, щоб можна було перевірити, чи справді
ти відшукав шлях до всемогуття за допомогою пирсконаду. А взагалі, усі
чари, повʼязані з мозком, що на них вдасться натрапити. Розум -- це основа
могутности людей; будь-яка магія, що впливає на нього, -- найважливіший вид
магії з можливих`".

// 1680
//__To-do 2. Actually this is To-do 1 and the other is To-do 2. Go through
//the bookshelves of the Hogwarts and Ravenclaw libraries, familiarising yourself
//with the system and making sure you’ve at least read all the book titles.
//Second pass: read all tables of contents. Coordinate with Hermione who has a
//much better memory than you. Find out if there’s an interlibrary loan system at
//Hogwarts and see if the two of you, especially Hermione, can visit those
//libraries too. If other Houses have private libraries, figure out how to access
//legally or sneak in.__
"`Завдання 2. Насправді, саме це має бути Завданням 1, а попереднє -- Завданням 2.
Переглянути книжкові шафи бібліотек Гоґвортсу й Рейвенклову, ознайомитися з їхньою системою
та обовʼязково прочитати принаймні назви всіх книжок. За другим заходом: прочитати
зміст кожної книжки. Треба скооперуватися з Герміоною, яка має набагато ліпшу,
ніж у тебе, памʼять. Дізнатися, чи існує в Гоґвортсі бібліотечний книгообмін і
чи хтось із нас двох, особливо Герміона, може відвідувати й ті бібліотеки. Якщо інші
гуртожитки мають приватні бібліотеки, вигадати, як здобути до них законний доступ чи
непомітно прокрастися`".

// 1681
//__Option 3a: Swear Hermione to secrecy and try to start researching ‘From
//Slytherin to Slytherin: if you would seek my secrets, speak to my snake.’
//Problem: This sounds highly confidential and it could take quite a while to
//randomly run across a book containing a hint.__
// hedrok: У лапках майже як 1618, але немає шипіння (бо Гаррі переклав на
// англійську), і немає Salutations.
"`Варіант 3-А. Взяти з Герміони слово тримати все в секреті й спробувати дослідити
'`від слизеринця слизеринцеві: якщо шукатимеш моїх секретів, поговори з моєю
змією`'. Проблема: це звучить украй конфіденційно й може знадобитися доволі
багато часу, щоб натрапити на книжку з якоюсь підказкою`".

// 1682
//__To-do 0: Check out what sort of information-search-and-retrieval spells
//exist, if any. Library magic isn’t as ultimately important as mind magic but it
//has a much higher priority.__
"Завдання 0. Розвідати, які існують закляття для
пошуку-здобуття інформації, якщо взагалі такі є. Бібліотечна магія загалом є не
настільки надзвичайно важливою, як магія розуму, але має значно вищий
пріоритет`".

// 1683
//__Option 3b: Look for a spell to magically bind Draco Malfoy to secrecy,
//or magically verify the sincerity of Draco’s promise to keep a secret
//(Veritaserum?), and then ask __him__ about Slytherin’s message…__
"`Варіант 3-Б. Пошукати закляття, що може магічно звʼязати Драко обіцянкою
зберігати таємницю (сироватка правди?), а потім спитати __його__ про
послання Слизерина...`".

// 1684
//Actually… Harry had a pretty bad feeling about option 3b.
Власне... Гаррі мав погане передчуття щодо варіанту 3-Б.

// 1685
//Now that Harry thought about it, he didn’t feel all that great about option 3a,
//either.
Якщо вже замислитися, то й варіант 3-А більше не здавався йому
таким чудовим.

// 1686
//Harry’s thoughts flashed back to possibly the worst moment of his life to date,
//those long seconds of blood-freezing horror beneath the Hat, when he thought
//he’d already failed. He’d wished then to fall back just a few minutes in time
//and change something, anything before it was too late…
Гаррі яскраво пригадав, мабуть, найгіршу мить свого життя -- ті довгі моторошні секунди
під Капелюхом, від яких кров холола в жилах, коли він думав, що вже зазнав поразки.
Він тоді хотів був повернутися в часі бодай на кілька хвилин і змінити щось, будь-що,
доки ще не запізно...

// 1687
//And then it had turned out to not be too late after all.
А потім виявилося, що, зрештою, було ще не запізно.

// 1688
//Wish granted.
Бажання виконано.

// 1689
//You couldn’t change history. But you could get it right to start with. Do
//something differently the __first__ time around.
Історію змінити неможливо. Проте її можна відразу творити правильно.
Вчинити якось інакше __першого__ разу.

// 1690
//This whole business with seeking Slytherin’s secrets… seemed an awful lot like
//the sort of thing where, years later, you would look back and say, ‘And
//__that__ was where it all started going wrong.’
Весь цей задум із пошуком секретів Слизерина... занадто скидався на щось таке, про що
він згадає роки потому й скаже: "`__Он__ коли все полетіло шкереберть`".
// 1691
//And he would wish desperately for the ability to fall back through time and
//make a different choice…
І несамовито прагнутиме мати змогу повернутися в часі й зробити інший
вибір...

// 1692
//Wish granted. Now what?
Бажання виконано. Що тепер?

// 1693
//Harry slowly smiled.
Гаррі поволі всміхнувся.

// 1694
//It was a rather __counterintuitive__ thought… but…
Це було доволі __контрінтуїтивною__ думкою... Проте...

// 1695
//But he __could,__ there was no rule saying he couldn’t, he __could__
//just pretend he’d never heard that little whisper. Let the universe go on in
//exactly the same way it would have if that one critical moment had never
//occurred. Twenty years later, that was what he would desperately wish had
//happened twenty years ago, and twenty years before twenty years later happened
//to be right now. Altering the distant past was easy, you just had to think of
//it at the right time.
Проте він __міг__ -- не існувало правила, що забороняло б таке, -- він __міг__
просто вдати, що ніколи не чув того тихого шепоту. Дозволити
всесвітові рухатися далі так, ніби цієї важливої події ніколи не відбулося.
Двадцять років потому саме цього він відчайдушно бажатиме: щоб так
трапилося було двадцять років тому, а за двадцять років до двадцяти років потому
було прямо зараз. Змінити давнє минуле просто -- треба лише вчасно подумати про
це.

// 1696
//Or… this was even __more__ counterintuitive… he could even inform, oh,
//say, __Professor McGonagall,__ instead of Draco __or__ Hermione. And
//she could get a few good people together and get that little extra spell taken
//off the Hat.
Чи... Це було навіть більш контрінтуїтивно... Замість Драко чи Герміони Гаррі міг сповістити,
скажімо, __професорку Макґонеґел__. Вона зможе
знайти декількох хороших людей і зняти це додаткове закляття з Капелюха.

// 1697
//Why, yes. That sounded like a __remarkably__ good idea once Harry had
//actually __thought__ of it.
Ну звісно! Ця ідея видавалася напрочуд вдалою тепер, коли він уже
__подумав__ про неї.

// 1698
//So very obvious in retrospect, and yet somehow, Option 3c and Option 3d just
//hadn’t occurred to him.
Так очевидно в ретроспективі, а все ж якось Варіант 3-В і Варіант 3-Г
просто не спали йому на гадку.

// 1699
//Harry awarded himself +1 point on his anti-Dark-Lord-Harry program.
Він нагородив себе одним балом у своїй програмі ні-темному-лордові-Гаррі.

// 1700
//It had been an awfully cruel prank the Hat had played on him, but you couldn’t
//argue with the results on consequentialist grounds. It certainly did give him a
//better idea of the victim’s perspective, though.
Капелюх зіграв був із ним жахливо жорстокий жарт, проте не можна було заперечувати
його наслідки згідно з консеквенціалізмом. І, безсумнівно, Гаррі тепер краще розумів,
як це все сприймається з погляду жертви.

// 1701
//__To-do 4: Apologise to Neville Longbottom.__
"`Завдання 4. Попросити вибачення в Невіла Лонґботома`".

// 1702
//Okay, he was on a roll here, now he just had to keep it up. __In every
//day, in every way, I’m getting Lighter and Lighter…__
// hedrok: @ можливо є щось ліпше, ніж "бути в ударі"?.. Ну будь ласочка...
// hedrok: "збавляти темп" - теж гадаю можна щось цікавіше...
// hedrok: In every day...: (https://en.wikipedia.org/wiki/Émile_Coué)
// hedrok: Tous les jours à tous points de vue je vais de mieux en mieux
// hedrok: Переклад з французького оригіналу буде незабаром...
Гаразд, поки що йому все йшло до рук, тепер лиш би втримати це. "`Щомиті,
хоч куди кинь оком, я світлішаю й світлішаю...`".

// 1703
//People around Harry had also mostly stopped eating at this point, and the
//dessert serving dishes began to vanish, and the used plates.
Люди навколо переважно також припинили їсти, а тарелі з
десертами почали зникати, як і використаний посуд.
// 1704
//When all the plates were gone, Dumbledore once again stood up from his seat.
Коли столи спорожніли, Дамблдор знову підвівся зі свого стільця.
// 1705
//Harry couldn’t help but feel the urge to drink another Comed-Tea.
Гаррі нічого не міг із собою вдіяти: йому захотілося випити ще пирсконаду.

// 1706
//__You’ve GOT to be kidding,__ Harry thought at that piece of himself.
"`Ти ж ЗНУЩАЄШСЯ`", -- подумав Гаррі тій своїй частині.

// 1707
//But the experiment didn’t count if it wasn’t replicated, did it? And the damage
//was already done, wasn’t it? Didn’t he want to see what would happen
//__this__ time? Wasn’t he __curious?__ What if he got a different
//result?
Проте дослід не береться до уваги, якщо його не відтворено, чи не так? А шкоди вже
заподіяно, чи не так? Хіба він не хоче дізнатися, що відбудеться __цього__ разу?
Хіба йому не __цікаво__? А що як результат виявиться іншим?

// 1708
//__Hey, I bet you’re the same part of my brain that pushed through the
//prank on Neville Longbottom.__
"`Агов, готовий закластися: ти та сама частина мого мозку, що придумала
витівку з Невілом Лонґботомом`".

// 1709
//Er, maybe?
Е-е... Можливо?

// 1710
//__And is it not __overwhelmingly__ obvious that if I do this I shall
//regret it one second after it is too late?__
"`І хіба не надміру очевидно, що якщо я піддамся, то пошкодую про це наступної ж миті,
як стане запізно?`".

// 1711
//Um…
Ем...

// 1712
//__Yeah. So, NO.__
"`Еге ж. Отже, НІТ`".

// 1713
//“Ahem,” said Dumbledore from the podium, stroking his long silver beard. “Just
//a few more words now that we are all fed and watered. I have a few
//start-of-term notices to give you.”
// hedrok: пряма мова з канону.
// "Е-е" замінено на "Кгем" усеперч канону навмисно. 
-- Кгем... -- почав Дамблдор із помосту, погладжуючи свою довгу сиву бороду. -- Ще
кілька слів, якщо ви вже наїлися й напилися. Перед початком навчального року я
маю кілька зауваг.

// 1714
//“First years should note that the forest on the grounds is forbidden to all
//pupils. That is why it is called the Forbidden Forest. If it were permitted it
//would be called the Permitted Forest.”
// hedrok: перше речення з канону
-- Першокласникам слід памʼятати, що всім учням заборонено ходити до лісу. Саме
тому він називається Забороненим. Якби він був дозволеним, то іменувався б як
Дозволений ліс.

// 1715
//Straightforward. __Note to self: Forbidden Forest is forbidden.__
Прямолінійно. "`Примітка: Заборонений ліс заборонений`".

// 1716
//“I have also been asked by Mr. Filch, the caretaker, to remind you all that no
//magic should be used between classes in the corridors. Alas, we all know that
//what __should be__, and what __is__, are two different things. Thank
//you for keeping this in mind.”
// hedrok: перше речення з канону.
-- Містер Філч, наш сторож, просив нагадати, що в шкільних коридорах на
перервах не можна вдаватися до магії. На жаль, усі ми знаємо: те, що __має
бути__, і те, що __є__, -- це дві різні речі. Дякую, що памʼятаєте про це.

// 1717
//Er…
Е-е...

// 1718
//“Quidditch trials will be held in the second week of the term. Anyone
//interested in playing for their house teams should contact Madam Hooch. Anyone
//interested in reformulating the entire game of Quidditch should contact Harry
//Potter.”
// hedrok: перші два речення з канону.
-- Гравців у квідич набиратимуть протягом другого тижня навчання. Усіх охочих
виступати за команди своїх гуртожитків прошу звертатися до мадам Гуч. Усіх охочих
переглянути засади квідичу -- до Гаррі Поттера.

// 1719
//Harry inhaled his own saliva and went into a coughing fit just as all eyes
//turned towards him. How the __hell!__ He hadn’t met Dumbledore’s eyes at
//any point… he didn’t __think.__ He certainly hadn’t been thinking about
//Quidditch at the time! He hadn’t talked to anyone but Ron Weasley and he didn’t
//__think__ Ron would have told anyone else… or had Ron run off to a
//professor to complain? __How__ on __Earth…__
// hedrok: @ How the hell / How on Earth;
// Пропозиція ikakok: Якого біса? Як він дізнався? / Що, заради Мерліна.
// Пропозиція ElviraIzmailova: Якого біса? Як це можливо? / З якого дива?
Гаррі вдавився власною слиною та заходився кашляти саме тоді, коли всі очі
повернулися до нього. Якого біса? Він жодного разу не зустрічався був поглядом із
Дамблдором... Принаймні йому так здавалося. І вже, безперечно,
не думав тієї миті про квідич! Він не розмовляв ні з ким про це, крім Рона Візлі,
і дуже сумнівався, що той розпатякав комусь іще... Чи таки побіг скаржитися
вчителям? Що за...

// 1720
//“Additionally, I must tell you that this year, the third-floor corridor on the
//right-hand side is out of bounds to everyone who does not wish to die a very
//painful death. It is guarded by an elaborate series of dangerous and
//potentially lethal traps, and you cannot possibly get past all of them,
//especially if you are only in your first year.”
// hedrok: перше речення з канону, тільки тут Additionally, а там And finally
// hedrok: останнє речення: копія в 104:17846
-- Крім того, хочу попередити, що цього року доступ до коридору на четвертому
поверсі праворуч заборонено всім, хто не хоче померти в нестерпних муках. Його
ретельно охороняє низка небезпечних і потенційно летальних пасток, що з ними
не до снаги впоратися нікому, а тим паче першокласникам.

// 1721
//Harry was numb at this point.
Гаррі вже було начхати.

// 1722
//“And finally, I extend my greatest thanks to Quirinus Quirrell for heroically
//agreeing to undertake the position of Defence Against the Dark Arts Professor
//at Hogwarts.” Dumbledore’s gaze moved searchingly across the students. “I hope
//all students will extend Professor Quirrell that utmost courtesy and
//__tolerance__ which is due his extraordinary service to you and this
//school, and that you __will not pester us__ with any __niggling
//complaints__ about him, unless __you__ want to try doing his job.”
-- І, нарешті, висловлюю найщирішу подяку Квірінові Квірелу, що героїчно погодився
обійняти посаду професора захисту від темних мистецтв у Гоґвортсі, --
Дамблдор окинув залу прискіпливим поглядом. -- Сподіваюся, що всі учні висловлять
професорові Квірелу найбільшу пошану й __терпимість__, як і належить за його
видатну працю на благо вас і цієї школи, і ніхто __не стане надокучати нам__
будь-якими __дрібʼязковими скаргами__ щодо нього, хіба що __ви__ бажаєте
виконувати його роботу.

// 1723
//What was __that__ about?
А __це__ що було?

// 1724
//“I now yield the floor to our new faculty member Professor Quirrell, who would
//like to say a few words.”
-- Тепер я передаю слово новому членові нашого викладацького колективу -- професорові
Квірелу, який бажає сказати декілька слів.

// 1725
//The young, thin, nervous man who Harry had first met in the Leaky Cauldron
//slowly made his way up to the podium, glancing fearfully around in all
//directions. Harry caught a glimpse of the back of his head, and it looked like
//Professor Quirrell might already be going bald, despite his seeming youth.
Молодий, худий, нервовий чоловік, що його Гаррі вперше зустрів був у "`Дірявому
казані`", повільно рушив до помосту, налякано озираючись довкола в усіх напрямках.
Гаррі на мить побачив його потилицю: скидалося на те, що попри молоду зовнішність професор Квірел уже почав
лисіти.

// 1726
//“Wonder what’s wrong with __him,__” whispered the older-looking student
//sitting next to Harry. Similar hushed comments were being exchanged elsewhere
//along the table.
-- Цікаво, що не так із __цим__, -- прошепотів старший рейвенкловець, що сидів
поруч із Гаррі. Схожими приглушеними коментарями обмінювалися всюди вздовж
стола.

// 1727
//Professor Quirrell made his way up to the podium and stood there, blinking.
//“Ah…” he said. “Ah…” Then his courage seemed to fail him utterly, and he stood
//there in silence, occasionally twitching.
Професор Квірел дійшов до помосту й закляк там, кліпаючи очима:

-- А... А...

Потім сміливість ніби цілковито покинула його, і він стояв там у тиші, подеколи
сіпаючись.

// 1728
//“Oh, great,” whispered the older student, “looks like another __long__
//year in Defence class -”
-- Ох, чудово, -- прошепотів старшокласник, -- схоже, в нас буде ще один
__довгий__ рік уроків захисту...

// 1729
//“Salutations, my young apprentices,” Professor Quirrell said in a dry,
//confident tone. “We all know that Hogwarts tends to suffer a certain
//__misfortune__ in its selections for this position, and no doubt many of
//you are already wondering what doom shall befall me this year. I assure you,
//that doom is not to be my incompetence.” He smiled thinly. “Believe it or not,
//I have long wished to someday try my hand as the Professor of Defence Against
//the Dark Arts here at the Hogwarts School of Witchcraft and Wizardry. The first
//to teach this class was Salazar Slytherin himself, and as late as the
//fourteenth century it was traditional for the greatest fighting wizards of
//every persuasion to try their hands at teaching here. Past Professors of
//Defence have included not just the legendary wandering hero Harold Shea but
//also the quote undying unquote Baba Yaga, yes, I see some of you are still
//shuddering at the sound of her name even though she’s been dead for six hundred
//years. That must have been an interesting time to attend Hogwarts, don’t you
//think?”
// hedrok: Baba Yaga, undying копія в 108:18392
-- Салют, мої юні учні, -- мовив професор Квірел сухим, упевненим тоном. -- Усі
ми знаємо, що над Гоґвортсом тяжіє певний __неталан__, коли доходить до вибору вчителів на цю
посаду; без сумніву, багато кого цікавить, яка лиха доля спіткає цьогоріч
мене. Запевняю вас: аж ніяк не моя некомпетентність, -- він слабо
всміхнувся. -- Вірте чи ні, я давно бажав спробувати стати одного дня професором
захисту від темних мистецтв тут, у Гоґвортській школі чарів і чаклунства.
Першим цього предмета навчав сам Салазар Слизерин. Ще в чотирнадцятому сторіччі
серед найвидатніших бойових магів будь-яких поглядів панувала традиція: пробувати
свої сили у викладанні тут. Серед колишніх професорів захисту був не лише легендарний
мандрівний герой Гарольд Ші, але й, цитата, невмируща, кінець цитати, Баба Яга.
Бачу, дехто з вас досі здригається від звучання її імені, хоча вона мертва
вже шість сотень років. Цікаві були часи для відвідування Гоґвортсу, як
гадаєте?

// 1730
//Harry was swallowing hard, trying to suppress the sudden surge of emotion that
//had overcome him when Professor Quirrell had begun speaking. The precise tones
//reminded him very much of a lecturer at Oxford, and it was starting to hit home
//that Harry wasn’t going to see his home or his Mum or his Dad until Christmas.
Гаррі важко ковтнув, намагаючись стримати раптову хвилю емоцій, що переповнили його,
коли професор Квірел почав говорити. Його чіткий тон дуже нагадував
лектора з Оксфорду, і Гаррі пройняло усвідомлення, що він не побачить ані дому,
ані мами, ані тата аж до Різдва.

// 1731
//“You are accustomed to the Defence position being filled by incompetents,
//scoundrels, and the unlucky. To anyone with a sense of history, it bears
//another reputation entirely. Not everyone who teaches here has been the best,
//but the best have all taught at Hogwarts. In such august company, and after so
//much time anticipating this day, I would be ashamed to set myself any standard
//lower than perfection. And so I do intend that every one of you will always
//remember this year as the __best__ Defence class that you have ever had.
//What you learn this year will forever serve as your firm foundation in the arts
//of Defence, no matter who your teachers before and after.”
// hedrok: @ august company
// hedrok: копія в 118:19482
-- Ви звикли, що викладачами захисту ставали некомпетентні, шахраї чи невдахи. Для
будь-кого, хто хоч трохи знає історію, ця посада має геть іншу репутацію. Не
всі, хто тут навчав, були найкращими, проте всі найкращі навчали в Гоґвортсі. У
такому найяснішому товаристві й після такого довгого очікування цього дня мені
було б соромно націлитися на рівень, нижчий від досконалости. Маю намір,
щоб кожен із вас назавжди запамʼятав цей рік як __найкращий__ курс захисту, що його ви
коли-небудь мали. Те, що ви вивчите цьогоріч, завжди слугуватиме непохитним підґрунтям
у мистецтві захисту, хай які вчителі будуть після чи були перед.

// 1732
//Professor Quirrell’s expression grew serious. “We have a __great__ deal of
//lost ground to make up and not much time to cover it. Therefore I intend to
//depart from Hogwarts teaching conventions in a number of respects, as well as
//introducing some optional after-school activities.” He paused. “If that is not
//sufficient, perhaps I can find new ways to motivate you. You are my
//long-awaited students, and you __will__ do your __very__ best in my
//long-awaited Defence class. I would add some sort of dreadful threat, like
//‘Otherwise you will suffer horribly’, but that would be so cliched, don’t you
//think? I pride myself on being more imaginative than that. Thank you.”
Вираз обличчя професора Квірела посерйознішав.

-- У нас __величезні__ прогалини в базових знаннях, що їх треба латати, а часу
обмаль. Тож я замислив відійти від навчальних звичаїв
Гоґвортсу в багатьох аспектах, а також запровадити деякі факультативні позашкільні
активності, -- він спинився на хвильку. -- Якщо цього недостатньо, мабуть, я знайду
способи мотивувати вас. Ви мої довгоочікувані учні й ви __працюватимете__ на
моїх довгоочікуваних уроках захисту __з усієї снаги__. Я додав би ще якусь жахливу
погрозу, мовляв, інакше ви страшенно пожалкуєте, але це надто скидається
на кліше, як гадаєте? Вважаю це не гідним моєї винахідливости. Дякую.

// 1733
//Then the vigour and confidence seemed to drain away from Professor Quirrell.
//His mouth gaped open as if he had suddenly found himself facing an unexpected
//audience, and he turned with a convulsive jerk and shuffled back to his seat,
//hunched over as if he was about to collapse in on himself and implode.
Потім бадьорість і впевненість випарувалися з професора Квірела. Він широко роззявив рота,
наче раптово виявив себе перед неочікуваною авдиторією,
крутнувся конвульсивним ривком, поплентався назад до свого місця й зігнувся над
ним, ніби збирався на нього впасти й вибухнути.

// 1734
//“He seems a little odd,” whispered Harry.
-- Він здається трохи дивним, -- прошепотів Гаррі.

// 1735
//“Meh,” said the older-looking student. “You ain’t seen nothin’.”
// hedrok: You ain't seen nothin'
-- Тю... -- кинув його старший сусід. -- Се ще тільки цвіт.

// 1736
//Dumbledore resumed the podium.
// 1737
//“And now,” said Dumbledore, “before we go to bed, let us sing the school song!
//Everyone pick their favourite tune and favourite words, and off we go!”
// hedrok: Пряма мова, крім "and favourite words", з канону.
-- А тепер, -- знову взяв слово Дамблдор, -- перед тим як лягати спати, заспіваймо нашу
шкільну пісню! Кожен вибирає свою улюблену мелодію й улюблені слова. Ну,
починаймо!
