// 2200
//== Conscientiousness
== Розділ 15. Сумлінність

// 2201
//Love as thou Rowling.
Кохай, як Ролінґ твоя.

// 2202
//Today’s historical tidbit: The ancient Hebrews considered the boundary of a day
//to be sunset rather than dawn, so they said “evening and morning” not “morning
//and evening”. (And as many reviewers noted, modern Jewish halacha asserts the
//same.)
Сьогоднішня історична цікавинка: стародавні євреї вважали межею дня захід, а не схід
сонця, тому казали "`вечір і ранок`" замість "`ранок і вечір`". (І, як зазначило
чимало рецензентів, сучасна юдейська галаха стверджує те саме.)

***

// 2203
//__“I’m sure I’ll find the time somewhere.”__
-- __Впевнений, що час я десь знайду.__

***

// 2204
//“__Frigideiro!__”
-- __Фріґідейро!__

// 2205
//Harry dipped a finger in the glass of water on his desk. It should have been
//cool. But lukewarm it was, and lukewarm it had stayed. Again.
Гаррі вмочив палець у воду в склянці, що стояла на його парті. Та мала
стати прохолодною, але як була тепленькою, так і залишилася. Знову.

// 2206
//Harry was feeling very, very cheated.
Гаррі почувався дуже, дуже ошуканим.

// 2207
//There were hundreds of fantasy novels scattered around the Verres household.
//Harry had read quite a few. And it was starting to look like he had a
//mysterious dark side. So after the glass of water had refused to cooperate the
//first few times, Harry had glanced around the Charms classroom to make sure no
//one was watching, and then taken a deep breath, concentrated, and made himself
//angry. Thought about the Slytherins bullying Neville, and the game where
//someone knocked down your books every time you tried to pick them up again.
//Thought about what Draco Malfoy had said about the ten-year-old Lovegood girl
//and how the Wizengamot really operated…
// @household
По всіх закутках дому Верресів можна було знайти сотні фантастичних романів. Гаррі
прочитав був їх чимало, і скидалося на те, що він мав загадкову темну
сторону. Тож, коли склянка води відмовилася співпрацювати перші кілька
разів, Гаррі подивився навсібіч, упевнюючись, що ніхто в класі чарів
за ним не спостерігає, глибоко вдихнув, зосередився й розізлив себе. Він подумав
про слизеринців, що знущалися з Невіла, і про гру, в якій хтось вибиває
з рук усі твої книжки щоразу, як ти намагаєшся підібрати їх. Згадав слова
Драко Мелфоя про десятирічну дівчинку Лавґудів і як насправді працює Чарверсуд...

// 2208
//And the fury had entered his blood, he had held out his wand in a hand that
//trembled with hate and said in cold tones “__Frigideiro!__” and absolutely
//nothing had happened.
І лють просочилася в його кров. Рукою, що тремтіла від ненависти, він підняв свою
паличку й холодним голосом промовив:

-- __Фріґідейро!__

Нічогісінько не відбулося.

// 2209
//Harry had been __gypped.__ He wanted to write someone and demand a
//__refund__ on his dark side which clearly __ought __to have
//irresistible magical power but had turned out to be __defective.__
Гаррі обшахрували. Йому хотілося написати комусь із вимогою відшкодувати
кошти за його темну сторону, що достоту мусила мати нездоланну
магічну силу, проте виявилася несправною.

// 2210
//“__Frigideiro!__” said Hermione again from the desk next to him. Her water
//was solid ice and there were white crystals forming on the rim of her glass.
//She seemed to be totally intent on her own work and not at all conscious of the
//other students staring at her with hateful eyes, which was either (a)
//dangerously oblivious of her or (b) a perfectly honed performance rising to the
//level of fine art.
// Ельвіра: fine art - https://uk.wikipedia.org/wiki/Витончені_мистецтва
-- __Фріґідейро!__ -- знову вигукнула Герміона із сусідньої парти.

Її вода стала
суцільною кригою, а облямівка склянки взялася білою памороззю. Видавалося, вона
цілковито зосередилася на своїй роботі й зовсім не усвідомлювала, що інші
учні витріщаються на неї сповненими ненависти очима. Це могло свідчити про щось одне:
(а) її небезпечну неуважність; (б) досконало відточену гру, що сягала
рівня витончених мистецтв.

// 2211
//“Oh, __very__ good, Miss Granger!” squeaked Filius Flitwick, their Charms
//Professor and Head of Ravenclaw, a tiny little man with no visible signs of
//being a past dueling champion. “Excellent! Stupendous!”
-- О, __дуже__ добре, міс Ґрейнджер! -- пискнув Філіус Флитвік, їхній професор
чарів і вихователь Рейвенклову, крихітний чоловічок, чия зовнішність
нічим не виказувала чемпіона-дуелянта в минулому. -- Бездоганно! Дивовижно!

// 2212
//Harry had expected to be, in the worst case, second behind Hermione. Harry
//would have preferred for __her__ to be rivalling __him,__ of course,
//but he could have accepted it the other way around.
У найгіршому разі Гаррі мав надію виявитися другим після Герміони. Звісно,
краще б це вона конкурувала з ним, та можна змиритися
й зі зворотною ситуацією.
// 2213
//As of Monday, Harry was headed for the bottom of the class, a position for
//which he was companionably rivalling all the other Muggle-raised students
//except Hermione. Who was all alone and rivalless at the top, poor thing.
Однак станом на понеділок він плентався у хвості класу,
по-дружньому змагаючись за звання найгіршого учня з усіма іншими вихованими
маґлами дітьми, окрім Герміони. Та сама-самісінька розмістилася на вершині, зовсім
без суперників, бідолашка.

// 2214
//Professor Flitwick was standing over the desk of one of the other Muggleborns
//and quietly adjusting the way she was holding her wand.
Професор Флитвік стояв над партою однієї з дівчат маґлівського роду й спокійно
коригував спосіб, у який та тримала паличку.

// 2215
//Harry looked over at Hermione. He swallowed hard. It was the obvious role for
//her in the scheme of things… “Hermione?” Harry said tentatively. “Do you have
//any idea what I might be doing wrong?”
Гаррі поглянув на Герміону й тяжко ковтнув. За таких обставин її роль
була очевидною...

-- Герміоно? -- запитав він невпевнено. -- Ти маєш якісь думки, що саме я
роблю не так?

// 2216
//Hermione’s eyes lit up with a terrible light of helpfulness and something in
//the back of Harry’s brain screamed in desperate humiliation.
Герміонині очі запалали жахливим вогнем корисности, від якого щось у Гарріній підсвідомості
заволало від розпачливого приниження.

// 2217
//Five minutes later, Harry’s water did seem noticeably cooler than room
//temperature and Hermione had given him a few verbal pats on the head and told
//him to pronounce it more carefully next time and gone off to help someone else.
Пʼять хвилин потому його вода стала помітно холоднішою за кімнатну
температуру. Герміона кілька разів вербально погладила Гаррі по голівці, порадила
наступного разу вимовляти замовляння чіткіше й пішла допомагати комусь іншому.

// 2218
//Professor Flitwick had given her a House point for helping him.
Професор Флитвік нарахував Герміоні очко за допомогу Гаррі.
// 2219
//Harry was gritting his teeth so hard his jaw ached and that wasn’t helping his
//pronunciation.
Той міцно зціпив зуби, аж щелепа заболіла, а це аж ніяк не
поліпшувало його вимови.

// 2220
//__I don’t care if it’s unfair competition. I know exactly what I am doing
//with two extra hours every day. I am going to sit in my trunk and study until I
//am keeping up with Hermione Granger.__
"`Мені начхати, що це нечесне змагання. Я точно знаю, що робитиму з двома
додатковими годинами щодня: сидітиму у своїй валізі й навчатимуся, доки не
наздожену Герміону Ґрейнджер`".

***

// 2221
//“Transfiguration is some of the most complex and dangerous magic you will learn
//at Hogwarts,” said Professor McGonagall. There was no trace of any levity upon
//the face of the stern old witch. “Anyone messing around in my class will leave
//and not come back. You have been warned.”
// Ельвіра: вся пряма мова Макґонеґел у цьому абзаці - канон
-- Трансфігурація -- одна з найскладніших і найнебезпечніших магічних дисциплін, що їх
вивчають у Гоґвортсі, -- промовила професорка Макґонеґел. На обличчі суворої старої
відьми не було й сліду легковажности. -- Той, хто бешкетуватиме в моєму класі,
негайно з нього вийде й більше ніколи не повернеться. Я вас попередила.

// 2222
//Her wand came down and tapped her desk, which smoothly reshaped itself into a
//pig. A couple of Muggleborn students gave out small yelps. The pig looked
//around and snorted, seeming confused, and then became a desk again.
Її паличка опустилася й торкнулася стола, що плавно перетворився на свиню.
Кілька учнів маґлівського роду зойкнуло. Свиня розгублено роззирнулася довкола,
чмихнула, а тоді знову зробилася столом.

// 2223
//The Transfiguration Professor looked around the classroom, and then her eyes
//settled on one student.
Професорка трансфігурації огледіла класну кімнату, зрештою зупинивши погляд
на одному учневі:

// 2224
//“Mr. Potter,” said Professor McGonagall. “You only received your schoolbooks a
//few days ago. Have you started reading your Transfiguration textbook?”
-- Містере Поттер, ви отримали свої
навчальні матеріали лише кілька днів тому. Чи ви вже почали читати підручник із
трансфігурації?

// 2225
//“No, sorry professor,” Harry said.
-- Ні, вибачте, професорко, -- відповів Гаррі.

// 2226
//“You needn’t apologise, Mr. Potter, if you were required to read ahead you
//would have been told to do so.” McGonagall’s fingers rapped the desk in front
//of her. “Mr. Potter, would you care to guess whether this is a desk which I
//Transfigured into a pig, or if it began as a pig and I briefly removed the
//Transfiguration? If you had read the first chapter of your textbook, you would
//know.”
-- Не варто вибачатися. Якби завчасне читання було
обовʼязковим, вас би про це попередили, -- вона постукала пальцями
по столу, що стояв перед нею. -- Містере Поттер, не бажаєте
зробити припущення: це стіл, що його я трансфігурувала на свиню, чи це від самого
початку була свиня, а я ненадовго зняла трансфігурацію? Якби ви прочитали
перший розділ підручника, то знали б.

// 2227
//Harry’s eyebrows furrowed slightly. “I’d guess it’d be easier to start with a
//pig, since if it started as a desk, it might not know how to stand up.”
-- Я б припустив, -- Гаррі злегка насупив брови, -- що легше почати зі свині, адже якщо починати зі стола,
то свиня може не знати, як стояти.

// 2228
//Professor McGonagall shook her head. “No fault to you, Mr. Potter, but the
//correct answer is that in Transfiguration you do __not__ care to guess.
//Wrong answers will be marked with extreme severity, questions left blank will
//be marked with great leniency. You must learn to know what you do not know. If
//I ask you any question, no matter how obvious or elementary, and you answer
//‘I’m not sure’, I will not hold it against you and anyone who laughs will lose
//House points. Can you tell me why this rule exists, Mr. Potter?”
-- Я вам не докоряю, містере Поттер, -- професорка Макґонеґел похитала головою, -- проте правильна відповідь: у трансфігурації
ви __не бажаєте__ робити припущень. Помилкові відповіді буде оцінено надзвичайно
суворо, а запитання, залишені без відповіді, -- з великою поблажливістю. Ви мусите
навчитися розуміти, чого саме ви не знаєте. Якщо я поставлю будь-яке запитання --
неважливо, наскільки тривіальне чи просте, -- і ви відповісте: "`Я не певен`",
я не звинувачуватиму вас, а будь-хто, хто розсміється, втратить очки.
Чи можете ви сказати, чому це правило існує, містере Поттер?

// 2229
//__Because a single error in Transfiguration can be incredibly dangerous.
//__“No.”
"`Бо одна-єдина помилка в трансфігурації може виявитися неймовірно небезпечною`".

-- Ні.

// 2230
//“Correct. Transfiguration is more dangerous than Apparition, which is not
//taught until your sixth year. Unfortunately, Transfiguration must be learned
//and practised at a young age to maximise your adult ability. So this is a
//dangerous subject, and you should be quite scared of making any mistakes,
//because none of my students have ever been permanently injured and I will be
//__extremely put out __if you are the first class to__ spoil my
//record__.”
-- Правильно. Трансфігурація небезпечніша за явлення, яке викладають
лише з шостого класу. На жаль, для максимізації своїх здібностей у дорослому віці
її потрібно вивчати й тренувати змалечку. Отже, це небезпечний
предмет, і вам варто стерегтися будь-яких помилок. Ніхто з моїх учнів ще ніколи
не зазнавав непоправної шкоди, і я __надзвичайно засмучуся__, якщо ви станете
першим класом, що __зіпсує мій рекорд__.

// 2231
//Several students gulped.
Кілька школярів знервовано ковтнуло.

// 2232
//Professor McGonagall stood up and moved over to the wall behind her desk, which
//held a polished wooden board. “There are many reasons why Transfiguration is
//dangerous, but one reason stands above all the rest.” She produced a short
//quill with a thick end, and used it to sketch letters in red; which she then
//underlined, using the same marker, in blue:
Професорка Макґонеґел підвелася й підійшла до стіни за своїм столом, на якій висіла
полірована класна дошка.

-- Існує чимало причин, з яких трансфігурація є небезпечною,
але одна з них важливіша за інші, -- вона створила коротке перо з товстим
кінцем і вивела ним червоні літери, а потім підкреслила їх
синім, використавши той самий маркер.

// 2233
//TRANSFIGURATION IS NOT PERMANENT!
+++<center>+++[underline]#ТРАНСФІГУРАЦІЯ НЕПОСТІЙНА!#+++</center>+++

// 2234
//“Transfiguration is not permanent!” said Professor McGonagall. “Transfiguration
//is not permanent! Transfiguration is not permanent! Mr. Potter, suppose a
//student Transfigured a block of wood into a cup of water, and you drank it.
//What do you imagine might happen to you when the Transfiguration wore off?”
//There was a pause. “Excuse me, I should not have asked that of you, Mr. Potter,
//I forgot that you are blessed with an unusually pessimistic imagination -”
-- Трансфігурація непостійна! -- виголосила професорка Макґонеґел. -- Трансфігурація
непостійна! Трансфігурація непостійна! Містере Поттер, припустімо, хтось
трансфігурував шматок деревини на чашку з водою, а ви її випили. Як гадаєте,
що з вами трапиться, коли ефект трансфігурації вичерпається?

Нависла тиша.

-- Пробачте, містере Поттер, не слід було запитувати про це вас. Я забула, що вас
обдаровано напрочуд песимістичною уявою...

// 2235
//“I’m fine,” Harry said, swallowing hard. “So the first answer is that I don’t
//__know__,” the Professor nodded approvingly, “but I __imagine__ there
//might be… wood in my stomach, and in my bloodstream, and if any of that water
//had gotten absorbed into my body’s tissues - would it be wood pulp or solid
//wood or…” Harry’s grasp of magic failed him. He couldn’t understand how wood
//mapped into water in the first place, so he couldn’t understand what would
//happen after the water molecules were scrambled by ordinary thermal motions and
//the magic wore off and the mapping reversed.
-- Нічого страшного, -- відповів Гаррі, тяжко ковтнувши. -- Отже, перша відповідь: я
не __знаю__, -- професорка схвально кивнула, -- проте я __можу уявити__, що... дерево
опиниться в моєму шлунку й у моїй кровоносній системі, а якщо хоч частину тієї води
поглинуть тканини мого тіла -- цікаво, це буде дерев’яна пульпа, суцільне
дерево чи...

Гарріне розуміння магії підвело його. Передусім він не міг
збагнути, як дерево зіставляється з водою, а тому йому не вдавалося змалювати розвиток подій
після того, як молекули води перемішаються внаслідок звичайного теплового руху,
чари вичерпаються й відбудеться зворотне перетворення.

// 2236
//McGonagall’s face was stiff. “As Mr. Potter has correctly reasoned, he would
//become extremely sick and require immediate Flooing to St. Mungo’s Hospital if
//he was to have any chance of survival. Please turn your textbooks to page 5.”
-- Як правильно зауважив містер Поттер, -- Макґонеґел напружилася, -- він стане вкрай хворим і потребуватиме
нагального флуювання до лікарні Святого Мунґо, щоб мати бодай шанс вижити.
Будь ласка, розгорніть свої підручники на п’ятій сторінці.

// 2237
//Even without any sound in the moving picture, you could tell that the woman
//with horribly discolored skin was screaming.
Навіть без звуку ставало зрозуміло, що зображена на рухомій світлині жінка зі
страшенно знебарвленою шкірою кричала.

// 2238
//“The criminal who originally Transfigured gold into wine and gave it to this
//woman to drink, ‘in payment of the debt’ as he put it, received a sentence of
//ten years in Azkaban. Please turn to page 6. That is a Dementor. They are the
//guardians of Azkaban. They suck away at your magic, your life, and any happy
//thoughts you try to have. The picture on page 7 is of the criminal ten years
//later, on his release. You will note that he is dead - yes, Mr. Potter?”
-- Злочинця, що трансфігурував був золото на вино й почастував ним цю жінку --
як плату за борг, з його слів, -- було засуджено до десяти років Азкабану.
Будь ласка, перегорніть на шосту сторінку. Це дементор. Дементори -- це вартові
Азкабану. Вони висмоктують із людей магію, життя й будь-які щасливі думки, що
намагаються виникнути в їхніх головах. Світлина на сьомій сторінці -- цей самий
злочинець десять років потому, коли настав час його звільнення. Як бачите,
він мертвий... Так, містере Поттер?

// 2239
//“Professor,” Harry said, “if the worst happens in a case like that, is there
//any way of __maintaining__ the Transfiguration?”
-- Професорко, якщо трапиться найгірше в ситуації, як-от ця, чи існує спосіб
підтримувати трансфігурацію?

// 2240
//“No,” Professor McGonagall said flatly. “Sustaining a Transfiguration is a
//constant drain on your magic which scales with the size of the target form. And
//you would need to recontact the target every few hours, which is, in a case
//like this, impossible. Disasters like this are __unrecoverable!__”
-- Ні, -- відрізала вона. -- Забезпечення трансфігурації
потребує постійних витрат вашої магії, обсяг яких залежить від розміру цільового
об’єкта. І доведеться відновлювати контакт із об’єктом щокілька годин, що
за таких умов неможливо. Такі катастрофи невиправні.

// 2241
//Professor McGonagall leaned forwards, her face very hard. “You will absolutely
//never under any circumstances Transfigure anything into a liquid or a gas. No
//water, no air. Nothing like water, nothing like air. Even if it is not meant to
//drink. Liquid __evaporates,__ little bits and pieces of it get into the
//air. You will not Transfigure anything that is to be burned. It will make smoke
//and someone could breathe that smoke! You will never Transfigure anything that
//could conceivably go inside anyone’s body by any means. No food. Nothing that
//__looks like__ food. Not even as a funny little prank where you mean to
//tell them about your mud pie before they actually eat it. You will never do it.
//Period. Inside this classroom or out of it or __anywhere.__ Is that well
//understood by __every single student?__”
Професорка Макґонеґел нахилилася вперед із надзвичайно суворим обличчям:

-- Ви ніколи й у жодному разі не трансфігуруватимете нічого на рідину чи газ.
Ані на воду, ані на повітря. Нічого подібного до води, нічого подібного до повітря.
Навіть якщо це не питна рідина, вона випаровується, її невеличкі частинки
потрапляють у повітря. Ви не трансфігуруватимете на те, що має згоріти. Це створить
дим, що його хтось може вдихнути! Ви ніколи не трансфігуруватимете на те, що
гіпотетично може потрапити всередину чийогось тіла в будь-який спосіб. Жодної їжі.
Нічого схожого на їжу. Навіть заради невеличкої смішної витівки,
коли ви збираєтеся розповісти про свій пиріг із грязюки раніше, ніж хтось його
з’їсть. Ви ніколи цього не робитимете. На уроці, всередині цієї кімнати, поза
нею чи де завгодно. Чи це цілковито зрозуміло кожному учневі?

// 2242
//“Yes,” said Harry, Hermione, and a few others. The rest seemed to be
//speechless.
-- Так, -- озвалися Гаррі, Герміона й ще кілька голосів. Інші мов оніміли.

// 2243
//“__Is that well understood by every single student?__”
-- __Чи це цілковито зрозуміло кожному учневі__?

// 2244
//“Yes,” they said or muttered or whispered.
-- Так, -- промовили, пробубоніли й прошепотіли вони.

// 2245
//“If you break any of these rules you will not further study Transfiguration
//during your stay at Hogwarts. Repeat along with me. I will never Transfigure
//anything into a liquid or gas.”
-- Якщо ви порушите будь-яке з цих правил, то надалі не вивчатимете трансфігурації
в Гоґвортсі. Повторюйте разом зі мною: я ніколи не трансфігуруватиму нічого на
рідину чи газ.

// 2246
//“I will never Transfigure anything into a liquid or gas,” said the students in
//ragged chorus.
-- Я ніколи не трансфігуруватиму нічого на рідину чи газ, -- відгукнувся безладний хор
учнів.

// 2247
//“Again! Louder! I will never Transfigure anything into a liquid or gas.”
-- Ще раз! Гучніше! Я ніколи не трансфігуруватиму нічого на рідину чи газ.

// 2248
//“I will never Transfigure anything into a liquid or gas.”
// hedrok: є копія в 028:5741
-- Я ніколи не трансфігуруватиму нічого на рідину чи газ.

// 2249
//“I will never Transfigure anything that looks like food or anything else that
//goes inside a human body.”
// hedrok: є копія в 028:5742
-- Я ніколи не трансфігуруватиму нічого на те, що схоже на їжу чи будь-що інше,
що потрапляє всередину людського тіла.

// 2250
//“I will never Transfigure anything that is to be burned because it could make
//smoke.”
// "that is to be turned" 051:9155, 057:10080
-- Я ніколи не трансфігуруватиму нічого на те, що має згоріти, бо це може створити
дим.

// 2251
//“You will never Transfigure anything that looks like money, including Muggle
//money,” said Professor McGonagall. “The goblins have ways of finding out who
//did it. As a matter of recognised law, the goblin nation is in a permanent
//state of __war__ with all magical counterfeiters. They will not send
//Aurors. They will send an army.”
-- Ви ніколи не трансфігуруватимете нічого на те, що схоже на гроші, зокрема
маґлівські, -- застерегла професорка Макґонеґел. -- Ґобліни вміють
дізнаватися, хто це зробив. Згідно з чинним законом, нація ґоблінів перебуває
в стані постійної війни з усіма магічними фальшивомонетниками. Вони не
надсилатимуть аврорів. Вони надішлють армію.

// 2252
//“I will never Transfigure anything that looks like money,” repeated the
//students.
-- Я ніколи не трансфігуруватиму нічого на те, що схоже на гроші, -- повторили
учні.

// 2253
//“And __above all__,” said Professor McGonagall, “you will not Transfigure
//any living subject, __especially yourselves.__ It will make you very sick
//and possibly dead, depending on how you Transfigure yourself and how long you
//maintain the change.” Professor McGonagall paused. “Mr. Potter is currently
//holding up his hand because he has seen an Animagus transformation -
//specifically, a human transforming into a cat and back again. But an Animagus
//transformation is not __free__ Transfiguration.”
-- І __понад усе__: ви ніколи не
трансфігуруватимете нічого живого, __особливо самих себе__. Це зробить
вас дуже хворими й, можливо, мертвими, залежно від того, як саме ви себе
трансфігуруєте та як довго підтримуватимете зміну, --
професорка Макґонеґел зупинилася.
-- Містер Поттер щойно підняв руку догори, адже він бачив перетворення анімага,
зокрема перетворення людини на кицьку й назад. Але перетворення анімага не є
__вільною__ трансфігурацією.

// 2254
//Professor McGonagall took a small chunk of wood out of her pocket. With a tap
//of her wand it became a glass ball. Then she said “__Crystferrium!__” and
//the glass ball became a steel ball. She tapped it with her wand one last time
//and the steel ball became a piece of wood once more. ”__Crystferrium__
//transforms a subject of solid glass into a similarly shaped target of solid
//steel. It cannot do the reverse, nor can it transform a desk into a pig. The
//most general form of Transfiguration - free Transfiguration, which you will be
//learning here - is capable of transforming any subject into any target, at
//least so far as physical form is concerned. For this reason, free
//Transfiguration must be done wordlessly. Using Charms would require different
//words for every different transformation between subject and target.”
Вона дістала з кишені невеличкий шматок деревини, торкнулася
його паличкою, перетворивши на скляну кулю, і сказала:

-- __Кристферріум!__

Скляна куля стала сталевою. Ще одне торкання паличкою -- і знову обернулася на шмат деревини.

-- "`Кристферріум`" перетворює суцільно скляний обʼєкт на суцільно сталевий
подібної форми. Воно не в змозі зробити зворотне перетворення, як і
не в змозі перетворити стіл на свиню. Найзагальніша форма трансфігурації --
вільна, яку ви й вивчатимете, -- здатна перетворити будь-який об’єкт
на будь-що інше, принаймні коли йдеться про матеріальну форму. Саме тому вільна
трансфігурація має виконуватися безмовно. Використання чарів потребувало б
різних слів для кожної окремої трансфігурації між об’єктом і ціллю.

// 2255
//Professor McGonagall gave her students a sharp look. “__Some__ teachers
//begin with Transfiguration Charms and move on to free Transfiguration
//afterwards. Yes, that would be much easier in the beginning. But it can set you
//in a poor mold which impairs your abilities later. Here you will learn free
//Transfiguration from the __very start__, which requires that you cast the
//spell wordlessly, by holding the subject form, the target form, and the
//transformation within your own mind.”
// @ set you in a poor mold
Професорка Макґонеґел виразно оглянула клас:

-- Деякі вчителі починають із трансфігураційних чарів, а вже потім переходять
до вільної трансфігурації. Так, це було б значно простіше на поча{stress}тках, проте це
може сформувати у вас неправильні навички й послабити ваші здібності пізніше. На
моїх заняттях ви відразу вивчатимете вільну трансфігурацію, що потребуватиме
безмовного накладання заклять. Для цього вам доведеться тримати в голові
форму початкового об’єкта, форму цільового об’єкта й процес трансформації.

// 2256
//“And to answer Mr. Potter’s question,” Professor McGonagall went on, “it is
//__free__ Transfiguration which you must never do to any living subject.
//There are Charms and potions which can safely, reversibly transform living
//subjects in __limited__ ways. An Animagus with a missing limb will still
//be missing that limb after transforming, for example. Free Transfiguration is
//__not__ safe. Your body will change while it is Transfigured - breathing,
//for example, results in a constant loss of the body’s stuff to the surrounding
//air. When the Transfiguration wears off and your body tries to revert to its
//__original__ form, it will not quite be able to do so. If you press your
//wand to your body and imagine yourself with golden hair, afterwards your hair
//will fall out. If you visualise yourself as someone with clearer skin, you will
//be taking a long stay at St. Mungo’s. And if you Transfigure yourself into an
//adult bodily form, then, when the Transfiguration wears off, you will die.”
-- І відповідаючи на запитання містера Поттера, -- провадила далі професорка
Макґонеґел. -- Саме __вільну__ трансфігурацію ви не маєте застосовувати до
жодної живої істоти. Існують чари й зілля для безпечного
оборотного й __обмеженого__ перетворення живих істот. Наприклад, анімаг, що не має
кінцівки, не матиме її й після перетворення. Вільна трансфігурація __не є
безпечною__. Ви змінитеся, доки будете в трансфігурованому стані: дихання,
наприклад, спричинює постійну втрату матерії в довкілля. Коли
трансфігурація вичерпається, а тіло спробує повернутися до своєї __початкової__
форми, воно буде не цілком спроможним це зробити. Притиснете до себе паличку
й уявите своє волосся золотим -- згодом воно вилізе.
Візуалізуєте себе кимось із чистішою шкірою -- забезпечите собі тривале
перебування в лікарні Святого Мунґо. А якщо трансфігуруєте себе на тілесну форму
дорослого -- помрете, коли дія трансфігурації минеться.

// 2257
//That explained why he had seen such things as fat boys, or girls less than
//perfectly pretty. Or old people, for that matter. That wouldn’t happen if you
//could just Transfigure yourself every morning… Harry raised his hand and tried
//to signal Professor McGonagall with his eyes.
Це пояснювало, чому він бачив товстих хлопців і менш ніж бездоганно привабливих
дівчат. Чи старих людей, коли вже на те пішло. Такого б не було, якби існувала
можливість просто трансфігурувати себе щоранку... Гаррі підняв руку й спробував
очима подати професорці Макґонеґел сигнал.

// 2258
//“__Yes__, Mr. Potter?”
-- Так, містере Поттер?

// 2259
//“Is it possible to Transfigure a living subject into a target that is static,
//such as a coin - no, excuse me, I’m terribly sorry, let’s just say a steel
//ball.”
-- Чи можливо трансфігурувати живий об’єкт на статичну ціль, як-от монету, --
ні, вибачте, мені дуже шкода. Скажімо, на сталеву кулю?

// 2260
//Professor McGonagall shook her head. “Mr. Potter, even inanimate objects
//undergo small internal changes over time. There would be no visible changes to
//your body afterwards, and for the first minute, you would notice nothing wrong.
//But in an hour you would be sick, and in a day you would be dead.”
Професорка Макґонеґел похитала головою:

-- Містере Поттер, навіть неживі об’єкти з плином часу зазнаю{stress}ть невеличких внутрішніх
змін. Набувши первинної форми, ваше тіло візуально начебто залишиться таким самим,
і протягом першої хвилини ви не зауважите жодних негараздів. Але вже за годину ви захворієте,
а за день -- помрете.

// 2261
//“Erm, excuse me, so if I’d read the first chapter I could have __guessed__
//that the desk was originally a desk and not a pig,” Harry said, “but only if I
//made the __further__ assumption that you didn’t want to kill the pig, that
//might __seem__ highly probable but -”
-- Кгем, вибачте, то якби я прочитав був перший розділ, я міг би здогадатися,
що стіл від початку був столом, а не свинею, -- промовив Гаррі. -- Але тільки
попередньо припустивши, що ви не хочете вбивати свиню, що видається
доволі ймовірним, проте...

// 2262
//“I can foresee that marking your tests will be an endless source of delight to
//me, Mr. Potter. But if you have other questions can I please ask you to wait
//until after class?”
-- Маю передчуття, що оцінювання ваших контрольних робіт стане
нескінченним джерелом втіхи для мене, містере Поттер. Але якщо ви маєте інші
запитання, чи не погодитеся притримати їх до кінця заняття?

// 2263
//“No further questions, professor.”
-- Більше питань немає, професорко.

// 2264
//“Now repeat after me,” said Professor McGonagall. “I will never try to
//Transfigure any living subject, especially myself, unless specifically
//instructed to do so using a specialised Charm or potion.”
-- Тепер повторюйте за мною, -- звеліла професорка Макґонеґел. -- Я ніколи
не намагатимуся трансфігурувати нічого живого, особливо самого себе,
хіба що мене конкретно проінструктують зробити це, використовуючи спеціалізовані
чари чи зілля.

// 2265
//“If I am not sure whether a Transfiguration is safe, I will not try it until I
//have asked Professor McGonagall or Professor Flitwick or Professor Snape or the
//Headmaster, who are the only recognised authorities on Transfiguration at
//Hogwarts. Asking another student is __not__ acceptable, even if they say
//that they remember asking the same question.”
-- Якщо я сумніваюся в безпечності трансфігурації, я не виконуватиму її, доки
не спитаю або професорку Макґонеґел, або професора Флитвіка, або професора Снейпа,
або директора: вони єдині визнані фахівці з трансфігурації в Гоґвортсі.
Консультуватися з іншими учнями __неприйнятно__, навіть якщо вони стверджують, що памʼятають,
як ставили те саме запитання.

// 2266
//“Even if the current Defence Professor at Hogwarts tells me that a
//Transfiguration is safe, and even if I see the Defence Professor do it and
//nothing bad seems to happen, I will not try it myself.”
-- Навіть якщо чинний професор Гоґвортсу із захисту запевняє, що трансфігурація
безпечна, і навіть якщо я бачив, як професор із захисту виконував її й нічого поганого
не сталося, сам я не намагатимуся її виконати.

// 2267
//“I have the absolute right to refuse to perform any Transfiguration about which
//I feel the slightest bit nervous. Since not even the Headmaster of Hogwarts can
//order me to do otherwise, I certainly will not accept any such order from the
//Defence Professor, even if the Defence Professor threatens to deduct one
//hundred House points and have me expelled.”
-- Я маю повне право відмовитися виконувати будь-яку трансфігурацію, через яку я
почуваюся хоч трохи знервовано. З огляду на те, що навіть директор Гоґвортсу не може
наказати мені протилежного, я, безумовно, не прийму такого наказу від професора із захисту,
навіть якщо той погрожуватиме втратою гуртожитком сотні очок і виключенням.

// 2268
//“If I break any of these rules I will not further study Transfiguration during
//my time at Hogwarts.”
-- Якщо я порушу якесь із цих правил, то надалі не вивчатиму трансфігурації
упродовж усього періоду свого перебування в Гоґвортсі.

// 2269
//“We will repeat these rules at the start of every class for the first month,”
//said Professor McGonagall. “And now, we will begin with matches as subjects and
//needles as targets… put away your wands, thank you, by ‘begin’ I meant that you
//will begin taking notes.”
-- Ми повторюватимемо ці правила на початку кожного заняття протягом першого місяця,
-- сказала професорка Макґонеґел. -- А тепер почнімо. Початкові обʼєкти -- сірники,
цільові -- голки... Будь ласка, відкладіть свої палички, дякую. Під словом "`почнімо`"
я мала на увазі, що ви почнете робити нотатки.

// 2270
//Half an hour before the end of class, Professor McGonagall handed out the
//matches.
За пів години до завершення професорка Макґонеґел роздала сірники.
// 2271
//At the end of the class Hermione had a silvery-looking match and the entire
//rest of the class, Muggleborn or otherwise, had exactly what they’d started
//with.
Наприкінці уроку Герміона мала сріблястий сірник, а решта класу (маґлівського
роду чи ні) -- те саме, з чого й починала.
// 2272
//Professor McGonagall awarded her another point for Ravenclaw.
Професорка Макґонеґел нагородила її ще одним очком для Рейвенклову.

***

// 2273
//After the Transfiguration class was dismissed, Hermione came over to Harry’s
//desk as Harry was putting away his books into his pouch.
Коли трансфігурація завершилася, Герміона підійшла до Гарріної парти, доки
той складав свої книжки до капшучка. Її обличчя виражало суцільну безневинність:

// 2274
//“You know,” Hermione said with an innocent expression on her face, “I earned
//two points for Ravenclaw today.”
-- Знаєш, сьогодні я заробила два
очки для Рейвенклову.

// 2275
//“So you did,” Harry said shortly.
-- Саме так, -- коротко відповів Гаррі.

// 2276
//“But that wasn’t as good as your __seven__ points,” she said. “I guess I’m
//just not as intelligent as you.”
-- Проте це не те саме, що твої __сім__ очок. Гадаю, я просто не така розумна,
як ти.

// 2277
//Harry finished feeding his homework into the pouch and turned to Hermione with
//his eyes narrowed. He’d actually forgotten about that.
Гаррі згодував своє домашнє завдання капшучкові й повернувся до Герміони, зіщуливши
очі. Він зовсім забув про це.

// 2278
//She __batted her eyelashes__ at him. “We have lessons every day, though. I
//wonder how long it will take you to find some more Hufflepuffs to rescue? Today
//is Monday. So that gives you until Thursday.”
-- Однак навчання в нас щодня, -- вона грайливо на нього дивилася. -- Цікаво, скільки тобі знадобиться часу, щоб знайти
ще якихось гафелпафців у біді? Сьогодні понеділок, тож маєш
час аж до четверга.

// 2279
//The two of them stared into each other’s eyes, unblinking.
Вони незмигно дивились одне одному в очі.
// 2280
//Harry spoke first. “Of course you realise this means war.”
Гаррі заговорив першим:

-- Ти ж розумієш, що це означає війну.

// 2281
//“I didn’t know we’d been at peace.”
-- Щось не пригадую, щоб між нами був мир.

// 2282
//All of the other students were now watching with fascinated eyes. All of the
//other students, plus, unfortunately, Professor McGonagall.
Всі інші учні зачаровано спостерігали за ними. Всі інші учні, а також, на
жаль, професорка Макґонеґел.

// 2283
//“Oh, Mr. Potter,” sang Professor McGonagall from the other side of the room, “I
//have some good news for you. Madam Pomfrey has approved your suggestion for
//preventing breakage in her Spimster wickets, and the plan is to finish the job
//by the end of next week. I’d say that deserves… let’s call it ten points for
//Ravenclaw.”
-- О, містере Поттер, -- проспівала вона з іншого боку класу.
-- Маю для вас гарні новини. Мадам Помфрі схвалила вашу пропозицію щодо
захисту її спімстерівських дверцят від пошкоджень, робо{stress}ти мають завершитися
наприкінці цього тижня. Гадаю, це заслуговує... хай буде десяти очок для Рейвенклову.

// 2284
//Hermione’s face was gaping in betrayal and shock. Harry imagined his own face
//didn’t look much different.
Герміона шоковано й зраджено роззявила рота. Гаррі
майнула думка, що він не надто зараз від неї відрізняється.

// 2285
//“__Professor…__” Harry hissed.
-- __Професорко...__ -- прошипів Гаррі.

// 2286
//“Those ten points are __unquestionably__ deserved, Mr. Potter. I would not
//hand out House points on a whim. To you it might have been a simple matter of
//seeing something fragile and suggesting a way to protect it, but Spimster
//wickets are expensive, and the Headmaster was __not__ pleased the last
//time one broke.” Professor McGonagall looked thoughtful. “My, I wonder if any
//other student has ever earned seventeen House points on his first day of
//lessons. I’ll have to look it up, but I suspect that’s a new record. Perhaps we
//should have an announcement at dinnertime?”
-- Ви, __безсумнівно__, заслужили цю нагороду, містере Поттер, я не роздаю очків
гуртожиткам навмання. Можливо, для вас це не мало великого значення
-- просто побачили щось крихке й запропонували спосіб виправити це. Але
спімстерівські дверцята коштовні, і директор __не дуже__ зрадів,
коли одні з них розбилися востаннє.

Професорка Макґонеґел напустила на себе задуму:

-- Оце так, цікаво, чи комусь іще вдавалося здобути сімнадцять очок першого ж
свого дня в школі. Треба перевірити, але підозрюю, що це новий рекорд. Може, варто
зробити оголошення під час вечері?

// 2287
//“__PROFESSOR!__” Harry shrieked. “This is __our__ war! Stop
//meddling!”
-- __ПРОФЕСОРКО!__ -- скрикнув Гаррі. -- Це __наша__ війна! Не втручайтеся!

// 2288
//“Now you have until Thursday of __next__ week, Mr. Potter. Unless, of
//course, you engage in some sort of mischief and __lose__ House points
//before then. Addressing a professor disrespectfully, for example.” Professor
//McGonagall put a finger on her cheek and looked reflective. “I expect you’ll
//hit negative numbers before the end of Friday.”
-- Тепер ви маєте час аж до наступного четверга, містере Поттер. Хіба що,
звісно, ви раніше не затієте якихось пустощів і не втратите очків гуртожитку.
Наприклад, нешанобливо звертатиметеся до когось із професорів, --
вона притиснула палець до щоки, наче щось обмірковувала.
-- Гадаю, вже до кінця пʼятниці ви доберетеся до відʼємних чисел.

// 2289
//Harry’s mouth snapped shut. He sent his best Death Glare at McGonagall but she
//only seemed to find it amusing.
Гаррі стулив рота, клацнувши щелепою. Він дивився на Макґонеґел своїм найбільш
убивчим поглядом, однак скидалося на те, що її це лише розважало.

// 2290
//“Yes, definitely an announcement at dinner,” Professor McGonagall mused. “But
//it wouldn’t do to offend the Slytherins, so the announcement should be brief.
//Just the number of points and the fact of the record… and if anyone comes to
//you for help with their schoolwork and is disappointed that you haven’t even
//started reading your textbooks, you can always refer them to Miss Granger.”
-- Так, безумовно, оголошення під час вечері, -- далі роздумувала вона.
-- Але це не має образити слизеринців, тож зробимо його коротким:
просто кількість очок і факт рекорду... А якщо хтось прийде до вас по допомогу
з домашнім завданням і розчарується, дізнавшись, що ви ще навіть не почали
читати своїх підручників, завжди можете скерувати їх до міс Ґрейнджер.

// 2291
//“__Professor!__” said Hermione in a rather high-pitched voice.
-- __Професорко!__ -- вигукнула Герміона надто високим голосом.

// 2292
//Professor McGonagall ignored her. “My, I wonder how long it will take before
//Miss Granger does something deserving of a dinnertime announcement? I look
//forward to seeing it, whatever it may be.”
-- Оце так, -- професорка Макґонеґел не звернула на неї уваги, -- цікаво, скільки часу знадобиться міс Ґрейнджер, щоб здійснити
щось варте оголошення під час вечері? Нетерпляче чекаю на це, хай чим
воно виявиться.

// 2293
//Harry and Hermione, by unspoken mutual consent, turned and stormed out of the
//classroom. They were followed by a trail of hypnotised Ravenclaws.
Гаррі й Герміона не змовляючись розвернулися й покрокували геть
із класу. За ними слідувала вервечка загіпнозованих рейвенкловців.

// 2294
//“Um,” Harry said. “Are we still on for after dinner?”
-- Ем, -- мовив Гаррі. -- Після вечері досі в силі?

// 2295
//“Of course,” said Hermione. “I wouldn’t want you to fall further behind on your
//studying.”
-- Звісно, -- відповіла Герміона. -- Я б не хотіла, щоб ти ще більше відстав у
навчанні.

// 2296
//“Why, thank you. And let me say that as brilliant as you are already, I can’t
//help but wonder what you’ll be like once you have some elementary training in
//rationality.”
-- О, красно дякую. Дозволь зауважити: ти вже зараз така видатна, що я не можу не
замислюватися над тим, якою ти станеш, коли здобудеш початкову підготовку
з раціональности.

// 2297
//“Is it really that useful? It didn’t seem to help you with Charms or
//Transfiguration.”
-- Це справді так корисно? Не схоже, щоб вона допомагала тобі з чарами чи
трансфігурацією.

// 2298
//There was a slight pause.
Повисла легка павза.

// 2299
//“Well, I only got my schoolbooks four days ago. That’s why I had to earn those
//seventeen House points without using my wand.”
-- Я отримав свої підручники тільки чотири дні тому. Ось чому мені довелося
заробляти ці сімнадцять очок без палички.

// 2300
//“Four days ago? Maybe you can’t read eight books in four days but you might
//have at least read __one__. How many days will it take to finish at that
//rate? You know all that mathematics, so can you tell me what’s eight, times
//four, divided by zero?”
-- Чотири дні тому? Можливо, ти не можеш прочитати вісім книжок за чотири дні, та
міг би впоратися бодай з __однією__. Скільки часу тобі знадобиться, щоб закінчити, з
поточною швидкістю? Ти знаєш усю цю математику, тож скажи: скільки буде
вісім на чотири, поділене на нуль?

// 2301
//“I’ve got classes now, which you didn’t, but weekends are free, so… limit of
//eight times four divided by epsilon as epsilon approaches zero plus… 10:47AM on
//Sunday.”
-- Ти не мала занять, що їх потрібно відвідувати, як оце мені зараз. Але вихідні вільні, отже... границя
восьми на чотири, поділити на іпсилон, коли іпсилон прямує до нуля праворуч...
У неділю о 10:47.

// 2302
//“I did it in __three__ days actually.”
-- Взагалі-то, я встигла за __три__ дні.

// 2303
//“2:47PM on Saturday it is, then. I’m sure I’ll find the time somewhere.”
-- Тоді в суботу о 14:47. Впевнений, що час я десь знайду.

// 2304
//And there was evening and there was morning, the first day.
// Ельвіра: http://bible-lessons.in.ua/bible/old/book01/gl01.html 13
І був вечір, і був ранок -- день перший.
