// 2305
//== Lateral Thinking
== Розділ 16. Творче мислення

// 2306
//The enemy’s gate is Rowling.
// З Гри Ендера. The enemy's gate is down - Ворожі Ворота розташовуються внизу.
// Pun: "The enemy's gate is rolling"
Ворожі ворота там, де й Ролінґ.

// 2307
//__I’m not a psychopath, I’m just very creative.__
***

__Я не психопат, просто дуже винахідливий.__

***

// 2308
//As soon as he walked into the Defence classroom on Wednesday, Harry knew that
//__this__ subject was going to be __different__.
Щойно Гаррі прийшов на заняття із захисту в середу, він зрозумів: цей предмет буде
не таким, як інші.

// 2309
//It was, for a start, the largest classroom he had yet seen at Hogwarts, akin to
//a major university classroom, with layered tiers of desks facing a gigantic
//flat stage of white marble. The classroom was high up in the castle - on the
//fifth floor - and Harry knew that was as much explanation as he’d get for where
//a room like this was supposed to fit. It was becoming clear that Hogwarts
//simply did not __have__ a geometry, Euclidean or otherwise; it had
//connections, not directions.
// @facing a gigantic flat stage
Насамперед клас виявився найбільшим із тих, що Гаррі бачив у Гоґвортсі, і подібним до
авдиторій великих університетів; шереги столів ярусами оточували
гігантський поміст із білого мармуру. Клас розміщувався високо в Гоґвортсі --
на пʼятому поверсі. Гаррі знав, що докладніших пояснень про те, де взагалі приміщення
на зразок цього могло поміститися, йому не почути. Ставало зрозуміло, що у Гоґвортсі
не було геометрії, Евклідової чи іншої. У ньому існували звʼязки -- не напрямки.

// 2310
//Unlike a university hall, there weren’t rows of folding seats; instead there
//were quite ordinary Hogwarts wooden desks and wooden chairs, lined up in a
//curve across each level of the classroom. Except that each desk had a flat,
//white, rectangular, mysterious object propped up on it.
На відміну від університетської авдиторії тут стояли не ряди складаних стільців,
а звичайнісінькі гоґвортські деревʼяні столи й крісла, що вишикувалися напівколом на кожному рівні.
Хіба що кожне місце було обладнано білим пласким прямокутним загадковим обʼєктом.

// 2311
//In the center of the gigantic platform, on a small raised dais of darker
//marble, was a lone teacher’s desk. At which Quirrell sat slumped over in his
//chair, head lolled back, drooling slightly over his robes.
Посеред гігантського помосту на невеликому підвищенні з темнішого мармуру самотньо
стримів учительський стіл, за яким, розвалившись на стільці, пускаючи слину з кутиків губ
і закинувши назад голову, перебував Квірел.

// 2312
//__Now what does that remind me of…?__
"`І що ж це мені нагадує?..`".

// 2313
//Harry had arrived at the lesson so early that no other students were there yet.
//(The English language was defective when it came to describing time travel; in
//particular, English lacked any words capable of expressing how convenient it
//was.) Quirrell didn’t seem to be… functional… at the moment, and Harry didn’t
//particularly feel like approaching Quirrell anyway.
Гаррі прийшов зарано -- крім нього, у класі не виднілося ще жодного учня. (Коли виникала
потреба описати подорожі в часі, мова раптом ставала страшенно недоладною. Зокрема, у
ній бракувало слів, спроможних передати, наскільки це зручно.) Наразі
Квірел начебто... не функціонував... Та й Гаррі, так чи інакше, не мав
бажання до нього наближатися.

// 2314
//Harry selected a desk, climbed up to it, sat down, and retrieved the Defence
//textbook. He was around seven-eighths of the way through - he’d planned on
//finishing the book before this lesson, actually, but he was running behind
//schedule and had already used the Time-Turner twice today.
Він вибрав стіл, видерся до нього, сів і витягнув підручник із захисту, що його
прочитав десь на сім восьмих. Взагалі, Гаррі планував завершити до
цього заняття, проте вже двічі користувався часоворотом сьогодні й
однаково відставав від плану.

// 2315
//Soon there were sounds as the classroom began to fill up. Harry ignored them.
Невдовзі клас почав наповнюватися звуками. Гаррі
ігнорував їх.

// 2316
//“Potter? What are __you__ doing here?”
-- Поттере? А __ти__ що тут робиш?

// 2317
//__That__ voice didn’t belong here. Harry looked up. “Draco? What are
//__you__ doing in oh my god you have __minions__.”
Цьому голосові було тут не місце. Гаррі підвів погляд:

-- Драко? А __ти__ що тут... нічого собі, у тебе є __посіпаки__!

// 2318
//One of the lads standing behind Draco seemed to have rather a lot of muscle for
//an eleven-year-old, and the other was poised in a suspiciously balanced-looking
//stance.
Один із хлопчаків, що стояв позаду Драко, мав на диво багато мʼязів, як
на одинадцятирічного. А другий завис у підозріло збалансованій стійці.

// 2319
//The white-blonde-haired boy smiled rather smugly and gestured behind him.
//“Potter, I introduce to you Mr. Crabbe,” his hand moved from Muscles to
//Balance, “Mr. Goyle. Vincent, Gregory, this is Harry Potter.”
Білявий хлопець самовдоволено посміхнувся й вказав позаду себе.

-- Поттере, познайомся, це містер Креб, -- він перевів руку з Мʼязів на Баланс, -- і містер
Ґойл. Вінсенте, Ґреґорі, це Гаррі Поттер.

// 2320
//Mr. Goyle tilted his head and gave Harry a look that was probably supposed to
//mean something but ended up just looking squinty. Mr. Crabbe said “Please to
//meetcha” in a tone that sounded like he was trying to lower his voice as far as
//it could go.
Містер Ґойл нахилив голову й, мабуть, хотів обдарувати Гаррі значущим поглядом,
та збоку скидалося, наче він просто примружився.

-- Радий познайомитися, -- голос містера Креба звучав так, немов той навмисно
робив його настільки низьким, наскільки міг.

// 2321
//A fleeting expression of consternation crossed Draco’s face, but was quickly
//replaced by his superior grin.
На якусь мить Дракове обличчя затьмарив неспокій, що його, однак, швидко змінила зверхня
посмішка.

// 2322
//“You have __minions!__” Harry repeated. “Where do __I__ get minions?”
-- У тебе є __посіпаки!__ -- вигукнув Гаррі. -- А де __мені__ таких взяти?

// 2323
//Draco’s smirk grew wider. “I’m afraid, Potter, that the first step is to be
//Sorted into Slytherin -”
-- Боюся, Поттере, -- Драко самовдоволено вишкірився ще ширше, -- спершу потрібно потрапити до Слизерину...

// 2324
//“What? That’s not fair!”
-- Що? Це нечесно!

// 2325
//“- and then for your families to have an arrangement from before you were
//born.”
-- ...І щоб ваші сімʼї про все домовилися ще до твого народження.

// 2326
//Harry looked at Mr. Crabbe and Mr. Goyle. They both seemed to be trying very
//hard to loom. That is, they were leaning forwards, hunching over their
//shoulders, sticking their necks out and staring at him.
Гаррі подивився на містера Креба й містера Ґойла. Обидва щосили намагалися наганяти
страху: нахилилися вперед, розправили плечі й, сильно витягнувши голови, витріщалися
на нього.

// 2327
//“Um… hold on,” said Harry. “This was arranged __years__ ago?”
-- Ем... Стривай-но, усе це влаштували багато років тому?

// 2328
//“Exactly, Potter. I’m afraid you’re out of luck.”
-- Саме так, Поттере. Боюся, тобі просто не пощастило.

// 2329
//Mr. Goyle produced a toothpick and began cleaning his teeth, still looming.
Містер Ґойл дістав зубочистку й взявся длубати нею в зубах, досі загрозливо нависаючи.

// 2330
//“And,” said Harry, “Lucius insisted that you were __not__ to grow up
//knowing your bodyguards, and that you were only to meet them on your first day
//of school.”
-- І Луціус наполіг, щоб ти ріс окремо від своїх охоронців, а зустрів їх лише
першого дня школи.

// 2331
//That wiped the grin from Draco’s face. “Yes, Potter, we all know you’re
//brilliant, the whole school knows by now, you can stop showing off -”
-- Так, Поттере, -- посмішка здиміла з Дракового обличчя, -- ми всі знаємо, що ти кмітливий, уже вся школа знає,
годі вихвалятися...

// 2332
//“So they’ve been told their __whole lives__ that they’re going to be your
//minions and they’ve spent __years__ imagining what minions are supposed to
//be like -”
-- Отже, їм усе їхнє життя втовкмачували, що вони будуть твоїми посіпаками, і вони
роками уявляли, якими мають бути посіпаки...

// 2333
//Draco winced.
//! Не зовсім кліпнув, якщо не подобається, може придумаєте щось.
Драко здригнувся.

// 2334
//“- and what’s worse, they __do__ know __each other__ and they’ve been
//__practising__ -”
-- ...До того ж вони знайомі один з одним і мали змогу попрактикуватися...

// 2335
//“The boss told ya to shut it,” rumbled Mr. Crabbe. Mr. Goyle bit down on his
//toothpick, holding it between his teeth, and used one hand to crack the
//knuckles on the other.
-- Бос казав тобі заткнутися, -- прогарчав містер Креб. Містер Ґойл затиснув
зубочистку між зубами й, стиснувши руку в кулак, використав іншу, щоб захрустіти кісточками.

// 2336
//__“I told you not to do this in front of Harry Potter!”__
-- __Я ж попереджав: не робити такого перед Гаррі Поттером!__

// 2337
//The two looked a bit sheepish and Mr. Goyle quickly put the toothpick back in a
//pocket of his robes.
Обидва негайно впокорилися, а містер Ґойл швидко сховав зубочистку в кишеню мантії.
// 2338
//But the moment Draco turned away from them to face Harry again, they went back
//to looming.
Та варто було Драко повернутися до Гаррі, як знову почали загрозливо нависати.

// 2339
//“I apologise,” Draco said stiffly, “for the insult which these
//__imbeciles__ have offered you.”
-- Вибач, -- процідив Драко, -- за зневагу, що її ці __недоумки__ завдали тобі.

// 2340
//Harry gave a meaningful look to Mr. Crabbe and Mr. Goyle. “I’d say you’re being
//a little harsh on them, Draco. __I__ think they’re acting exactly the way
//I’d want __my__ minions to act. I mean, if I had any minions.”
Гаррі кинув проникливий погляд на містерів Креба й Ґойла:

-- Думаю, ти занадто жорсткий до них, Драко. Як на __мене__, вони повелися саме так,
як я хотів би, щоб поводилися __мої__ посіпаки. Маю на увазі,
якби я мав посіпак.

// 2341
//Draco’s jaw dropped.
Драко роззявив рота.

// 2342
//“Hey, Gregory, you don’ think he’s tryna lure us away from the boss, do ya?”
-- Гей, Ґреґорі, тобі не здається, що він ото пробує переманити нас від боса?

// 2343
//“I’m sure Mr. Potter wouldn’t be that foolish.”
-- Я впевнений, що містер Поттер не настільки дурний.

// 2344
//“Oh, I wouldn’t dream of it,” Harry said smoothly. “It’s just something to keep
//in mind if your current employer seems unappreciative. Besides, it never hurts
//to have other offers while you’re negotiating your working conditions, right?”
-- О, я навіть не мрію про таке, -- солодко протягнув Гаррі. -- Просто майте на увазі,
якщо раптом здасться, що ваш роботодавець не дуже вас цінує. Крім того, ніколи не
завадить мати запасні пропозиції, поки обговорюєш умови праці, чи не так?

// 2345
//“What’s __he__ doin’ in Ravenclaw?”
-- І що __він__ забув у Рейвенклові?

// 2346
//“I can’t imagine, Mr. Crabbe.”
-- Уявлення не маю, містере Креб.

// 2347
//“Both of you __shut up__,” Draco said through gritted teeth. “That’s an
//__order__.” With a visible effort, he transferred his attention to Harry
//again. “Anyway, what’re you doing in the Slytherin Defence class?”
-- __Стуліть пельки__, обоє, -- процідив Драко крізь зуби. -- Це __наказ__, --
він із видимим зусиллям спромігся знову зосередитися на Гаррі. -- Хай там як, що
ти робиш на слизеринському уроці захисту?

// 2348
//Harry frowned. “Hold on.” His hand went into his pouch. “Timetable.” He looked
//over the parchment. “Defence, 2:30pm, and right now it’s…” Harry looked at his
//mechanical watch, which read 11:23. “2:23, unless I’ve lost track of time. Did
//I?” If he had, well, Harry knew how to get to whatever lesson he was
//__supposed__ to be at. God he loved his Time-Turner and someday, when he
//was old enough, they would get married.
-- Зажди, -- Гаррі нахмурився й сягнув рукою до капшучка. -- Розклад занять, -- він подивився
на пергамент. -- Захист, 14:30, а зараз... -- механічний годинник
показував 11:23, -- 14:23, хіба що я втратив лік часу.

Навіть якщо так, він знав спосіб, як опинитися в будь-якому класі, де він
__мав би__ бути. Як же Гаррі обожнював свій часоворот! Одного дня він стане досить
дорослим, щоб одружитися з ним.

// 2349
//“No, that sounds right,” Draco said, looking puzzled. His gaze turned to look
//over the rest of the auditorium, which was filling with green-trimmed robes
//and…
-- Та ні, наче правильно, -- розгублено відповів Драко.

Він окинув поглядом решту авдиторії,
що наповнювалася мантіями із зеленими облямівками, і...

// 2350
//“__Gryffindorks!__” spat Draco. “What’re __they__ doing here?”
//! Gryffindor Dorks.
-- __Ґрифіндурці!__ -- вилаявся Драко. -- А __вони__ чого тут?

// 2351
//“Hm,” Harry said. “Professor Quirrell did say… I forget his exact words… that
//he would be ignoring some of the Hogwarts teaching conventions. Maybe he just
//combined all his classes.”
-- Гм, -- сказав Гаррі. -- Професор Квірел згадував, не памʼятаю дослівно, щось там
про відхід від деяких гоґвортських навчальних практик. Можливо, він просто обʼєднав
уроки всіх гуртожитків.

// 2352
//“Huh,” said Draco. “You’re the first Ravenclaw in here.”
-- А-а. З рейвенкловців ти перший.

// 2353
//“Yup. Got here early.”
-- Угу, прийшов трохи заздалегідь.

// 2354
//“What’re you doing all the way in the back row, then?”
-- Чому ж тоді всівся на останньому ряді?

// 2355
//Harry blinked. “I dunno, seemed like a good place to sit?”
-- Не знаю, -- закліпав Гаррі, -- подумалося, що це вдале місце?

// 2356
//Draco made a scoffing sound. “You couldn’t get any further away from the
//teacher if you tried.” The blonde-haired boy leaned slightly closer. “Anyway,
//is it true about what you said to Derrick and his crew?”
Драко насмішкувато пирхнув.

-- Ще далі від вчителя неможливо сісти, навіть якщо постаратися, -- білявий
хлопець нахилився трохи ближче. -- Хай там як, ти справді наплів Дерикові та
його команді все те, про що зараз подейкують?

// 2357
//“Who’s Derrick?”
-- Хто такий Дерик?

// 2358
//“You hit him with a pie?”
-- Ти в нього пирогом поцілив?

// 2359
//“Two pies, actually. What am I supposed to have said to him?”
-- Двома, взагалі-то. І що ж такого я йому буцімто наплів?

// 2360
//“That he wasn’t doing anything cunning or ambitious and he was a disgrace to
//Salazar Slytherin.” Draco was staring intently at Harry.
-- Що він не робить нічого хитрого й амбітного, а ще безчестить імʼя Салазара
Слизерина, -- Драко пильно роздивлявся Гаррі.

// 2361
//“That… sounds about right,” Harry said. “I think it was more like, ‘is this
//some kind of incredibly clever plot that will gain you a future advantage or is
//it really as much of a disgrace to the memory of Salazar Slytherin as it looks
//like’ or something like that. I don’t remember the exact words.”
//копія 013:1923 “Is this part... Slytherin as it"
-- Ну-у... Майже. Думаю, це звучало ближче до: "`Це частина якогось надзвичайно хитрого задуму,
що надасть вам майбутніх переваг, чи це настільки ж безґлузде
збезчещення імені Салазара Слизерина, наскільки й здається`".
Чи щось на кшталт, дослівно не пригадую.

// 2362
//“You’re confusing everyone, you know,” said the blonde-haired boy.
-- Знаєш, ти всіх баламутиш, -- зауважив біловолосий хлопець.

// 2363
//“Huh?” Harry said in honest confusion.
-- Чому? -- щиро розгубився Гаррі.

// 2364
//“Warrington said that spending a long time under the Sorting Hat is one of the
//warning signs of a major Dark Wizard. Everyone was talking about it, wondering
//if they should start sucking up to you just in case. Then you went and
//protected a bunch of __Hufflepuffs,__ for Merlin’s sake. __Then__ you
//told Derrick he’s a disgrace to Salazar Slytherin’s memory! What’s anyone
//__supposed__ to think?”
-- Ворінґтон якось казав, що коли хтось проводить стільки часу під Сортувальним Капелюхом,
то це знак могутнього темного чарівника. Всі це обговорювали, гадаючи, чи не варто підлеститися
до тебе -- просто так, на всяк випадок. Аж раптом ти береш і стаєш на захист купки __гафелпафців__,
заради Мерліна. І заявляєш Дерикові, що він безчестить імʼя Салазара Слизерина! Що
всі мають думати?

// 2365
//“That the Sorting Hat decided to put me in the House of ‘Slytherin! Just
//kidding! Ravenclaw!’ and I’ve been acting accordingly.”
-- Що Сортувальний Капелюх вирішив був розподілити мене в "`Слизерин! Жартую-жартую! Рейвенклов!`",
а я просто поводжуся відповідно.

// 2366
//Mr. Crabbe and Mr. Goyle both giggled, causing Mr. Goyle to quickly clap a hand
//to his mouth.
Містер Креб і містер Ґойл на це захихотіли, та останній швидко затулив рота рукою.

// 2367
//“We’d better go get our seats,” Draco said. He hesitated, straightened a bit,
//spoke a bit more fomally. “But I do want to continue our last conversation and
//I accept your conditions.”
-- Нам краще зайняти свої місця, -- промовив Драко. Він завагався, трішки вирівнявся й запровадив
далі формальнішим тоном: -- Але я справді хочу відновити нашу останню розмову й
погоджуюся на твої умови.

// 2368
//Harry nodded. “Would you mind terribly if I waited until Saturday afternoon?
//I’m in a bit of a contest right now.”
Гаррі кивнув:

-- Сподіваюся, ти пробачиш мені, якщо я відкладу це до суботи, після обіду? Маю зараз
невеличке змагання.

// 2369
//“A contest?”
-- Змагання?

// 2370
//“See if I can read all my textbooks as fast as Hermione Granger did.”
-- Чи здужаю прочитати всі свої підручники так само швидко, як і Герміона Ґрейнджер.

// 2371
//“Granger,” Draco echoed. His eyes narrowed. “The mudblood who thinks she’s
//Merlin? If you’re trying to show __her__ up then all Slytherin wishes you
//the __very__ best luck, Potter, and I won’t bother you ‘til Saturday.”
//Draco inclined his head respectfully, and wandered off, tailed by his minions.
-- Ґрейнджер, -- звузивши очі, повторив Драко. -- Бруднокровка, що уявила себе
Мерліном? Якщо хочеш покепкувати з __неї__, то весь Слизерин бажає тобі __великого__
успіху, Поттере, і я не турбуватиму тебе до суботи.

Драко легенько вклонився й пішов, посіпаки попленталися слідом.

// 2372
//__Oh, this is going to be __so__ much fun to juggle, I can already
//tell.__
"`Ох, маневрувати між цими двома буде __дуже__ весело, це вже зараз гарантую`".

// 2373
//The classroom was filling up rapidly now with all four colors of trim: green,
//red, yellow, and blue. Draco and his two friends seemed to be in the midst of
//trying to acquire three contiguous front-row seats - already occupied, of
//course. Mr. Crabbe and Mr. Goyle were looming vigorously, but it didn’t seem to
//be having much effect.
Клас стрімко заполонили облямівки всіх чотирьох кольорів: зеленого, червоного, жовтого
й синього. Драко й двоє його друзяк якраз намагалися вибороти три місця
поруч у найпершому ряді -- що, звісно, вже були зайняті. Містер Креб і містер Ґойл
загрозливо нависали, але без особливих успіхів.

// 2374
//Harry bent over his Defence textbook and continued reading.
Гаррі нахилився над підручником із захисту й поринув у читання.

***

// 2375
//At 2:35PM, when most of the seats were taken and no one else seemed to be
//coming in, Professor Quirrell gave a sudden jerk in his chair and sat up
//straight, and his face appeared on all the flat, white rectangular objects that
//were propped up on the students’ desks.
О 14:35, коли більшість місць було зайнято й видавалося, що ніхто більше не прийде,
професор Квірел раптово сіпнувся в кріслі й сів рівно. Його лице вигулькнуло на
всіх пласких білих прямокутниках, що лежали на учнівських столах.

// 2376
//Harry was taken by surprise, both by the sudden appearance of Professor
//Quirrell’s face and by the resemblance to Muggle television. There was
//something both nostalgic and sad about that, it seemed so much like a piece of
//home and yet it wasn’t really…
Гаррі здивувався як через раптову появу обличчя професора Квірела,
так і через схожість із маґлівським телебаченням. У цьому було щось одночасно
ностальгійне й сумне, так нагадувало про часточку дому, та насправді нею не було...

// 2377
//“Good afternoon, my young apprentices,” said Professor Quirrell. His voice
//seemed to come from the desk screen and to be speaking directly to Harry.
//“Welcome to your first lesson in Battle Magic, as the founders of Hogwarts
//would have put it; or, as it happens to be called in the late twentieth
//century, Defence Against the Dark Arts.”
-- Добридень, мої юні учні, -- здавалося, що голос професора Квірела лунав прямо з
настільного екрана й звертався безпосередньо до Гаррі.
-- Вітаю на вашому першому занятті з бойової магії, як сказали б засновники
Гоґвортсу, або захисту від темних мистецтв, як його стали називати у двадцятому сторіччі.

// 2378
//There was a certain amount of frantic scrabbling as students, taken by
//surprise, reached for their parchment or notebooks.
Почалося відчайдушне порпання в речах, коли учні, заскочені зненацька, потягнулися
за своїми пергаментами й зошитами.

// 2379
//“No,” Professor Quirrell said. “Don’t bother writing down what this subject was
//once called. No such pointless question will count toward your marks in any of
//my lessons. That is a promise.”
-- Облиште, -- сказав професор Квірел. -- Не переймайтеся записуванням минулої назви цього предмета.
Жодне схоже безґлузде питання не вплине на ваші оцінки
на жодному з моїх занять. Це обіцянка.

// 2380
//Many students sat straight up at that, looking rather shocked.
У відповідь на це багато хто ошелешено випрямився.

// 2381
//Professor Quirrell was smiling thinly. “Those of you who have wasted time by
//reading your useless first-year Defence textbooks -”
//http://www.macmillandictionary.com/dictionary/british/smile-thinly
Легка посмішка, що виникла на обличчі професора Квірела, зробила його не веселим, а радше роздратованим:

-- Тим із вас, хто змарнував час на читання недолугого підручника із захисту для
першого класу...

// 2382
//Someone made a choking sound. Harry wondered if it was Hermione.
Хтось гучно вхопив повітря. Гаррі стало цікаво, чи не Герміона це, бува.

// 2383
//“- may have gotten the impression that although this subject is called Defence
//Against the Dark Arts, it is actually about how to defend against Nightmare
//Butterflies, which cause mildly bad dreams, or Acid Slugs, which can dissolve
//all the way through a two-inch wooden beam given most of a day.”
-- ...могло здатися, що хоча цей предмет і називається захистом від темних мистецтв,
насправді він про захист від кошмарних метеликів, що спричинюють доволі неприємні сни,
чи від кислотних слимаків, яким знадобиться доба, щоб розчинити наскрізь пʼятисантиметрову деревʼяну балку.

// 2384
//Professor Quirrell stood up, shoving his chair back from the desk. The screen
//on Harry’s desk followed his every move. Professor Quirrell strode towards the
//front of the classroom, and bellowed:
Професор Квірел піднявся, відштовхнувши стілець від стола, Гаррін екран простежував
кожен його рух. Він покрокував у напрямку першого ряду й прогримів:

// 2385
//“The Hungarian Horntail is taller than a dozen men! It breathes fire so quickly
//and so accurately that it can melt a Snitch in midflight! One Killing Curse
//will bring it down!”
-- Угорська рогохвістка вища за дюжину чоловіків! Вона видихає полумʼя так швидко
й точно, що може розплавити снича в польоті! Одне смертельне прокляття -- і їй кінець!

// 2386
//There were gasps from the students.
Хтось заохав.

// 2387
//“The Mountain Troll is more dangerous than the Hungarian Horntail! It is strong
//enough to bite through steel! Its hide is resistant enough to withstand
//Stunning Hexes and Cutting Charms! Its sense of smell is so acute that it can
//tell from afar whether its prey is part of a pack, or alone and vulnerable!
//Most fearsome of all, the troll is unique among magical creatures in
//continuously maintaining a form of Transfiguration on itself - it is always
//transforming into its own body. If you somehow succeed in ripping off its arm
//it will grow another within seconds! Fire and acid will produce scar tissue
//which can temporarily confuse a troll’s regenerative powers - for an hour or
//two! They are smart enough to use clubs as tools! The mountain troll is the
//third most perfect killing machine in all Nature! One Killing Curse will bring
//it down.”
// hedrok: "паралітичні закляття" - канон
// hedrok: про цей абзац йдеться в 88:16002. Використано: prey, pack, alone
// hedrok: "the third most perfect killing maching in nature" копія в 089:16187
-- Гірський троль небезпечніший за угорську рогохвістку! Він достатньо сильний, щоб
прокусити сталь! Його шкура здатна витримати приголомшливі прокльони й різальні
чари! Має такий чутливий нюх, що ще здалека розпізнає: здобич є частиною
зграї, а чи самотньою та вразливою! І найстрашніше: троль унікальний серед магічних
створінь тим, що безперервно підтримує самотрансфігурацію, він постійно
перетворюється сам на себе. Якщо вам і вдасться якось відірвати йому руку, за лічені
секунди він відростить іншу! Вогонь і кислота утворять рубцеву тканину, що ненадовго,
на годину чи дві, зібʼє його регенеративні здібності з пантелику! Тролі досить
розумні, щоб використовувати палиці як зброю! Гірський троль -- третє найдосконаліше
знаряддя вбивства в природі! Одне смертельне прокляття -- і йому кінець!

// 2388
//The students were looking rather shocked.
Учні мали доволі приголомшений вигляд.

// 2389
//Professor Quirrell was smiling rather grimly. “Your sad excuse for a third-year
//Defence textbook will suggest to you that you expose the mountain troll to
//sunlight, which will freeze it in place. This, my young apprentices, is the
//sort of useless knowledge you will never find in my lessons. You do not
//encounter mountain trolls in open daylight! The idea that you should use
//sunlight to stop them is the result of foolish textbook authors trying to show
//off their mastery of minutia at the expense of practicality. Just because there
//is a ridiculously obscure way of dealing with mountain trolls does not mean you
//should actually try to use it! The Killing Curse is unblockable, unstoppable,
//and works every single time on anything with a brain. If, as an adult wizard,
//you find yourself incapable of using the Killing Curse, then you can simply
//Apparate away! Likewise if you are facing the second most perfect killing
//machine, a Dementor. You just Apparate away!”
// Ikakok: @sad excuse - щось, дуже поганої якості.
-- Жалюгідна подоба підручника із захисту для третьокласників, -- похмуро скривився професор Квірел, -- запропонує вам виманити троля
на сонячне проміння, яке заморозить його на місці. Це, мої юні учні, приклад
безґлуздих знань, що їх ви ніколи не знайдете на моїх уроках. На гірських
тролів не натрапляють посеред білого дня! Ідея вдатися до сонячного світла, щоб зупинити
їх, -- результат спроби недоумкуватих авторів підручника похизуватися знанням дрібниць ціною
практичности. Сам лиш факт існування безґлуздо дивного способу впоратися з гірськими
тролями ще не означає, що ви мусите його застосовувати! Смертельне прокляття неможливо
заблокувати чи зупинити, воно спрацьовує щоразу на всьому, що має мозок.
Якщо ви, коли подорослішаєте, виявите,
що неспроможні вдаватися до смертельного прокляття, --
просто розʼявляйтеся! Як і в разі зустрічі з другим найдосконалішим
знаряддям убивства -- дементором. Просто розʼявляйтеся від нього геть!

// 2390
//“Unless, of course,” Professor Quirrell said, his voice now lower and harder,
//“you are under the influence of an anti-Apparition jinx. No, there is exactly
//one monster which can threaten you once you are fully grown. The single most
//dangerous monster in all the world, so dangerous that nothing else comes close.
//The Dark Wizard. That is the only thing that will still be able to threaten
//you.”
Професор Квірел знизив тембр голосу, зробив його твердішим:

-- Це, звісно, якщо ви
не перебуваєте під впливом антиявляльних намовлянь. Ні, існує тільки один монстр, що його вам
слід остерігатися в дорослому віці. Єдиний найнебезпечніший монстр у всенькому
світі, настільки небезпечний, що нічого не в змозі навіть порівнятися з ним, -- темний чарівник.
Це єдине, що зможе загрожувати вам.

// 2391
//Professor Quirrell’s lips were set in a thin line. “I will reluctantly teach
//you enough trivia for a passing mark on the Ministry-mandated portions of your
//first-year finals. Since your exact mark on these sections will make no
//difference to your future life, anyone who wants more than a passing mark is
//welcome to waste their own time studying our pathetic excuse for a textbook.
//The title of this subject is not Defence Against Minor Pests. You are here to
//learn how to defend yourselves against the Dark Arts. Which means, let us be
//very clear on this, defending yourselves against Dark Wizards. People with
//wands who want to hurt you and who will likely succeed in doing so unless you
//hurt them first! There is no defence without offence! There is no defence
//without fighting! This reality is deemed too harsh for eleven-year-olds by the
//fat, overpaid, Auror-guarded politicians who mandated your curriculum. To the
//abyss with those fools! You are here for the subject that has been taught at
//Hogwarts for eight hundred years! Welcome to your first year of Battle Magic!”
//! first year of Battle Magic! -- Я трохи підмінив контекст, не знаю, як передати
//! суть, що він про бойову магію для першого класу, не розтягнувши текст.
//@Overpaid
Його губи перетворилися на тонку лінію:

-- Я неохоче розповім удосталь дрібниць, щоб наприкінці першого класу ви набрали прохідний бал із
тих частин іспиту, які вимагаються міністерством. Оскільки
ця оцінка ніяк не вплине на ваше майбутнє життя, кожен,
хто хоче набрати більше за прохідний бал, має право марнувати свій час на самостійне вивчення
цієї жалюгідної подоби підручника. Назва мого предмета не захист від дрібних шкідників. Ви
тут для того, щоб навчитися захищатися від темних мистецтв, тобто, прояснімо
це чітко, -- від темних чарівників. Людей із паличками, які
хочуть зашкодити вам і яким це, найімовірніше, вдасться, хіба що ви зашкодите їм першими!
Нема захисту без нападу! Нема захисту без бою! Гладкі, переоцінені, захищені
аврорами політики, що затверджували вашу навчальну програму, вирішили, що реальність є
надто жорстокою для одинадцятирічних. До дідька цих телепнів! Ви тут заради предмета, що
викладався в Гоґвортсі протягом восьми століть! Нехай почнеться ваш перший рік бойової магії!

// 2392
//Harry started applauding. He couldn’t help himself, it was too inspiring.
Гаррі зааплодував. Він нічого не міг із собою вдіяти,
це було занадто натхненно.
// 2393
//Once Harry started clapping there was some scattered response from Gryffindor,
//and more from Slytherin, but most students simply seemed too stunned to react.
До його оплесків приєдналися деякі ґрифіндорці й дещо більше
слизеринців, проте переважно учні, видавалося, були занадто враженими, щоб якось реагувати.

// 2394
//Professor Quirrell made a cutting gesture, and the applause died instantly.
//“Thank you very much,” said Professor Quirrell. “Now to practicalities. I have
//combined all my first-year Battle classes into one, which allows me to offer
//you twice as much classroom time as Doubles sessions -”
// hedrok: @ a cutting gesture
Професор Квірел різко підняв руку, аплодисменти миттю вщухли:

-- Красно дякую, тепер щодо практичніших речей. Я обʼєднав усі уроки для перших
класів у один, що дасть мені змогу запропонувати вам удвічі більше навчального часу, ніж
здвоєні заняття...

// 2395
//There were gasps of horror.
Почулися сповнені жаху зойкання.

// 2396
//“- an increased load which I will make up to you by not assigning any
//homework.”
-- ...а збільшене навантаження компенсую відсутністю домашніх завдань.

// 2397
//The gasps of horror cut off abruptly.
Сповнені жаху зойкання різко урвалися.

// 2398
//“Yes, you heard me correctly. I will teach you to fight, not to write twelve
//inches on fighting due Monday.”
-- Так, ви правильно почули. Я навчатиму вас битися, а не писати сорокасантиметрові твори про
бої до понеділка.

// 2399
//Harry desperately wished he’d sat next to Hermione so he could see the look on
//her face now, but on the other hand he was pretty sure he was imagining it
//accurately.
Гаррі страшенно захотілося сидіти поруч із Герміоною, щоб бачити її обличчя цієї миті.
Втім, він був певен, що уявляє його доволі точно.

// 2400
//Also Harry was in love. It would be a three-way wedding: him, the Time-Turner,
//and Professor Quirrell.
А ще Гаррі закохався. Це буде трояке весілля: він, часоворот і професор Квірел.

// 2401
//“For those of you who so choose, I have arranged some after-school activities
//that I think you will find quite interesting as well as educational. Do you
//want to show the world your __own__ abilities instead of watching fourteen
//other people play Quidditch? More than seven people can fight in an army.”
-- Також для всіх охочих я організував деякі факультативні заняття;
маю надію, вони виявляться цікавими й водночас корисними. Вам же хочеться
показати світові __ваші власні__ здібності замість того, щоб спостерігати, як чотирнадцять
щасливців бавляться в квідич? Вісім і більше людей зможуть обʼєднуватися у війська.

// 2402
//Hot __damn.__
__Очманіти.__

// 2403
//“These and other after-school activities will also earn you Quirrell points.
//What are Quirrell points, you ask? The House point system does not suit my
//needs, because it makes House points too rare. I prefer to let my students know
//how they are doing more frequently than that. And on the rare occasions I offer
//you a written test, it will mark itself as you go along, and if you get too
//many related questions wrong, your test will show the names of students who got
//those questions right, and those students will be able to earn Quirrell points
//by helping you.”
-- Ці, а також інші позашкільні активності принесуть вам бали Квірела. Що це таке,
запитаєте ви? Чинна система роздавання очок мене не дуже влаштовує, адже робить
нагородження надто рідкісним. Я ж хочу частіше давати своїм учням знати, які їхні
справи. Подеколи ви складатимете письмові тести, що оцінюватимуть вас одразу
під час відповідей; якщо ви провалите кілька повʼязаних питань,
тест покаже імена тих, хто відповів правильно, і ці учні матимуть змогу заробити бали
Квірела, якщо допоможуть вам.

// 2404
//…wow. Why didn’t the other professors use a system like that?
Ого. Чому інші професори не використовують подібної системи?

// 2405
//“What good are Quirrell points, you wonder? For a start, ten Quirrell points
//will be worth one House point. But they will earn you other favors as well.
//Would you like to take your exam at an unusual time? Is there a particular
//session you would very much prefer to skip? You will find that I can be very
//flexible on behalf of students who have accumulated enough Quirrell points.
//Quirrell points will control the generalship of the armies. And for Christmas -
//just before the Christmas break - I will grant someone a wish. Any
//school-related feat that lies within my power, my influence, or above all, my
//ingenuity. Yes, I was in Slytherin and I am offering to formulate a cunning
//plot on your behalf, if that is what it takes to accomplish your desire. This
//wish will go to whoever has earned the most Quirrell points within all seven
//years.”
-- І що ж дають бали Квірела? Для початку десять балів дорівнюватимуть одному
очкові гуртожитку. Але вони здобудуть вам і інші переваги. Хочете скласти іспит у
незвичний час? Чи, можливо, є конкретне заняття, яке вам дуже хочеться пропустити?
Ви побачите, що я можу бути дуже поступливим до учнів, які накопичили достатньо
балів Квірела. Вони визначатимуть, хто очолюватиме війська. А на Різдво --
прямісінько перед різдвяними канікулами -- я здійсню чиєсь бажання. Будь-яка
повʼязана зі школою примха, що в межах моєї влади, мого впливу, а насамперед --
моєї винахідливости. Так, я зі Слизерину, і я пропоную вам розроблення
майстерного плану, якщо це потрібно для справдження вашого бажання. Цю
винагороду отримає той, хто набере найбільше балів Квірела серед усіх семи
класів.

// 2406
//That would be Harry.
Це буде Гаррі.

// 2407
//“Now leave your books and loose items at your desks - they will be safe, the
//screens will watch over them for you - and come down onto this platform. It’s
//time to play a game called Who’s the Most Dangerous Student in the Classroom.”
-- Тепер залиште книжки й інший непотріб на столах -- вони будуть у безпеці
під наглядом екранів -- і спускайтеся на поміст. Час зіграти в гру "`Хто
найнебезпечніший учень у класі`".

***

// 2408
//Harry twisted his wand in his right hand and said “__Ma-ha-su!__”
Гаррі вигнув праву руку, що тримала паличку:

-- __Ма-га-су!__

// 2409
//There was another high-pitched “bing” from the floating blue sphere that
//Professor Quirrell had assigned to Harry as his target. That particular sound
//meant a perfect strike, which Harry had been gotten on nine out of his last ten
//attempts.
Блакитна сфера в повітрі, що її професор Квірел призначив Гаррі за мішень,
пронизливо дзенькнула. Цей звук означав ідеальне влучання, і Гаррі чув його
девʼять із десяти останніх разів.

// 2410
//Somewhere Professor Quirrell had dug up a spell that was incredibly easy to
//pronounce, __and__ had a ridiculously simple wand motion, __and__ had
//a tendency to hit wherever you were currently looking at. Professor Quirrell
//had disdainfully proclaimed that real battle magic was far more difficult than
//this. That the hex was entirely useless in actual combat. That it was a barely
//ordered burst of magic whose only real content was the aiming, and that it
//would produce, when it hit, a pain briefly equivalent to being punched hard in
//the nose. That the sole purpose of this test was to see who was a fast learner,
//since Professor Quirrell was certain no one would have previously encountered
//this hex or anything like it.
Професор Квірел десь роздобув закляття, що його виявилося дуже легко вимовляти, __до
того ж__ воно вимагало безґлуздо простого руху паличкою й __до того ж__ було в змозі
влучити в будь-що, на що ти зараз дивишся. Професор Квірел зневажливо заявив,
що справжня бойова магія значно складніша. Що для справжнього бою цей
проклін є цілковито непридатним. Що це ледь упорядкований сплеск магії,
єдиною справжньою складовою якого є прицілювання, а в разі влучання
щонайбільше спричинює біль, немов від сильного удару по носі. А єдиною метою
цього випробування є дізнатися, хто швидко вчиться, оскільки професор Квірел
впевнений, що ніхто раніше не стикався з цим прокльоном чи чимось подібнім.

// 2411
//Harry didn’t care about any of that.
Гаррі чхати хотів на все це:

// 2412
//“__Ma-ha-su!__”
-- __Ма-га-су!__

// 2413
//A __red bolt of energy__ shot out of his wand and struck the target and
//the blue sphere once again made the bing which meant the spell had
//__actually worked for him.__
Червоний спалах енергії вирвався з його палички й влучив у ціль. Блакитна
сфера видала ще один "`дзінь`", який свідчив, що закляття __справді спрацювало для нього__.

// 2414
//Harry was feeling like a real wizard for the first time since he’d come to
//Hogwarts. He wished the target would dodge like the little spheres that Ben
//Kenobi had used for training Luke, but for some reason Professor Quirrell had
//instead lined up all the students and targets in neat orders which made sure
//they wouldn’t fire on each other.
Вперше, відколи Гаррі потрапив у Гоґвортс, він почувався справжнім чарівником.
Йому хотілося, щоб ціль ухилялася, як ті маленькі сфери, що ними Бен Кенобі
тренував Люка. Але професор Квірел чомусь виставив учнів та їхні мішені в чіткому порядку,
який гарантував, що ніхто з них не влучить в іншого.

// 2415
//So Harry lowered his wand, skipped to the right, snapped up his wand and
//twisted and shouted “__Ma-ha-su!__”
Тому Гаррі опустив паличку, повернувся праворуч, різко підняв паличку й,
вигнувши руку, крикнув:

-- __Ма-га-су!__

// 2416
//There was a lower-pitched “dong” which meant he’d gotten it almost right.
Трохи нижчий "`дзінь`". Майже влучив.

// 2417
//Harry put his wand into his pocket, skipped back to the left and drew and fired
//another red bolt of energy.
Гаррі поклав паличку до кишені, повернувся назад ліворуч, знову
витягнув її та вистрелив ще одним червоним спалахом енергії.
// 2418
//The high-pitched bing which resulted was easily one of the most satisfying
//sounds he’d heard in his life. Harry wanted to scream in triumph at the top of
//his lungs. __I CAN DO MAGIC! FEAR ME, LAWS OF PHYSICS, I’M COMING TO
//VIOLATE YOU!__
У відповідь пролунало високе "`дзінь`", що його він із легкістю визнав одним із
найсолодших звуків, коли-небудь почутих за все своє життя. Йому хотілося
тріумфально заволати на всю горлянку: "`Я ВОЛОДІЮ МАГІЄЮ! БІЙТЕСЯ МЕНЕ,
ЗАКОНИ ФІЗИКИ, Я ЗБИРАЮСЯ ПОРУШУВАТИ ВАС!`".

// 2419
//“__Ma-ha-su!__” Harry’s voice was loud, but hardly noticeable over the
//steady chant of similar cries from around the classroom platform.
-- __Ма-га-су!__ -- вигуки Гаррі хоч і були гучними, проте танули серед рівномірного
гамору, що панував на помості.

// 2420
//“Enough,” said Professor Quirrell’s amplified voice. (It didn’t sound loud. It
//sounded like normal volume, coming from just behind your left shoulder, no
//matter where you were standing relative to Professor Quirrell.) “I see that all
//of you have succeeded at least once now.” The target-spheres turned red and
//began to drift up towards the ceiling.
-- Досить, -- залунав підсилений голос професора Квірела. (Він не звучав голосно. Він був
нормальної гучности й линув з-поза лівого плеча незалежно від позиції відносно
професора Квірела.)
-- Бачу, що наразі всім вдалося влучити хоча б раз.

Сфери-цілі почервоніли й почали підійматися до стелі.

// 2421
//Professor Quirrell was standing on the raised dais in the center of the
//platform, leaning slightly on his teacher’s desk with one hand.
Професор Квірел стояв на підвищенні в центрі помосту, злегка обіпершись рукою
на вчительський стіл.

// 2422
//“I told you,” Professor Quirrell said, “that we would play a game called Who’s
//the Most Dangerous Student in the Classroom. There is one student in this
//classroom who mastered the Sumerian Simple Strike Hex faster than anyone else
//-”
-- Я обіцяв вам зіграти в гру "`Хто найнебезпечніший учень у класі`". Серед нас
є людина, що опанувала шумерський проклін простого удару швидше за інших...

// 2423
//Oh blah blah blah.
Ох, бла-бла-бла.

// 2424
//“- and went on to help seven other students. For which she has earned the first
//seven Quirrell points awarded to your year. Come forth, Hermione Granger. It is
//time for the next stage of the game.”
-- ...і допомогла сімом іншим учням. За це вона здобуває перші сім балів Квірела з-поміж
першокласників. Підійдіть сюди, міс Ґрейнджер. Час для наступного етапу гри.

// 2425
//Hermione Granger began striding forwards, a mixed look of triumph and
//apprehension on her face. The Ravenclaws looked on proudly, the Slytherins with
//glares, and Harry with frank annoyance. Harry had done fine this time. He was
//probably even in the upper half of the class, now that everyone had been faced
//with an equally unfamiliar spell and Harry had read all the way through
//Adalbert Waffling’s __Magical Theory__. And yet __Hermione was still
//doing better__.
Герміона Ґрейнджер впевнено покрокувала вперед, на її обличчі змішалися тріумф і тривога.
Рейвенкловці дивилися з гордістю, слизеринці -- косо, а Гаррі -- з відвертим
роздратуванням. Він добре впорався цього разу, імовірно, навіть опинився в кращій половині
класу тепер, коли всі мали справу з однаково незнайомим закляттям, а Гаррі
дочитав "`Магічну теорію`" Адальберта Вофлінґа. А втім, __Герміона й досі робила
все ще краще__.

// 2426
//Somewhere in the back of his mind was the fear that Hermione was simply smarter
//than him.
Десь у закапелках його свідомости гніздився страх, що Герміона просто розумніша за нього.

// 2427
//But for now Harry was going to pin his hopes on the known facts that (a)
//Hermione had read a lot more than the standard textbooks and (b) Adalbert
//Waffling was an uninspired sod who’d written __Magical Theory__ to pander
//to a school board that didn’t think much of eleven-year-olds.
//@School board
//@Sod - Unpleasant or obnoxious person.
//Ikakok: тлумок це я від себе(своєї бабці), такий собі тупак, не впевнений,
// що це загальновживане. "Тлумку ти француватий" ©
Але поки що Гаррі планував покласти свої надії на відомі факти, а саме: (а) Герміона
прочитала значно більше, ніж просто стандартні підручники; і (б) Адальберт Вофлінґ
був зачерствілим тлумком, який написав "`Магічну теорію`" для того, щоб підлизатися до
шкільної ради, а та не сильно переймалася одинадцятирічними.

// 2428
//Hermione reached the central dais and stepped up.
Герміона дійшла до центрального підвищення й піднялася на нього.

// 2429
//“Hermione Granger mastered a completely unfamiliar spell in two minutes, almost
//a full minute faster than the next runner-up.” Professor Quirrell turned slowly
//in place to look at all the students watching them. “Could Miss Granger’s
//intelligence make her the most dangerous student in the classroom? Well? What
//do you think?”
-- Герміона Ґрейнджер опанувала цілковито незнайоме закляття за дві хвилини,
майже на цілу хвилину випередивши наступного учня, -- професор Квірел повільно
обертався на місці, уважно всіх роздивляючись. -- Чи може розум міс Ґрейнджер
зробити її найнебезпечнішою ученицею в класі? Ну? Як думаєте?

// 2430
//No one seemed to be thinking anything at the moment. Even Harry wasn’t sure
//what to say.
Ніхто, здавалося, нічого не думав цієї миті. Навіть Гаррі був не певен, що сказати.

// 2431
//“Let’s find out, shall we?” said Professor Quirrell. He turned back to
//Hermione, and gestured toward the wider class. “Select any student you like and
//cast the Simple Strike Hex on them.”
-- Що ж, перевірмо? -- професор Квірел розвернувся назад до Герміони й
вказав рукою на решту класу. -- Виберіть будь-кого на ваш розсуд і випробуйте на цій особі
проклін простого удару.

// 2432
//Hermione froze where she stood.
Герміона наче вмерзла в підлогу.

// 2433
//“Come now,” Professor Quirrell said smoothly. “You have cast this spell
//perfectly over fifty times. It is not permanently harmful or even all that
//painful. It hurts as much as a hard punch and lasts only a few seconds.”
//Professor Quirrell’s voice grew harder. “This is a direct order from your
//professor, Miss Granger. Choose a target and fire a Simple Strike Hex.”
-- Ну ж бо, -- мʼяко підбадьорив професор Квірел. -- Ви понад пʼятдесят разів
ідеально виконали це закляття. Воно не завдає невиправної шкоди, а результат
не такий уже й болісний. Десь як від сильного удару, та й то лише на кілька секунд, --
його голос потвердішав. -- Це прямий наказ від вашого професора, міс
Ґрейнджер. Виберіть ціль і застосуйте проклін простого удару.

// 2434
//Hermione’s face was screwed up in horror and her wand was trembling in her
//hand. Harry’s own fingers were clenching his own wand hard in sympathy. Even
//though he could see what Professor Quirrell was trying to do. Even though he
//could see the point Professor Quirrell was trying to make.
Лице Герміони спотворив суцільний жах, паличка тремтіла в її долоні.
Від співчуття Гаррі сильно стиснув пальцями свою паличку. Попри те, що він
бачив, чого професор Квірел намагається досягти. Попри те, що розумів,
яку науку той хоче їм дати.

// 2435
//“If you do __not__ raise your wand and fire, Miss Granger, you will lose a
//Quirrell point.”
-- Якщо ви __не піднімете__ палички й не вистрелите, міс Ґрейнджер, то втратите
бал Квірела.

// 2436
//Harry stared at Hermione, willing her to look in his direction. His right hand
//was softly tapping his own chest. __Pick me, I’m not afraid…__
Гаррі не зводив очей із Герміони, сподіваючись, що та подивиться на нього. Він
мʼяко постукував себе по грудях. "`Вибери мене, я не боюся...`".

// 2437
//Hermione’s wand twitched in her hand; then her face relaxed, and she lowered
//her wand to her side.
Її рука смикнулася, обличчя розслабилося. Вона
опустила паличку.

// 2438
//“No,” said Hermione Granger.
-- Ні, -- спокійно промовила Герміона Ґрейнджер.

// 2439
//Her voice was calm, and even though it wasn’t loud, everyone heard it in the
//silence.
І хоч прозвучало це слово неголосно, серед тиші всі його розчули.

// 2440
//“Then I must deduct one point from you,” said Professor Quirrell. “This is a
//test, and you have failed it.”
-- Тоді я вимушений зняти з вас один бал. Це випробування, і ви його провалили.

// 2441
//That reached her. Harry could see it. But she kept her shoulders straight.
Гаррі бачив: її це зачепило. Але вона втримала плечі рівно.

// 2442
//Professor Quirrell’s voice was sympathetic and seemed to fill the whole room.
//“Knowing things isn’t always enough, Miss Granger. If you cannot give and
//receive violence on the order of stubbing your toe, then you cannot defend
//yourself and you will not pass Defence. Please rejoin your classmates.”
-- Самих знань не завжди достатньо, міс Ґрейнджер, -- здавалося, що доброзичливий голос професора Квірела заполонив усю
кімнату. -- Якщо ви не здатні заподіяти чи
прийняти насильство рівня прищемленого мізинчика, то не зможете захистити себе й не складете
захисту. Будь ласка, поверніться до своїх однокласників.

// 2443
//Hermione walked back towards the Ravenclaw cluster. Her face looked peaceful
//and Harry, for some odd reason, wanted to start clapping. Even though Professor
//Quirrell had been __right__.
Герміона попрямувала до скупчення рейвенкловців. На її обличчі панував спокій,
і Гаррі з якогось дива кортіло заплескати. Хоча професор Квірел і
мав рацію.

// 2444
//“So,” Professor Quirrell said. “It becomes clear that Hermione Granger is not
//the most dangerous student in the classroom. Who do you think might actually be
//the most dangerous person here? - besides me, of course.”
-- Отже, Герміона Ґрейнджер, очевидно, не є найнебезпечнішою ученицею в класі. Як гадаєте,
хто тут справді може бути найнебезпечнішим? Окрім мене, звісно.

// 2445
//Without even thinking, Harry turned to look at the Slytherin contingent.
Навіть не задумуючись, Гаррі повернувся до контингенту слизеринців.

// 2446
//“Draco, of the Noble and Most Ancient House of Malfoy,” said Professor
//Quirrell. “It seems that many of your fellow pupils are looking in your
//direction. Come forth, if you would.”
-- Драко зі шляхетного й найдавнішого роду Мелфоїв, -- звернувся професор Квірел.
-- Видається, багато ваших однокласників дивиться у ваш бік. Підійдіть, будь ласка.

// 2447
//Draco did so, walking with a certain pride in his bearing. He stepped onto the
//dais and looked up at Professor Quirrell with a smile.
Той так і зробив. Йдучи, Драко випромінював певну гордість. Він піднявся на
підвищення й з усмішкою глянув на професора Квірела.

// 2448
//“Mr. Malfoy,” Professor Quirrell said. “Fire.”
-- Містере Мелфой, вогонь.

// 2449
//Harry would have tried to stop it if there’d been time but in one smooth motion
//Draco spun on the Ravenclaw contingent and raised his wand and said
//“__Mahasu!__” like it was all one syllable and Hermione was saying “Ow!”
//and that was that.
Гаррі спробував би зупинити це, якби був час, та одним плавним рухом Драко
розвернувся до рейвенкловців, здійняв паличку й миттю випалив, наче це слово складалося лише з одного складу:

-- __Магасу!__

Герміона зойкнула, і все скінчилося.

// 2450
//“Well struck,” said Professor Quirrell. “Two Quirrell points to you. But tell
//me, why did you target Miss Granger?”
-- Чудово виконано, -- похвалив професор Квірел. -- Два бали Квірела вам. Але поясніть, чому
саме міс Ґрейнджер?

// 2451
//There was a pause.
На мить запала тиша.
// 2452
//Finally Draco said, “Because she stood out the most.”
Зрештою Драко вимовив:

-- Бо вона виділялася найбільше.

// 2453
//Professor Quirrell’s lips turned up in a thin smile. “And that is the true
//reason why Draco Malfoy is dangerous. Had he selected any other, that child
//would more likely resent being singled out, and Mr. Malfoy would more probably
//make an enemy. And while Mr. Malfoy might have given some other justification
//for selecting her, that would have served him no purpose save to alienate some
//of you, while others are already cheering him whether he says anything or not.
//Which is to say that Mr. Malfoy is dangerous because he knows who to strike and
//who not to strike, how to make allies and avoid making enemies. Two more
//Quirrell points to you, Mr. Malfoy. And as you have demonstrated an exemplary
//virtue of Slytherin, I think that Salazar’s House has earned a point as well.
//You may rejoin your friends.”
Губи професора Квірела перетворилися на тонку усмішку:

-- І це справжня причина, чому Драко Мелфой небезпечний. Націлившись на когось
іншого, він ризикував наткнутися на образу з боку тієї дитини
й нажити собі ворога. Містер Мелфой міг також інакше обґрунтувати
свій вибір, однак не здобув би з цього жодної користи, хіба лиш відвернув від себе
декого з вас, тоді як інші вже вболівають за нього -- неважливо, скаже він щось чи ні.
Це свідчить про справжню причину його небезпечности: він знає на кого нападати, а на
кого -- ні, як дістати союзників і не нажити ворогів. Ще два бали Квірела вам, містере
Мелфой. І оскільки ви продемонстрували зразкову чесноту Слизерину, думаю, гуртожиток
Салазара також заробив одне очко. Можете приєднатися до друзів.

// 2454
//Draco bowed slightly and walked back to the Slytherin contingent. Some clapping
//started from the green-trimmed robes, but Professor Quirrell made a cutting
//gesture and silence fell again.
Драко легенько вклонився й вернувся до слизеринців. Дехто з облямованих зеленим мантій
почав плескати, та професор Квірел зробив різкий жест рукою, і знову запанувала тиша.

// 2455
//“It might seem that our game is done,” said Professor Quirrell. “And yet there
//is a single student in this classroom who is more dangerous than the scion of
//Malfoy.”
-- Може здатися, що гру завершено. А втім, серед нас
є один-єдиний учень, який ще небезпечніший, ніж спадкоємець Мелфоїв.

// 2456
//And __now__ for some reason there seemed to be an awful lot of people
//looking at…
Тепер уже чомусь здавалося, що до жаху багато людей дивилося на...

// 2457
//“Harry Potter. Come forth.”
-- Гаррі Поттере. Підійдіть.

// 2458
//This did not bode well.
Це не віщувало нічого доброго.

// 2459
//Harry reluctantly walked towards where Professor Quirrell stood on his raised
//dais, still leaning slightly against his teacher’s desk.
Він неохоче пішов туди, де на підвищенні, досі легенько спираючись на стіл, стояв професор Квірел.
// 2460
//The nervousness of being put into the spotlight seemed to be sharpening Harry’s
//wits as he approached the dais, and his mind was ruffling through possibilities
//for what Professor Quirrell might think could demonstrate Harry’s
//dangerousness. Would he be asked to cast a spell? To defeat a Dark Lord?
Дорогою Гаррі розхвилювався від того, що раптом опинився в
центрі уваги, однак це лише загострило його кмітливість. Розум гарячково
перебирав можливі варіанти, як професор планує довести Гарріну небезпечність.
Попросить його застосувати закляття? Перемогти темного лорда?
// 2461
//Demonstrate his supposed immunity to the Killing Curse? Surely Professor
//Quirrell was too smart for __that__…
Продемонструвати свою буцімто невразливість до смертельного прокляття? Професор
Квірел явно надто розумний для __цього__...

// 2462
//Harry stopped well short of the dais, and Professor Quirrell didn’t ask him to
//come any closer.
Гаррі зупинився біля підвищення, а професор Квірел не наказав
підійти ближче.

// 2463
//“The irony is,” said Professor Quirrell, “you all looked at the right person
//for entirely the wrong reasons. You are thinking,” Professor Quirrell’s lips
//twisted, “that Harry Potter has defeated the Dark Lord, and so must be very
//dangerous. Bah. He was one year old. Whatever quirk of fate killed the Dark
//Lord likely had little to do with Mr. Potter’s abilities as a fighter. But
//after I heard rumors of one Ravenclaw facing down five older Slytherins, I
//interviewed several eyewitnesses and came to the conclusion that Harry Potter
//would be my most dangerous student.”
-- Іронія в тому, що всі подивилися на правильну
людину з геть неправильних причин. Ви думаєте, -- губи професора
викривилися, -- що Гаррі Поттер переміг Темного Лорда, а тому має бути вкрай
небезпечним. Ба. Йому був один рік. Хай який вибрик долі вбив Темного Лорда, він
мало стосувався бійцівських здібностей містера Поттера. Та коли моїх вух сягнули
чутки про одного рейвенкловця, що вистояв проти пʼятьох старших слизеринців,
я опитав кількох свідків і дійшов висновку, що Гаррі Поттер буде моїм найнебезпечнішим
учнем.

// 2464
//A jolt of adrenaline poured into Harry’s system, making him stand up
//straighter. He didn’t know what conclusion Professor Quirrell had come to, but
//that couldn’t be good.
Порція адреналіну влилася в Гарріну кров, змусивши його вирівнятися. Він не знав,
якого висновку дійшов професор Квірел, але це навряд чи було чимось добрим.

// 2465
//“Ah, Professor Quirrell -” Harry started to say.
-- Е-е, професоре Квірел... -- почав було Гаррі.

// 2466
//Professor Quirrell looked amused. “You’re thinking that I’ve come up with a
//wrong answer, aren’t you, Mr. Potter? You will learn to expect better of
//__me__.” Professor Quirrell straightened from where he had leaned on the
//desk. “Mr. Potter, all things have their accustomed uses. Give me ten
//unaccustomed uses of objects in this room for combat!”
-- Ви гадаєте, -- професор Квірел здавався втішеним, -- що відповідь, якої я дійшов, неправильна, чи не так?
Ви навчитеся очікувати від мене __більшого__, -- він припинив спиратися
на стіл і вирівнявся. -- Містере Поттер, усі речі мають звичні застосування.
Назвіть десять незвичних способів, у які наявні тут обʼєкти можна використати для бою.

// 2467
//For a moment Harry was rendered speechless by the sheer, raw shock of having
//been understood.
На мить сильний раптовий шок від того, що його правильно зрозуміли, відняв у
Гаррі мову.
// 2468
//And then the ideas started to pour out.
А тоді ідеї посипалися одна за одною:

// 2469
//“There are desks which are heavy enough to be fatal if dropped from a great
//height. There are chairs with metal legs that could impale someone if driven
//hard enough. The air in this classroom would be deadly by its absence, since
//people die in vacuum, and it can serve as a carrier for poison gases.”
-- Тут є столи, досить важкі, щоб стати смертельними, якщо скинути їх зі
значної висоти. Стільці з металевими ніжками, що ними можна проштрикнути когось, якщо
докласти вдосталь зусиль. Повітря в цьому класі виявиться згубним своєю
відсутністю, адже люди у вакуумі довго не живуть, ним також можна
поширити отруйний газ.

// 2470
//Harry had to stop briefly for breath, and into that pause Professor Quirrell
//said:
Гаррі ненадовго зупинився, щоб звести дух, і саме тоді
професор Квірел додав:

// 2471
//“That’s three. You need ten. The rest of the class thinks that you’ve already
//used up the whole contents of the classroom.”
-- Це три. Вам треба десять. Решта класу думає, що ви вже використали весь вміст приміщення.

// 2472
//“__Ha!__ The floor can be removed to create a spike pit to fall into, the
//ceiling can be collapsed on someone, the walls can serve as raw material for
//Transfiguration into any number of deadly things - knives, say.”
-- Ха! Підлогу можна розібрати й зробити яму з шипами, щоб у неї впали,
стелю -- обвалити на когось, стіни згодяться як матеріал для
трансфігурації на безліч смертельних речей, як-от ножів.

// 2473
//“That’s six. But surely you’re scraping the bottom of the barrel now?”
// hedrok: @ scraping the bottom of the barrel -- сталий вираз.
-- Це шість. Зараз ви вже перебрали все до останньої крихти?

// 2474
//“I haven’t even started! Just look at all the people! Having a Gryffindor
//attack the enemy is an __ordinary__ use, of course -”
-- Я ще навіть не почав! Подивіться на всіх цих людей! Ґрифіндорець, що атакує
ворога, -- занадто __тривіально__, звісно...

// 2475
//“I will not count that one.”
-- Цього я не зарахую.

// 2476
//“- but their blood can also be used to drown someone. Ravenclaws are known for
//their brains, but their internal organs could be sold on the black market for
//enough money to hire an assassin. Slytherins aren’t just useful as assassins,
//they can also be thrown at sufficient velocity to crush an enemy. And
//Hufflepuffs, in addition to being hard workers, also contain bones that can be
//removed, sharpened, and used to stab someone.”
-- ...Але в його крові можна когось утопити. Рейвенкловці відомі своїми мізками,
проте їхні нутрощі теж чогось варті: на чорному ринку за них вдалося б виторгувати вдосталь грошей,
щоб найняти головоріза. Слизеринці корисні не лише як убивці: ними можна розчавити ворога,
якщо жбурнути їх із потрібною швидкістю. А гафелпафці не тільки працьовиті,
вони ще й мають кістки, цілком придатні, щоб проштрикнути когось, якщо їх вийняти й нагострити.

// 2477
//By now the rest of the class was staring at Harry in some horror. Even the
//Slytherins looked shocked.
// int_ua: "Тепер"? hedrok: "І от уже всі в класі"
На цих словах весь клас витріщився на Гаррі з деяким жахом. Навіть слизеринці
мали шокований вигляд.

// 2478
//“That’s ten, though I’m being generous in counting the Ravenclaw one. Now, for
//extra credit, one Quirrell point for each use of objects in this room which you
//have not yet named.” Professor Quirrell favored Harry with a companionable
//smile. “The rest of your class thinks you are in trouble now, since you’ve
//named everything except the targets and you have no idea what may be done with
//those.”
-- Це десять, хоча я й розщедрився, зарахувавши рейвенкловців. Тепер
додаткові нагороди: один бал Квірела за кожне застосування ще не названого тут обʼєкта,
-- професор Квірел обдарував Гаррі
товариською усмішкою. -- Всі інші думать, що ви в халепі, оскільки
перелічили все, крім мішеней, і гадки не маєте, що з ними можна вдіяти.

// 2479
//“Bah! I’ve named all the people, but not my robes, which can be used to
//suffocate an enemy if wrapped around their head enough times, or Hermione
//Granger’s robes, which can be torn into strips and tied into a rope and used to
//hang someone, or Draco Malfoy’s robes, which can be used to start a fire -”
//! Квірелове-Волдемортове "Ба!", зверну вашу увагу, я насолоджуюся натяками то тут то там
//! по цьому розділу.
-- Ба! Я назвав усіх людей, але не мою мантію, що нею можна задушити
ворога, як слід обмотавши її кругом голови; чи мантію Герміони Ґрейнджер,
яку можна пошматувати на стрічки та звʼязати з них мотузку, щоб когось повісити;
чи мантію Драко Мелфоя, яку можна використати, щоб почати пожежу...

// 2480
//“Three points,” said Professor Quirrell, “no more clothing now.”
-- Три бали, і більше жодного одягу.

// 2481
//“My wand can be pushed into an enemy’s brain through their eye socket” and
//someone made a horrified, strangling sound.
-- Мою паличку можна встромити комусь у мозок крізь очне яблуко, -- хтось
нажахано й здавлено пискнув.

// 2482
//“Four points, no more wands.”
-- Чотири бали, більше ніяких паличок.

// 2483
//“My wristwatch could suffocate someone if jammed down their throat -”
-- Мій наручний годинник може когось придушити, якщо запхати його глибоко в
горлянку...

// 2484
//“Five points, and enough.”
-- Пʼять балів, і годі.

// 2485
//“Hmph,” Harry said. “Ten Quirrell points to one House point, right? You should
//have let me keep going until I’d won the House Cup, I haven’t even started yet
//on the unaccustomed uses of everything I’ve got in my pockets” or the mokeskin
//pouch itself and he couldn’t talk about the Time-Turner or the invisibility
//cloak but there had to be __something__ he could say about those red
//spheres…
-- Пф, -- озвався Гаррі. -- Десять балів Квірела за одне очко гуртожитку, так?
Потрібно було не спиняти мене, аж доки я не виграв би кубка гуртожитків.
Я ще навіть не добрався до своїх кишень і незвичного застосування їхнього вмісту, -- чи
до самого капшучка; говорити про часоворот чи плащ-невидимку не варто, але ж мусило існувати
щось, що можна було б придумати для цих червоних сфер...

// 2486
//“__Enough,__ Mr. Potter. Well, do you all think you understand what makes
//Mr. Potter the most dangerous student in the classroom?”
-- __Годі__, містере Поттер. Отже, як ви всі гадаєте: тепер зрозуміло, що робить
містера Поттера найнебезпечнішим учнем у класі?

// 2487
//There was a low murmur of assent.
Почулося ствердне шепотіння.

// 2488
//“Say it out loud, please. Terry Boot, what makes your dorm-mate dangerous?”
-- Голосно й чітко, будь ласка. Террі Буте, що робить вашого сусіда
по кімнаті небезпечним?

// 2489
//“Ah… um… he’s creative?”
-- Е-е... м-м... Він винахідливий?

// 2490
//“__Wrong!__” bellowed Professor Quirrell, and his fist came down sharply
//on his desk with an amplified sound that made everyone jump. “All of Mr.
//Potter’s ideas were worse than useless!”
-- __Маячня!__ -- прогримів професор Квірел, різко й занадто гучно гупнувши кулаком по столу,
від чого всі аж підстрибнули. -- Усі ідеї містера Поттера
більш ніж непридатні!

// 2491
//Harry started in surprise.
Гаррі здригнувся від несподіванки.

// 2492
//“Remove the floor to create a spike trap? Ridiculous! In combat you do not have
//that sort of preparation time and if you did there would be a hundred better
//uses! Transfigure material from the walls? Mr. Potter cannot perform
//Transfiguration! Mr. Potter had exactly one idea which he could use
//immediately, right now, without extensive preparation or a cooperative enemy or
//magic he does not know. That idea was to jam his wand through his enemy’s eye
//socket. Which would be more likely to break his wand than kill his opponent! In
//short, Mr. Potter, I’m afraid that your proposals were uniformly awful.”
-- Зробити яму з шипами? Нісенітниця! У бою ви не матимете
стільки часу на підготовку, а якщо десь і знайдете, то для нього є сотні кращих застосувань!
Трансфігурувати стіни? Містер Поттер ще не опанував трансфігурації! Він озвучив
лиш одну ідею, що її мав би змогу негайно втілити в життя хоч зараз -- без копіткої
підготовки, кооперації з ворогом чи без магії, якої він не знає. Встромити
комусь у мозок паличку крізь очне яблуко. Та й то вона радше зламалася б, аніж
убила противника. Якщо підсумувати, містере Поттер, усі ваші пропозиції були
однаковісінько жахливими.

// 2493
//“What?” Harry said indignantly. “You __asked__ for unusual ideas, not
//practical ones! I was thinking outside the box! How would __you__ use
//something in this classroom to kill someone?”
-- Що? -- обурився Гаррі. -- Ви попросили __незвичних__ ідей, а не практичних! Я старався
мислити нешаблонно! А як би __ви__ застосували предмети в класі, щоб когось убити?

// 2494
//Professor Quirrell’s expression was disapproving, but there were smile crinkles
//around his eyes. “Mr. Potter, I never said you were to __kill.__ There is
//a time and a place for taking your enemy alive, and inside a Hogwarts classroom
//is usually one of those places. But to answer your question, hit them on the
//neck with the edge of a chair.”
Обличчя професора Квірела виражало незгоду, проте біля очей прорізалися
зморшки, наче від усмішки:

-- Містере Поттер, я ніколи не стверджував, що ваша мета -- __убити__. Існує час і місце,
щоб брати ворога живим, і гоґвортський клас зазвичай вважається одним із таких місць. Відповідь
на ваше запитання: вдарити цього когось по шиї краєм стільця.

// 2495
//There was some laughter from the Slytherins, but they were laughing with Harry,
//not at him.
Кілька слизеринців засміялося, та сміялися вони разом із Гаррі, а не з нього.
// 2496
//Everyone else was looking rather horrified.
Всі інші ж здавалися наляканими.

// 2497
//“But Mr. Potter has now demonstrated why he is the most dangerous student in
//the classroom. I asked for unaccustomed uses of items in this room for combat.
//Mr. Potter could have suggested using a desk to block a curse, or using a chair
//to trip an oncoming enemy, or wrapping cloth around his arm to create an
//improvised shield. Instead, every single use that Mr. Potter named was
//offensive rather than defensive, and either fatal or potentially fatal.”
-- Але містер Поттер продемонстрував, чому він найнебезпечніший учень у класі. Я
запитав про незвичні застосування предметів у цьому класі для бою. Він
міг запропонувати заблокувати прокляття столом, чи штовхнути стілець
під ноги ворогові, щоб той перечепився, чи намотати тканину на руку, зімпровізувавши в такий спосіб щит.
Натомість кожне наведене містером Поттером використання було радше наступальним, аніж
захисним, і або летальним, або потенційно летальним.

// 2498
//What? Wait, that couldn’t be true… Harry had a sudden sense of vertigo as he
//tried to remember what exactly he’d suggested, surely there had to be a
//counterexample…
Що? Ні, не може бути... Гаррі раптом запаморочилося в голові, коли він спробував точно
згадати всі свої пропозиції, там точно є хоч один контрприклад...

// 2499
//“And that,” Professor Quirrell said, “is why Mr. Potter’s ideas were so strange
//and useless - because he had to reach far into the impractical in order to meet
//his standard of __killing the enemy.__ To him, any idea which fell short
//of that was not worth considering. This reflects a quality that we might call
//__intent to kill__. I have it. Harry Potter has it, which is how he could
//stare down five older Slytherins. Draco Malfoy does not have it, not yet. Mr.
//Malfoy would hardly shrink from talk of ordinary murder, but even he was
//shocked - yes you were Mr. Malfoy, I was watching your face - when Mr. Potter
//described how to use his classmates’ bodies as raw material. There are censors
//inside your mind which make you flinch away from thoughts like that. Mr. Potter
//thinks __purely__ of killing the enemy, he will grasp at any means to do
//so, he does not flinch, his censors are off. Even though his youthful genius is
//so undisciplined and impractical as to be useless, his __intent to kill__
//makes Harry Potter the Most Dangerous Student in the Classroom. One final point
//to him - no, let us make that a point to Ravenclaw - for this indispensable
//requisite of a true fighting wizard.”
// hedrok: "intent to kill" - копія в 089:16180
// hedrok: "censors off", "flinch" - копія в 089:16186
-- І це причина, чому ідеї містера Поттера були такими дивними й непридатними:
він мусив переступити далеко за межу практичности, щоб не опуститися нижче від свого
стандарту -- __вбивства ворога__. Для нього кожна ідея, неспроможна цього досягти,
не варта розгляду. Це свідчить про рису, що її ми можемо назвати __готовністю вбити__.
Вона є в мене. Вона є в містера Поттера -- так він зміг вистояти проти пʼяти старших
слизеринців. У Драко Мелфоя її немає, поки що. Містер Мелфой навряд чи б бодай бровою повів,
обговорюючи звичайне вбивство, але навіть він був шокований -- так-так, були, містере
Мелфой, я спостерігав за вами, -- коли містер Поттер просторікував про тіла
своїх однокласників як про сировину. У вашому мозку існують запобіжники, що змушують
вас сахатися від думок на зразок цієї. Містер Поттер думає __виключно__ про знищення
ворога. Для досягнення цього він скористається всіма доступними методами, не завагається,
усі запобіжники знято. І хоча його юний геній настільки нетренований і непрактичний,
що продукує лише жахливий непотріб, __готовність убити__ робить Гаррі Поттера
найнебезпечнішим учнем у класі. Один останній бал йому -- ні, краще дамо очко
Рейвенкловові -- за цю необхідну якість справжнього бойового мага.

// 2500
//Harry’s mouth gaped open in speechless shock as he searched frantically for
//something to say to this. __That is so completely not what I am about!__
Гаррі, шокований і безмовний, роззявив рота, розпачливо намагаючись відшукати щось, що
можна було б на це відповісти. "`Це все геть не те, ким я є насправді!`".

// 2501
//But he could see that the other students were starting to believe it. Harry’s
//mind was flipping through possible denials and not finding anything that could
//stand up against the authoritative voice of Professor Quirrell. The best Harry
//had come up with was “I’m not a psychopath, I’m just very creative” and that
//sounded kind of ominous. He needed to say something unexpected, something that
//would make people stop and reconsider -
// hedrok: "I'm not ..., I'm just very creative" 39:7481
Але він бачив, що інші учні починали вірити в це. Його мозок перебирав усі можливі заперечення,
та не знаходив нічого, що могло б вистояти проти авторитетного голосу професора Квірела.
Найкраще, на що він спромігся: "`Я не психопат, просто дуже винахідливий`", що звучало
вкрай лиховісно. Треба було сказати щось неочікуване, щось, що змусило б людей зупинитися
й поміркувати.

// 2502
//“And now,” Professor Quirrell said. “Mr. Potter. Fire.”
-- А тепер, містере Поттер, вогонь, -- звелів професор Квірел.

// 2503
//Nothing happened, of course.
Звісно, нічого не відбулося.

// 2504
//“Ah, well,” said Professor Quirrell. He sighed. “I suppose we must all start
//somewhere. Mr. Potter, select any student you please for a Simple Strike Hex.
//You __will__ do so before I dismiss your class for the day. If you do not,
//I will begin deducting House points, and I will keep on deducting them until
//you do.”
-- Ех, -- сказав професор Квірел. -- Гадаю, усі ми десь починали. Містере
Поттер, виберіть будь-якого учня для прокльону простого удару. Перш ніж я оголошу
урок закінченим, ви це __зробите__, інакше я почну віднімати очки гуртожитку,
і відніматиму їх доти, доки ви не наважитеся.

// 2505
//Harry carefully raised his wand. He had to do that much, or Professor Quirrell
//might start deducting House points right away.
Гаррі обережно підняв паличку. Він мусив вдіяти хоч щось, хоча б це, інакше професор Квірел
міг взятися відраховувати очки відразу ж.

// 2506
//Slowly, as though on a roasting platter, Harry turned to face the Slytherins.
Повільно, наче на рожні, Гаррі повернувся до слизеринців і
// 2507
//And Harry’s eyes met Draco’s.
зустрівся поглядом із Драко.
// 2508
//Draco Malfoy didn’t look the slightest bit afraid. The blonde-haired boy wasn’t
//giving any visible sign of assent such as Harry had given Hermione, but then he
//could hardly be expected to do so. The other Slytherins would think that rather
//odd.
Той не демонстрував ані крихти страху. Біловолосий хлопець не подавав жодних
знаків згоди, як це робив Гаррі для Герміони, але було важко очікувати такого від
нього. Інших слизеринців це могло насторожити.

// 2509
//“Why the hesitation?” said Professor Quirrell. “Surely there’s only one obvious
//choice.”
-- Звідки сумніви? -- поцікавився професор Квірел. -- Звісно, є лиш один очевидний
вибір.

// 2510
//“Yes,” Harry said. “Only one __obvious__ choice.”
-- Так, -- погодився Гаррі. -- Лиш один __очевидний__ вибір.

// 2511
//Harry twisted the wand and said “__Ma-ha-su!__”
Він вивернув руку з паличкою:

-- __Ма-га-су!__

// 2512
//There was complete silence in the classroom.
У класі запала цілковита тиша.
// 2513
//Harry shook his left arm, trying to get rid of the lingering sting.
Гаррі поворушив лівою рукою, намагаючись позбутися різкого болю.
// 2514
//There was more silence.
Тиша тривала.

// 2515
//Finally Professor Quirrell sighed. “Yes, quite ingenious, but there was a
//lesson to be taught and you dodged it. One point from Ravenclaw for showing off
//your own cleverness at the expense of the actual goal. Class dismissed.”
-- Так, -- зрештою зітхнув професор Квірел, -- доволі винахідливо, але була наука, що її ви мали засвоїти, а натомість
ухилилися від неї. Мінус одне очко з Рейвенклову за хизування своєю кмітливістю на шкоду
меті. Урок закінчено.

// 2516
//And before anyone else could say anything, Harry sang out:
До того як хтось устиг щось вимовити, Гаррі проспівав:

// 2517
//“Just kidding! RAVENCLAW!”
-- Жартую-жартую! РЕЙВЕНКЛОВ!

// 2518
//There was silence for a brief moment after that, a sound of people thinking,
//and then the murmurs started and rapidly rose to a roar of conversation.
На коротку мить знову запанувала тиша, серед якої були лише звуки роздумів, відтак почалося
шепотіння, що стрімко переросло в гомін.

// 2519
//Harry turned towards Professor Quirrell, the two of them needed to talk -
Гаррі повернувся в напрямку професора Квірела, їм треба було поговорити.
// 2520
//Quirrell had slumped over and was trudging back to his chair.
Той поникло клигав назад до свого крісла.

// 2521
//No. Not acceptable. They __really __needed to talk. Stuff the zombie act,
//Professor Quirrell would probably wake up if Harry poked him a couple of times.
//Harry started forward -
Ні. Неприйнятно. Їм __справді__ треба поговорити. Байдуже на зомбі-режим, професор
Квірел, мабуть, прокинеться, якщо Гаррі штурхне його кілька разів. Він рушив
уперед...

// 2522
//__WRONG__
// hedrok: копія 054:9449,9450
__НЕПРАВИЛЬНО__

// 2523
//__DON’T__
__НЕ ТРЕБА__

// 2524
//__BAD IDEA__
__ПОГАНА ІДЕЯ__

// 2525
//Harry swayed and stopped in his tracks, feeling dizzy.
Гаррі захитався й зупинився на місці, відчуваючи запаморочення.
// 2526
//And then a flock of Ravenclaws descended on him and the discussions began.
А тоді зграя рейвенкловців оточила його, і почалося обговорення.
