// 5021
//== Noticing Confusion
== Розділ 26. Помічаючи спантеличення

// 5022
//Yakka foob mog. Grug pubbawup zink wattoom gazork. Chumble spuzz J. K. Rowling.
//http://www.gocomics.com/calvinandhobbes/1995/01/09/
Яка фуб моґ. Ґраґ пабавап зінк ватум ґазорк. Чамбл спаз Дж. К. Ролінґ.

***

// 5023
//Professor Quirrell’s office hours consisted of 11:40 to 11:55 AM on Thursday.
//That was for all of his students in all years. It cost a Quirrell point just to
//knock on the door, and if he didn’t think your reason was worth his time, you
//would lose another fifty.
Професор Квірел приймав щочетверга з 11:40 до 11:55.
Усіх учнів усіх років навчання. Просто постукати у двері коштувало один бал
Квірела, а якщо причина візиту, на думку професора, виявлялася не вартою його часу, то можна
було втратити ще пʼятдесят.

// 5024
//Harry knocked on the door.
Гаррі постукав.

// 5025
//There was a pause. Then a biting voice said, “I suppose you may as well come
//in, Mr. Potter.”
Павза. За мить почувся злий голос:

-- Гадаю, можете вже й зайти, містере Поттер.

// 5026
//And before Harry could touch the doorknob, the door slammed open, hitting the
//wall with a sharp crack that sounded like something might have broken in the
//wood, or the stone, or both.
Гаррі не встиг доторкнутися до ручки, як двері розчахнулися,
пронизливо грюкнувши об стіну так, ніби щось зламалося чи в деревині, чи в
камінні, чи і там, і там.

// 5027
//Professor Quirrell was leaning back in his chair and reading a suspiciously
//old-looking book, bound in night-blue leather with silver runes on the spine.
//His eyes had not moved from the pages. “I am not in a good mood, Mr. Potter.
//And when I am not a good mood, I am not a pleasant person to be around. For
//your own sake, conduct your business quickly and depart.”
Професор Квірел, відкинувшись на стільці, читав підозріло стародавню на вигляд
книжку, обгорнуту темно-синьою шкірою, зі срібними рунами на корінці. Він
не відірвав очей від сторінок:

-- Я не в доброму гуморі, містере Поттер. А коли я не в доброму гуморі, я не
та людина, поруч із якою приємно перебувати. Заради вашого ж блага, швидко залагоджуйте
своє питання і йдіть.

// 5028
//A cold chill seeped from the room, as though it contained something that cast
//darkness the way lamps cast light, and which hadn’t been fully shaded.
// hedrok: @ hadn't been fully shaded.
// ikakok: Guess - #4 Verb звідси https://en.oxforddictionaries.com/definition/shade
// Аліна: lampshade - абажур; припускаю, тут мається на увазі shaded lamp - лампа з абажуром
Із кімнати сочився холод, немов щось там випромінювало темряву -- як лампа, що
розсіює світло крізь нещільний абажур.

// 5029
//Harry was a bit taken aback. __Not in a good mood__ didn’t quite seem to
//cover it. What could be bothering Professor Quirrell this much…?
Це заскочило Гаррі зненацька. "`Не в доброму гуморі`" аж ніяк не скидалося на точний
опис ситуації. Що могло так вивести професора Квірела з рівноваги?..

// 5030
//Well, you didn’t just walk out on friends when they were feeling down. Harry
//cautiously advanced into the room. “Is there anything I can do to help -”
Ну, друзів не годиться кидати наодинці з їхнім поганим настроєм. Гаррі обережно
зайшов до кімнати.

-- Чи можу я чимось допомогти...

// 5031
//“No,” said Professor Quirrell, still not looking up from the book.
-- Ні, -- відрізав професор Квірел, досі не зводячи очей із книжки.

// 5032
//“I mean, if you’ve been dealing with idiots and want someone sane to talk to…”
// hedrok: про це йдеться в 090:16343
-- Маю на увазі, якщо ви мали справу з ідіотами й хочете поговорити з кимось
розумним...

// 5033
//There was a surprisingly long pause.
Запала на диво довга тиша.

// 5034
//Professor Quirrell slammed the book shut and it vanished with a small
//whispering sound. He looked up, then, and Harry flinched.
Професор Квірел із ляскотом згорнув книжку, що тихо зашипіла й зникла.
Він підвів погляд, і Гаррі здригнувся.

// 5035
//“I suppose an intelligent conversation would be pleasant for __me__ at
//this point,” said Professor Quirrell in the same biting tone that had invited
//Harry to enter. “__You__ are not likely to find it so, be warned.”
-- Гадаю, __мені__ інтелектуальна розмова буде наразі приємною, -- зазначив
професор Квірел тим самим злим голосом, яким запросив Гаррі ввійти. -- Для
__вас__ вона навряд чи виявиться такою ж, я попередив.

// 5036
//Harry drew a deep breath. “I promise I won’t mind if you snap at me. What
//happened?”
Гаррі глибоко вдихнув:

-- Обіцяю, що не ображуся, якщо ви нагаркаєте на мене. Що сталося?

// 5037
//The cold in the room seemed to deepen. “A sixth-year Gryffindor cast a curse at
//one of my more promising students, a sixth-year Slytherin.”
Холод у кімнаті посилився.

-- Шестикласник-ґрифіндорець кинув прокляттям в одного з моїх найбільш
перспективних шестикласників зі Слизерину.

// 5038
//Harry swallowed. “What… sort of curse?”
Гаррі ковтнув слину:

-- Яким саме... прокляттям?

// 5039
//And the fury on Professor Quirrell’s face was no longer contained. “Why bother
//to ask an unimportant question like that, Mr. Potter? Our friend the sixth-year
//Gryffindor did not think it was important!”
Професор Квірел більше не стримував своєї люті:

-- Та кого цікавлять такі дурниці, містере Поттер? Наш друг --
шестикласник-ґрифіндорець -- не подумав, що це важливо!

// 5040
//“Are you __serious?__” Harry said before he could stop himself.
-- Ви __серйозно__? -- бовкнув Гаррі, перш ніж устиг припнути свого язика.

// 5041
//“No, I’m in a terrible mood today for no particular reason. __Yes I’m
//serious, you fool!__ He didn’t know. He __actually didn’t know.__ I didn’t
//believe it until the Aurors confirmed it under Veritaserum. He is in his
//__sixth year at Hogwarts__ and he cast a high-level Dark curse
//__without knowing what it did.__”
-- Ні, я сьогодні в жахливому настрої просто так. __Так, я серйозно, дурню!__
Він не знав. Він __справді не знав__. Я не вірив, доки аврори не підтвердили за
допомогою сироватки правди. Він у __шостому класі Гоґвортсу__ й застосовує високорівневе
темне прокляття, __не знаючи, що воно робить__.

// 5042
//“You don’t mean,” Harry said, “that he was __mistaken__ about what it did,
//that he somehow read the wrong spell description -”
-- Ви ж не маєте на увазі, -- уточнив Гаррі, -- що він __помилився__ щодо його
дії, що він якось прочитав опис іншого закляття...

// 5043
//“All he knew was that it was meant to be directed at an enemy. He __knew__
//that was all he knew.”
-- Він знав лише, що прокляття призначено для ворогів. Він __знав__, що це
все, що він знав.

// 5044
//And that had been enough to cast the spell. “I do not understand how anything
//with that small a brain could walk upright.”
І цього вистачило, щоб закляття спрацювало.

-- Я не розумію, як щось із таким крихітним мозком тримається на двох ногах.

// 5045
//“Indeed, Mr. Potter,” said Professor Quirrell.
-- А й справді, містере Поттер.

// 5046
//There was a pause. Professor Quirrell leaned forward and picked up the silver
//inkwell from his desk, turning it around in his hands, staring at it as though
//wondering how he could go about torturing an inkwell to death.
Запала мовчанка. Професор Квірел схилився вперед, підібрав срібну чорнильницю зі
стола й повертів її в руках, роздивляючись, ніби розмірковував, як би то
закатувати її до смерти.

// 5047
//“Was the sixth-year Slytherin seriously hurt?” said Harry.
-- Шестикласник-слизеринець серйозно постраждав? -- запитав Гаррі.

// 5048
//“Yes.”
-- Так.

// 5049
//“Was the sixth-year Gryffindor raised by Muggles?”
-- Шестикласника-ґрифіндорця виховували маґли?

// 5050
//“__Yes.__”
-- __Так.__

// 5051
//“Is Dumbledore refusing to expel him because the poor boy didn’t know?”
-- Дамблдор відмовляється його виключати, адже бідолаха не знав?

// 5052
//Professor Quirrell’s hands whitened on the inkwell. “__Do you have a
//point, Mr. Potter, or are you just stating the obvious?__”
Стиснені на чорнильниці руки професора Квірела аж побіліли:

-- __Ви до чогось ведете, містере Поттер, чи просто стверджуєте очевидне?__

// 5053
//“Professor Quirrell,” said Harry gravely, “all the Muggle-raised students in
//Hogwarts need a safety lecture in which they are told the things so
//ridiculously obvious that no wizardborn would ever think to mention them. Don’t
//cast curses if you don’t know what they do, if you discover something dangerous
//don’t tell the world about it, don’t brew high-level potions without
//supervision in a bathroom, the reason why there are underage magic laws, all
//the basics.”
-- Професоре Квірел, -- авторитетно заявив Гаррі, -- усім
учням у Гоґвортсі, що росли з маґлами, потрібна лекція з безпеки. Їм варто розказати про настільки
сміховинно очевидні речі, що жодному з вихованих чарівниками вони ніколи не спадуть на думку.
Не застосовувати заклять, не знаючи їхньої дії, не
варити високорівневих зіллів без нагляду в туалеті, причини існування законів для
обмеження неповнолітнього чаклунства -- самі основи.

// 5054
//“Why?” said Professor Quirrell. “Let the stupid ones die before they breed.”
-- Навіщо? -- поцікавився професор Квірел. -- Нехай ду{stress}рні мруть, перш ніж
встигнуть розмножитися.

// 5055
//“If you don’t mind losing a few sixth-year Slytherins along with them.”
-- Якщо ви не проти втратити кількох шестикласників-слизеринців разом із ними.

// 5056
//The inkwell caught fire in Professor Quirrell’s hands and burned with a
//terrible slowness, hideous black-orange flames tearing at the metal and seeming
//to take tiny bites from it, the silver twisting as it melted, as though it were
//trying and failing to escape. There was a tinny shrieking sound, as though the
//metal were screaming.
Чорнильниця спалахнула в руках професора Квірела. Вона горіла жахливо повільним і
огидним червоно-помаранчевим полумʼям, що шматувало метал, ніби відкушуючи його невеличкими
шматками. Срібло плавилося й згорталося, безуспішно
намагаючись утекти. Чорнильниця наче
кричала із пронизливим металевим скреготом.

// 5057
//“I suppose you are right,” Professor Quirrell said with a resigned smile. “I
//shall design a lecture to ensure that Muggleborns who are too stupid to live do
//not take anyone valuable with them as they depart.”
-- Гадаю, ви маєте рацію, -- професор Квірел покірно усміхнувся. -- Я
розроблю лекцію, щоб переконатися, що учні маґлівського роду, занадто тупі
для цього життя, не прихоплять із собою когось цінного, покидаючи нас.

// 5058
//The inkwell went on screaming and burning in Professor Quirrell’s hands, tiny
//droplets of metal, still on fire, now dripping to the desk, as though the
//inkwell were crying.
Чорнильниця й далі кричала й палала в руках професора Квірела. Вона немов стікала дрібними металевими слізьми,
що все ще охоплені вогнем падали на стіл.

// 5059
//“You’re not running away,” observed Professor Quirrell.
-- Ви не тікаєте, -- зауважив професор Квірел.

// 5060
//Harry opened his mouth -
Гаррі розкрив рота.

// 5061
//“If you’re about to say you’re not scared of me,” said Professor Quirrell,
//“__don’t.__”
-- Якщо ви збираєтеся сказати, що не боїтеся мене, -- застеріг професор Квірел,
-- __не варто__.

// 5062
//“You are the scariest person I know,” Harry said, “and one of the top reasons
//for that is your control. I simply can’t imagine hearing that you’d hurt
//someone you had not made a deliberate decision to hurt.”
-- Ви найстрашніша людина з усіх, кого я знаю, -- відповів Гаррі, -- і однією з
головних причин цього є ваш контроль. Я просто не можу уявити, щоб ви комусь
зашкодили, не ухваливши свідомого рішення це зробити.

// 5063
//The fire in Professor Quirrell’s hands winked out, and he carefully placed the
//ruined inkwell on his desk. “You say the nicest things, Mr. Potter. Have you
//been taking lessons in flattery? From, perhaps, Mr. Malfoy?”
Полумʼя згасло в руках професора Квірела. Він обережно вернув знищену
чорнильницю на стіл.

-- Ви мовите такі приємні речі, містере Поттер. Брали уроки з лестощів?
Можливо, у містера Мелфоя?

// 5064
//Harry kept his expression blank, and realized one second too late that it might
//as well have been a signed confession. Professor Quirrell didn’t care what your
//expression looked like, he cared which states of mind made it likely.
Гаррі зберіг нейтральний вираз обличчя, надто пізно -- на секунду -- збагнувши, що
цим самим підписав своє зізнання. Професор Квірел зважав не на
вираз, а на стан розуму, що робив його ймовірним.

// 5065
//“I see,” said Professor Quirrell. “Mr. Malfoy is a useful friend to have, Mr.
//Potter, and there is much he can teach you, but I hope you have not made the
//mistake of trusting him with too many confidences.”
-- Зрозуміло. Корисно мати такого друга, як містер Мелфой,
він багато чого може вас навчити. Та сподіваюся, що
ви не зробили помилки, довіривши йому забагато таємниць.

// 5066
//“He knows nothing which I fear becoming known,” said Harry.
-- Він не знає нічого такого, що загрожувало б мені, якби стало відомим,
-- запевнив Гаррі.

// 5067
//“Well done,” said Professor Quirrell, smiling slightly. “So what was your
//original business here?”
-- От і добре, -- професор Квірел легенько всміхнувся. -- То з чим ви
сюди завітали?

// 5068
//“I think I’m done with the preliminary exercises in Occlumency and ready for
//the tutor.”
-- Гадаю, я завершив із підготовчими вправами з блокології та готовий до занять з
інструктором.

// 5069
//Professor Quirrell nodded. “I shall conduct you to Gringotts this Sunday.” He
//paused, looking at Harry, and smiled. “And we might even make it a little
//outing, if you like. I’ve just had a pleasant thought.”
Професор Квірел кивнув.

-- Я супроводжу вас до "`Ґрінґотсу`" цієї неділі, -- він спинився на хвильку й
усміхнено глянув на Гаррі. -- Можемо навіть трохи прогулятися, якщо
забажаєте. Мені щойно спало на думку дещо приємне.

// 5070
//Harry nodded, smiling back.
Гаррі кивнув, усміхаючись у відповідь.

// 5071
//As Harry left the office, he heard Professor Quirrell humming a small tune.
Вийшовши з кабінету, він почув, як професор Квірел щось мугикає.

// 5072
//Harry was glad he’d been able to cheer him up.
Гаррі зрадів, що зміг підбадьорити його.

***

// 5073
//That Sunday there seemed to be a rather large number of people whispering in
//the hallways, at least when Harry Potter walked past them.
Тієї неділі в коридорах шепотілося безліч людей, принаймні коли
повз них проходив Гаррі.

// 5074
//And a lot of pointed fingers.
І багато хто тицяв пальцями.

// 5075
//And a great deal of female giggling.
І лунало чимало дівочого хихотіння.

// 5076
//It had started at breakfast, when someone had asked Harry if he’d heard the
//news, and Harry had quickly interrupted and said that if the news was written
//by Rita Skeeter then he didn’t want to __hear__ about it, he wanted to
//read it in the paper himself.
Це почалося за сніданком, коли хтось поцікавився був, чи чув він новини. Гаррі,
обірвавши питання, хутко відповів, що якщо ці новини написала Ріта Скітер, то
він волів би їх не __почути__, а самостійно прочитати статтю.

// 5077
//It had then developed that not many students at Hogwarts got copies of the
//__Daily Prophet,__ and that the copies which had not already been bought
//up from their owners were being passed around in some sort of complicated order
//and nobody really knew who had one at the moment…
Виявилося, що в Гоґвортсі не так багато учнів передплачувало "`Щоденного
віщуна`". Ще не викуплені у власників примірники передавалися згідно з
якоюсь складною чергою, і ніхто не міг сказати напевно, у кого наразі була газета...

// 5078
//So Harry had used a Quieting Charm and gone on to eat his breakfast, trusting
//to his seat-mates to wave off the many, many questioners, and doing his best to
//ignore the incredulity, the laughter, the congratulatory smiles, the pitying
//looks, the fearful glances, and the dropped plates as new people came down for
//breakfast and heard.
Тому Гаррі наклав "`Квієтус`" і взявся їсти, довіривши сусідам
за столом позбуватися багатьох, багатьох допитливих носів. Він щосили намагався не
зважати на регіт, вітальні усмішки, співчутливі й недовірливі обличчя, нажахані
погляди й впущені з рук тарілки, коли новим учням, що спускалися на сніданок,
повідомляли новини.

// 5079
//Harry was feeling __rather__ curious, but it __really__ wouldn’t have
//done to spoil the artistry by hearing it secondhand.
Гаррі аж згоряв від цікавости, але ж не годиться промінювати перше враження від особистого
ознайомлення з шедевром на чийсь недоладний переказ.

// 5080
//He’d done homework in the safety of his trunk for the next couple of hours,
//after telling his dormmates to come get him if anyone found him an original
//newspaper.
Протягом наступних кількох годин він виконував домашнє завдання, безпечно сховавшись у валізі й
попрохавши спершу сусідів по кімнаті покликати його, якщо хтось таки роздобуде саму
газету.

// 5081
//Harry was still ignorant at 10AM, when he’d left Hogwarts in a carriage with
//Professor Quirrell, who was in the front right, and currently slumped over in
//zombie-mode. Harry was sitting diagonally across, as far away as the carriage
//allowed, in the back left. Even so, Harry had a constant feeling of doom as the
//carriage rattled over a small path through a section of non-forbidden forest.
//It made it a bit hard to read, especially since the material was difficult, and
//Harry suddenly wished he was reading one of his childhood science fiction books
//instead -
О десятій ранку Гаррі все ще перебував у невіданні, покидаючи Гоґвортс у диліжансі разом
із професором Квірелом. Той, впавши в
зомбі-режим, сидів попереду праворуч, а Гаррі -- позаду ліворуч, забившись так далеко в протилежний кут,
наскільки це було можливо. Та лиховісне передчуття однаково не полишало його ні на мить,
доки диліжанс торохкотів невеличкою стежкою через незаборонений ліс. Це заважало
читати, тим паче що книжка була складна, а Гаррі
зненацька захотілося почитати натомість щось із дитячої наукової фантастики.

// 5082
//“We’re outside the wards, Mr. Potter,” said Professor Quirrell’s voice from the
//front. “Time to go.”
-- Ми поза дією захисних чарів, містере Поттер, -- пролунав голос професора
Квірела спереду. -- Час виходити.

// 5083
//Professor Quirrell carefully disembarked from the carriage, bracing himself as
//he stepped down. Harry, on his own side, jumped off.
Професор Квірел обережно зійшов із диліжанса, опанувавши себе. Гаррі ж зістрибнув.

// 5084
//Harry was wondering exactly how they’d get there when Professor Quirrell said
//“Catch!” and threw a bronze Knut at him, and Harry caught it without thinking.
Він саме зацікавився, як вони туди дістануться, аж раптом професор Квірел
гукнув: "`Лови!`" -- і кинув бронзовий кнат, що його Гаррі бездумно піймав.

// 5085
//A giant intangible hook caught at Harry’s abdomen and yanked him back, hard,
//only without any sense of acceleration, and an instant later Harry was standing
//in the middle of Diagon Alley.
Гігантський невідчутний гак вчепився йому в живіт і сильно смикнув.
Він не відчув жодного пришвидшення, а за мить уже стояв посеред алеї
Діаґон.

// 5086
//(__Excuse me, what?__ said his brain.)
("`Перепрошую, що?`" -- запитав його мозок.)

// 5087
//(__We just teleported,__ explained Harry.)
("`Ми щойно телепортувалися`", -- пояснив Гаррі.)

// 5088
//(__That didn’t used to happen in the ancestral environment,__ Harry’s
//brain complained, and disoriented him.)
("`Наші пращури з таким не стикалися`", -- поскаржився мозок і
дезорієнтував його.)

// 5089
//Harry staggered as his feet adjusted to the brick of the street instead of the
//dirt of the forest corridor they had been traversing. He straightened, still
//dizzy, with the bustling witches and wizards seeming to sway slightly, and the
//cries of the shopkeepers seeming to move around in his hearing, as his brain
//tried to place a world to be located in.
Гаррі похитнувся, пристосовуючись до брукованої вулиці після поїздки ґрунтовою
стежкою через ліс. Він випрямився, хоч у
голові досі трохи паморочилося. Поки мозок намагався розставити все на свої місця,
йому здавалося, що метушливі відьми й чарівники
трохи погойдувалися, а галас від крамарів -- постійно переміщувався.

// 5090
//Moments later, there was a sort of sucking-popping sound from a few paces
//behind Harry, and when Harry turned to look Professor Quirrell was there.
Ще мить, і позаду Гаррі щось ляснуло.
Озирнувшись, він побачив професора Квірела, що стояв за кілька кроків від нього.

// 5091
//“Do you mind -” said Harry, at the same time as Professor Quirrell said, “I’m
//afraid I -”
-- Ви не проти... -- почав було Гаррі.

-- Боюся мені... -- тієї ж миті сказав професор Квірел.

// 5092
//Harry stopped, Professor Quirrell didn’t.
Гаррі зупинився. Професор Квірел -- ні.

// 5093
//“- need to go off and set something in motion, Mr. Potter. As it has been
//thoroughly explained to me that I am responsible for anything whatsoever that
//happens to you, I’ll be leaving you with -”
// hedrok: @ set something in motion
-- ...треба відійти й дещо організувати, містере Поттер. Як мені докладно
розʼяснили, я відповідальний за цілковито все, що з вами трапиться, тому я
залишу вас із...

// 5094
//“Newsstand,” Harry said.
-- Газетою, -- перебив його Гаррі.

// 5095
//“Pardon?”
-- Перепрошую?

// 5096
//“Or anywhere I can buy a copy of the __Daily Prophet.__ Put me there and
//I’ll be happy.”
-- Чи будь-де, де можна купити примірник "`Щоденного віщуна`". Залиште мене
там, і буде мені щастя.

// 5097
//Shortly after, Harry had been delivered into a bookstore, accompanied by
//several quietly spoken, ambiguous threats. And the shopkeeper had gotten
//__less__ ambiguous threats, judging by the way he had cringed, and how his
//eyes now kept darting between Harry and the entrance.
Незабаром Гаррі опинився в книгарні, вислухавши дорогою кілька тихих і туманних
погроз. Крамареві дісталися менш двозначні погрози -- з огляду на те, як він
зіщулився і бігав очицями від Гаррі до вхідних дверей.

// 5098
//If the bookstore burned down, Harry was going to stick around in the middle of
//the fire until Professor Quirrell got back.
Якщо книгарня згорить, то Гаррі мусить стояти посеред полумʼя і чекати на
професора Квірела.

// 5099
//Meanwhile -
А тим часом...

// 5100
//Harry took a quick glance around.
Гаррі швидко огледівся.

// 5101
//The bookstore seemed rather small and shoddy, with only four rows of bookcases
//visible, and the nearest shelf Harry’s eyes had jumped to seemed to deal with
//narrow, cheaply bound books with grim titles like __The Massacre of
//Albania in the Fifteenth Century.__
Це була доволі невелика й поганенька книгарня. На найближчому з чотирьох стелажів
Гаррі побачив лише тонкі й абияк скріплені видання зі зловісними
назвами на кшталт "`Албанська різанина в пʼятнадцятому сторіччі`".

// 5102
//First things first. Harry stepped over to the seller’s counter.
Та спершу найважливіше. Він підійшов до прилавка.

// 5103
//“Pardon me,” said Harry, “One copy of the __Daily Prophet,__ please.”
-- Перепрошую, -- звернувся Гаррі до крамаря. -- Один примірник "`Щоденного віщуна`", будь
ласка.

// 5104
//“Five Sickles,” said the shopkeeper. “Sorry, kid, I’ve only got three left.”
-- Пʼять серпиків, -- відповів той. -- Вибач, хлопче, залишилося лише
три примірники.

// 5105
//Five Sickles dropped onto the counter. Harry had the feeling he could have
//bargained him down a couple of points, but at this point he didn’t really care.
Пʼять серпиків упало на прилавок. Гаррі відчував, що міг би сторгуватися й
дешевше, проте наразі йому було ба{stress}йдуже.

// 5106
//The shopkeeper’s eyes widened and he seemed to really notice Harry for the
//first time. “__You!__”
Очі крамаря розширилися, видається, він уперше по-справжньому подивився на Гаррі.

-- __Ти!__

// 5107
//“__Me!__”
-- __Я!__

// 5108
//“Is it __true?__ Are you __really__ -”
-- Це правда? Ти __справді__...

// 5109
//“__Shut up!__ Sorry, I’ve been waiting __all day__ to read this in
//the original newspaper instead of hearing about it secondhand, so please just
//__hand it over__, all right?”
-- Замовкніть! Вибачте, я чекав __цілий день__, щоб прочитати оригінальну
статтю, а не почути чийсь переказ, тож, будь ласка, просто __передайте
газету__, гаразд?

// 5110
//The shopkeeper stared at Harry for a moment, then wordlessly reached under the
//counter and passed over one folded copy of the __Daily Prophet__.
Крамар трохи повитріщався на Гаррі, відтак без жодного слова дістав з-під
прилавка складений примірник "`Щоденного віщуна`" й передав його Гаррі.

// 5111
//The headline read:
Заголовок сповіщав:

// 5112
//__HARRY POTTER__
__ГАРРІ ПОТТЕР__

// 5113
//__SECRETLY BETROTHED__
__ТАЄМНО ЗАРУЧЕНИЙ__

// 5114
//__TO GINEVRA WEASLEY__
__ІЗ ДЖІНЕВРОЮ ВІЗЛІ__

// 5115
//Harry stared.
Гаррі втупився в газету.
// 5116
//He lifted the newspaper off the counter, softly, reverently, like he was
//handling an original Escher artwork, and unbent it to read…
Обережно й шанобливо взяв її з прилавка, ніби це була оригінальна
картина Ешера, розгорнув і почав читати...

// 5117
//…about the evidence that had convinced Rita Skeeter.
...про докази, що переконали Ріту Скітер.

// 5118
//…and some interesting further details.
...і про інші цікаві подробиці.

// 5119
//…and yet more evidence.
...і ще додаткові докази.

// 5120
//Fred and George had cleared it with their sister first, surely? Yes, of course
//they had. There was a picture of Ginevra Weasley sighing longingly over what
//Harry could see, looking closely, was a photo of himself. That had to have been
//staged.
Фред і Джордж узгодили ж це спершу із сестрою, правда? Авжеж, узгодили. Стаття супроводжувалася
ілюстрацією: Джіневра Візлі, що самотньо зітхає над (як Гаррі розгледів, ретельно придивившись) його
власною світлиною. Це ж треба було інсценувати.

// 5121
//But __how__ on __Earth…?__
Але яким дивом?..

// 5122
//Harry was sitting in a cheap folding chair, rereading the newspaper for the
//fourth time, when the door whispered softly and Professor Quirrell came back
//into the shop.
Гаррі сидів на дешевому розкладному стільці й перечитував газету вчетверте,
коли професор Квірел, тихенько відчинивши двері, повернувся до крамниці.

// 5123
//“My apologies for - __what__ in Merlin’s name are you reading?”
-- Перепрошую за... що, заради Мерліна, ви читаєте?

// 5124
//“It would seem,” said Harry, awe in his voice, “that one Mr. Arthur Weasley was
//placed under the Imperius Curse by a Death Eater whom my father killed, thus
//creating a debt to House Potter, which my father demanded be repaid by the hand
//in marriage of the recently born Ginevra Weasley. Do people actually do that
//sort of thing around here?”
-- Скидається на те, -- у Гарріному голосі лунало благоговіння, -- що деякого містера
Артура Візлі закляв був "`Імперіусом`" смертежер, якого вбив мій батько.
Це створило борг родові Поттерів, і мій батько вимагав сплатити його
рукою нещодавно народженої Джіневри Візлі. Люди справді тут таке роблять?


// 5125
//“How could Miss Skeeter __possibly__ be fool enough to believe -”
-- Не могла ж міс Скітер виявитися такою дурепою, щоб повірити...

// 5126
//And Professor Quirrell’s voice cut off.
Професор Квірел зненацька затнувся.

// 5127
//Harry had been reading the newspaper held vertically and unfolded, which meant
//that Professor Quirrell, from where he was standing, could see the text
//underneath the headline.
Газета в руках Гаррі була повністю розгорнута. Він тримав її вертикально, доки
читав, тому професор Квірел зі свого місця міг бачити текст під заголовком.

// 5128
//The look of shock on Professor Quirrell’s face was a work of art almost on par
//with the newspaper itself.
Його приголомшене обличчя було витвором мистецтва, не гіршим від
самої статті.

// 5129
//“Don’t worry,” said Harry cheerfully, “it’s all fake.”
-- Не хвилюйтеся, -- бадьоро сказав Гаррі, -- це все липа.

// 5130
//From elsewhere in the store, he heard the shopkeeper gasp. There was the sound
//of a stack of books falling over.
Десь у книгарні зойкнув крамар і з гучним шумом перекинувся стос книжок.

// 5131
//“Mr. Potter…” Professor Quirrell said slowly, “are you __sure__ of that?”
-- Містере Поттер... -- повільно промовив професор Квірел, -- ви впевнені в
цьому?

// 5132
//“Quite sure. Shall we go?”
-- Доволі впевнений. Ходімо?

// 5133
//Professor Quirrell nodded, looking rather abstracted, and Harry folded the
//newspaper back up, and followed him out of the door.
Професор Квірел неуважливо кивнув. Гаррі згорнув газету й вийшов
слідом за ним.

// 5134
//For some reason Harry didn’t seem to be hearing any street noises now.
До Гарріних вух чомусь не долинав жоден вуличний шум.

// 5135
//They walked in silence for thirty seconds before Professor Quirrell spoke.
//“Miss Skeeter viewed the original proceedings of the restricted Wizengamot
//session.”
Вони йшли мовчки тридцять секунд, доки професор Квірел не заговорив:

-- Міс Скітер перевірила оригінальні записи закритої сесії Чарверсуду.

// 5136
//“Yes.”
-- Так.

// 5137
//“The __original proceedings of the Wizengamot.__”
-- __Оригінальні записи Чарверсуду.__

// 5138
//“Yes.”
-- Так.

// 5139
//“__I__ would have trouble doing that.”
-- __Мені__ було б складно таке провернути.

// 5140
//“Really?” said Harry. “Because if my suspicions are correct, this was done by a
//Hogwarts student.”
-- Справді? Бо, якщо мої підозри правильні, це зробив учень Гоґвортсу.

// 5141
//“That is beyond impossible,” Professor Quirrell said flatly. “Mr. Potter… I
//regret to say that this young lady expects to marry you.”
-- Це поза межами можливого, -- сухо кинув професор Квірел. -- Містере Поттер...
Мені прикро це казати, але ця юна леді очікує на шлюб із вами.

// 5142
//“But __that__ is improbable,” said Harry. “To quote Douglas Adams, the
//impossible often has a kind of integrity which the merely improbable lacks.”
-- Малоймовірно. Процитуючи Дугласа Адамса, неможливе часто має в собі таку
цілісність, якої бракує просто малоймовірному.

// 5143
//“I see your point,” Professor Quirrell said slowly. “But… no, Mr. Potter. It
//may be impossible, but I can __imagine__ tampering with the Wizengamot
//proceedings. It is __unimaginable__ that the Grand Manager of Gringotts
//should affix the seal of his office in witness to a false betrothal contract,
//and Miss Skeeter personally verified that seal.”
-- Розумію, -- повільно вимовив професор Квірел. -- Однак... ні, містере Поттер.
Нехай це й неможливо, але підроблення записів Чарверсуду я ще здатен уявити. Та аж ніяк не факт, що
верховний керівник "`Ґрінґотсу`" засвідчив своєю печаткою фальшиву угоду
про заручини -- а міс Скітер особисто її
перевірила.

// 5144
//“Indeed,” said Harry, “you would expect the Grand Manager of Gringotts to get
//involved with that much money changing hands. It seems Mr. Weasley was greatly
//in debt, and so demanded an additional payment of ten thousand Galleons -”
-- Авжеж, -- відповів Гаррі, -- доволі очікувано, що стільки грошей не могло
перейти з рук у руки без верховного керівника "`Ґрінґотсу`". Скидається на те, що містер
Візлі був у боргах і вимагав доплатити десять тисяч ґалеонів...

// 5145
//“__Ten thousand__ Galleons for a __Weasley?__ You could buy the
//daughter of a Noble House for that!”
-- Десять тисяч ґалеонів за __Візлі__? Та за такі гроші можна купити доньку
шляхетного роду!

// 5146
//“Excuse me,” Harry said. “I really have to ask at this point, do people
//actually do that sort of thing around here -”
-- Перепрошую, але я таки мушу запитати. Люди
справді тут таке роблять?

// 5147
//“Rarely,” said Professor Quirrell, with a frown on his face. “And not at all, I
//suspect, since the Dark Lord departed. I suppose that according to the
//newspaper, your father just paid it?”
-- Зрідка, -- професор Квірел насупив брови. -- А після того як
нас покинув Темний Лорд, підозрюю, що й взагалі припинили. Припускаю, газета стверджує, що ваш батько просто заплатив?

// 5148
//“He didn’t have any choice,” said Harry. “Not if he wanted to fulfill the
//conditions of the prophecy.”
-- Він не мав вибору, якщо хотів виконати умови
пророцтва.

// 5149
//“__Give me that,__” said Professor Quirrell, and the newspaper leaped out
//of Harry’s hand so fast that he got a paper cut.
-- __Віддайте мені це__, -- звелів професор Квірел.

Газета вистрибнула з Гарріних рук
так швидко, що аж порізала йому палець.
// 5150
//Harry automatically put the finger in his mouth to suck on, feeling rather
//shocked, and turned to remonstrate with Professor Quirrell -
Він автоматично поклав його до рота й почав смоктати, вкрай
здивовано обернувшись, щоб обуритися професором Квірелом...

// 5151
//Professor Quirrell had stopped short in the middle of the street, and his eyes
//were flickering rapidly back and forth as an invisible force held the newspaper
//suspended before him.
Той стовбичив посеред вулиці. Його очі бігали туди-сюди газетою,
що її тримала перед ним невидима сила.

// 5152
//Harry watched, gaping in open awe, as the newspaper opened to reveal pages two
//and three. And not much long after, four and five. It was like the man had cast
//off a pretense of mortality.
Гаррі дивився з роззявленим від благоговіння ротом, як газета розгорнулася,
демонструючи другу й третю сторінки. Зовсім незабаром -- четверту й пʼяту. Схоже,
що цей чоловік більше не намагався прикидатися простим смертним.

// 5153
//And after a troublingly short time, the paper neatly folded itself up again.
//Professor Quirrell plucked it from the air and tossed it to Harry, who caught
//it in sheer reflex; and then Professor Quirrell started walking again, and
//Harry automatically trudged after.
Сплинуло неприємно мало часу, коли газета знову охайно склалася. Професор Квірел
взяв її з повітря й кинув, а Гаррі рефлекторно впіймав. Він
відновив ходу, і Гаррі автоматично поплентався за ним.

// 5154
//“No,” said Professor Quirrell, “that prophecy didn’t sound quite right to me
//either.”
-- Ні, -- заявив професор Квірел, -- мені теж це пророцтво не здається
правильним.

// 5155
//Harry nodded, still stunned.
Гаррі кивнув, досі приголомшений.

// 5156
//“The centaurs could have been put under an __Imperius__,” Professor
//Quirrell said, frowning, “__that__ seems understandable. What magic can
//make, magic can corrupt, and it is not unthinkable that the Great Seal of
//Gringotts could be twisted to another’s hand. The Unspeakable could have been
//impersonated with Polyjuice, likewise the Bavarian seer. And with
//__enough__ effort it might be possible to tamper with the proceedings of
//the Wizengamot. Do you have any idea how that was done?”
-- Кентаврів могли заклясти "`Імперіусом`", -- похмуро припустив
професор Квірел, -- __це__ ще можна зрозуміти. Що магія здатна створити, те магія
здатна й зіпсувати, і це не зовсім немислимо, щоб велика печатка "`Ґрінґотсу`"
потрапила не в ті руки. Невимовців міг зіграти хтось за допомогою
багатозільної настійки. Як і баварійську провидицю. І якщо докласти
__достатньо__ зусиль, то підробити записи Чарверсуду можливо. Ви
знаєте хоч щось про те, як це було зроблено?

// 5157
//“I do not have one single plausible hypothesis,” said Harry. “I do know it was
//done on a total budget of forty Galleons.”
-- Не маю жодної правдоподібної гіпотези. Знаю тільки, що
загальниий бюджет не перевищував сорока ґалеонів.

// 5158
//Professor Quirrell stopped short and whirled on Harry. His expression was now
//completely incredulous. “Forty Galleons will pay a competent ward-breaker to
//open a path into a home you wish to burglarize! Forty __thousand__
//Galleons __might__ pay a team of the greatest professional criminals in
//the world to tamper with the proceedings of the Wizengamot!”
Професор Квірел різко зупинився й, крутнувшись на місці, обернувся до Гаррі.
Його обличчя виражало цілковиту недовіру.

-- За сорок ґалеонів ви наймете компетентного зламувача захисних чарів, що
допоможе увійти до будинку, який ви бажаєте пограбувати! Сорок __тисяч__ ґалеонів,
__можливо__, вистачить, щоб заплатити команді найвидатніших професійних злочинців у світі
за підроблення записів Чарверсуду!

// 5159
//Harry shrugged helplessly. “I’ll remember that the next time I want to save
//thirty-nine thousand, nine hundred and sixty Galleons by finding the right
//contractor.”
Гаррі безпорадно знизав плечима:

-- Матиму на увазі наступного разу, коли захочу зекономити тридцять девʼять тисяч
девʼятсот шістдесят ґалеонів, просто вибравши правильного підрядника.

// 5160
//“I do not say this often,” said Professor Quirrell. “I am impressed.”
-- Я нечасто таке кажу, -- виголосив професор Квірел. -- Я вражений.

// 5161
//“Likewise,” said Harry.
-- Я теж, -- підтакнув Гаррі.

// 5162
//“And who is this incredible Hogwarts student?”
-- І хто ж цей дивовижний учень Гоґвортсу?

// 5163
//“I’m afraid I couldn’t say.”
-- Боюся, я не можу сказати.

// 5164
//Somewhat to Harry’s surprise, Professor Quirrell made no objection to this.
На деяке Гарріне здивування, професор Квірел більше нічого не розпитував.

// 5165
//They walked in the direction of the Gringotts building, thinking, for they were
//neither of them the sort of person who would give up on the problem without
//considering it for at least five minutes.
Вони йшли в напрямку "`Ґрінґотсу`", розмірковуючи. Обидва
обовʼязково розглядали завдання принаймні пʼять хвилин, перш ніж визнати свою
поразку.

// 5166
//“I have a feeling,” Harry said finally, “that we’re coming at this from the
//wrong angle. There’s a tale I once heard about some students who came into a
//physics class, and the teacher showed them a large metal plate near a fire. She
//ordered them to feel the metal plate, and they felt that the metal nearer the
//fire was cooler, and the metal further away was warmer. And she said, write
//down your guess for why this happens. So some students wrote down ‘because of
//how the metal conducts heat’, and some students wrote down ‘because of how the
//air moves’, and no one said ‘this just seems impossible’, and the real answer
//was that before the students came into the room, the teacher turned the plate
//around.”
-- Мені здається, -- нарешті порушив мовчанку Гаррі, -- що ми дивимося на ситуацію не з того боку.
Я якось чув історію, як учні прийшли в кабінет фізики,
а вчителька показала їм велику металеву пластину поруч із вогнем і
попросила обстежити її. Учні виявили, що ближча до
полумʼя сторона була холодною, а дальша -- теплою. Вона звеліла їм записати свої здогади
щодо того, чому так відбувається. І багато хто написав, мовляв, що це через теплопровідність
металу, інші -- що через рух повітря. Однак ніхто не висловив думку: "`Це
здається просто неможливим`". А справжня відповідь полягала в тому, що вчителька
перевернула пластину ще перед приходом учнів.

// 5167
//“Interesting,” said Professor Quirrell. “That does sound similar. Is there a
//moral?”
-- Цікаво. Звучить схоже. Ця історія має якусь мораль?

// 5168
//“That your strength as a rationalist is your ability to be more confused by
//fiction than by reality,” said Harry. “If you’re equally good at explaining any
//outcome, you have zero knowledge. The students thought they could use words
//like ‘because of heat conduction’ to explain anything, even a metal plate being
//cooler on the side nearer the fire. So they didn’t notice how confused they
//were, and that meant they couldn’t be more confused by falsehood than by truth.
//If you tell me that the centaurs were under the __Imperius__ Curse, I
//still have the feeling of something being not quite right. I notice that I’m
//still confused even after hearing your explanation.”
// hedrok: копія "strength as a rationalist ... than by reality" 031:6488
-- Що сила раціоналіста полягає в здатності більше пантеличитися через оману, ніж через
дійсність. Якщо ви однаково добре пояснюєте будь-який результат, то ви
не знаєте нічого. Учні думали, що словами на кшталт
"`теплопровідність`" можна пояснити геть усе, навіть чому металева
пластина холодніша біля вогню. Тобто вони не усвідомили свого
спантеличення, а це означало, що обман їх дивував не більше, ніж правда.
Коли ви говорите про заклятих "`Імперіусом`" кентаврів, мені однаково
здається, що щось тут не так. Я відчуваю, що все ще спантеличений,
навіть почувши це пояснення.

// 5169
//“Hm,” said Professor Quirrell.
-- Гм, -- озвався професор Квірел.

// 5170
//They walked on further.
Вони йшли далі.

// 5171
//“I don’t suppose,” said Harry, “that it’s possible to __actually__ swap
//people into alternate universes? Like, this isn’t our own Rita Skeeter, or they
//temporarily sent her somewhere else?”
-- Припускаю, -- промовив Гаррі, -- що замінювати людей
їхніми копіями з альтернативних всесвітів неможливо? Ну, ніби це не наша власна Ріта
Скітер, яку тимчасово відправили деінде?

// 5172
//“If __that__ was possible,” Professor Quirrell said, his voice rather dry,
//“would I still be __here?__”
-- Якби таке було можливим, -- доволі сухо відповів професор Квірел, -- хіба б
я був досі тут?

// 5173
//And just as they were almost to the huge white front of the Gringotts building,
//Professor Quirrell said:
Вони майже наблизилися до величезного білого фасаду "`Ґрінґотсу`", коли
професор Квірел сказав:

// 5174
//“Ah. Of __course.__ I see it now. Let me guess, the Weasley twins?”
-- А-а. __Аякже__. Тепер я розумію. Дайте вгадаю, близнюки Візлі?

// 5175
//“__What?__” said Harry, his voice going up another octave in pitch.
//”__How?__”
-- __Що?__ -- Гаррін голос аж повищав на октаву. -- __Як?__

// 5176
//“I’m afraid I couldn’t say.”
-- Боюся, я не можу сказати.

// 5177
//“…That is __not__ fair.”
-- Це нечесно.

// 5178
//“I think it is extremely fair,” said Professor Quirrell, and they entered
//through the bronze doors.
-- А я вважаю, що це надзвичайно чесно, -- зазначив професор Квірел.

Вони пройшли крізь бронзові двері.

***

// 5179
//The time was just before noon, and Harry and Professor Quirrell were seated at
//the foot and head of a wide, long, flat table, in a sumptuously appointed
//private room with thoroughly cushioned couches and chairs along the walls, and
//soft curtains hanging everywhere.
Майже опівдні професор Квірел і Гаррі сиділи за протилежними кінцями
довгого й широкого стола в розкішно вмебльованій приватній кімнаті.
Уздовж стін там розмістилися закладені подушками диванчики й стільці,
повсюди висіли мʼякі гардини.

// 5180
//They were about to eat lunch in Mary’s Place, which Professor Quirrell had said
//was known to him as one of the best restaurants in Diagon Alley, especially for
//- his voice had dropped meaningfully - __certain purposes.__
Вони збиралися пообідати в закладі "`У Мері`", що його професор
Квірел описав як один із найкращих ресторанів алеї Діаґон. Особливо для "`деяких цілей`", додав він,
по-змовницьки стишивши голос.

// 5181
//It was the nicest restaurant that Harry had ever been in, and it was really
//eating away at Harry that Professor Quirrell was treating __him__ to the
//meal.
Ресторан виявився найприємнішим з усіх, у яких бував Гаррі, і він почувався страшенно незручно,
що професор Квірел пригощає його обідом.

// 5182
//The first part of the mission, to find an Occlumency instructor, had been a
//success. Professor Quirrell, smiling evilly, had told Griphook to recommend the
//best he knew, and not worry about the expense, since Dumbledore was paying it;
//and the goblin had smiled in return. There might have been a certain amount of
//smiling on Harry’s part as well.
Перша частина їхньої місії -- пошуки інструктора з блокології -- завершилася
успішно. Професор Квірел, єхидно посміхнувшись, попрохав був Ґрипхука порекомендувати
найкращого з йому відомих -- і не зважати на витрати, адже платить Дамблдор. Ґоблін
посміхнувся у відповідь. Можливо, і Гаррі не стримав посмішки.

// 5183
//The second part of the plan had been a complete failure.
А ось друга частина плану завершилася повною невдачею.

// 5184
//Harry was not allowed to take money out of his vault without Headmaster
//Dumbledore or some other school official present, and Professor Quirrell had
//not been given the vault key. Harry’s Muggle parents could not authorize it
//because they were Muggles, and Muggles had around the same legal standing as
//children or kittens: they were cute, so if you tortured them in public you
//could get arrested, but they weren’t __people__. Some reluctant provision
//had been made for recognizing the parents of Muggleborns as human in a limited
//sense, but Harry’s adoptive parents did not fall into that legal category.
Гаррі не дозволялося брати гроші зі свого сховища без присутности директора
Дамблдора чи іншого представника школи, а професорові Квірелу ключа не
надали. Гарріні маґлівські батьки такими повноваженнями не володіли, адже були
маґлами -- тобто прав мали приблизно стільки ж, скільки діти чи
кошенята: милі створіння, яких не можна прилюдно катувати, інакше заарештують,
а втім, вони __не люди__. Деякі неохочі винятки було зроблено для
батьків маґлородців, які в обмеженому сенсі людьми визнавалися, проте
назва{stress}ні мама й тато Гаррі до цієї юридичної категорії не належали.

// 5185
//It seemed that Harry was effectively an orphan in the eyes of the wizarding
//world. As such, the Headmaster of Hogwarts, or his designees __within__
//the school system, were Harry’s guardians until he graduated. Harry
//__could__ breathe without Dumbledore’s permission, but only so long as the
//Headmaster did not specifically prohibit it.
Скидалося на те, що чаклунський світ розглядав його фактично як сироту.
А це значило, що до випуску з Гоґвортсу він перебував під опікою директора чи його представників зі шкільної системи.
Гаррі міг дихати без
дозволу Дамблдора, але лише доки той окремо цього не заборонить.

// 5186
//Harry had then asked if he could simply __tell__ Griphook how to diversify
//his investments beyond stacks of gold coins sitting in his vault.
Гаррі поцікавився був, чи може він просто пояснити Ґрипхукові, як
диверсифікувати свої вклади, щоб ті не лежали просто купами золота в його сховищі.

// 5187
//Griphook had stared blankly and asked what ‘diversify’ meant.
Ґрипхук нерозуміюче втупився в нього й запитав, що значить
"`диверсифікувати`".

// 5188
//Banks, it seemed, did not make investments. Banks stored your gold coins in
//secure vaults for an annual fee.
Скидалося на те, що банки нічого не інвестували. Банки зберігали ваші золоті монети в
безпечних сховищах за річну платню.

// 5189
//The wizarding world did not have a concept of stock. Or equity. Or
//corporations. Businesses were run by families out of their personal vaults.
У чаклунському світі не існувало поняття ринку. Чи акціонерного товариства. Чи
корпорації. Лише родинні підприємства, що фінансувалися з коштів у особистих
сховищах.

// 5190
//Loans were made by rich people, not banks. Though Gringotts would witness the
//contract, for a fee, and enforce its collection, for a much larger fee.
Позичали гроші багатії -- не банки. Хоча "`Ґрінґотс`" міг засвідчити угоду (за
платню) і сприяти дотриманню її умов (за куди більшу платню).

// 5191
//Good rich people let their friends borrow money and pay it back whenever.
//__Bad__ rich people charged you __interest.__
Добрі багатії позичали гроші друзям і не квапили з поверненням боргу.
Погані вимагали відсоток.

// 5192
//There was no secondary market in loans.
Вторинного ринку позик не існувало.

// 5193
//Evil rich people charged you annual interest rates of at least 20//.
Злі багатії вимагали принаймні 20% на рік.

// 5194
//Harry had stood up, turned away, and rested his head against the wall.
Гаррі підвівся, відвернувся й поклав голову на стіну.
// 5195
//Harry had asked if he needed the Headmaster’s permission before he could start
//a bank.
Відтак поцікавився, чи потрібен дозвіл директора, щоб створити власний банк.

// 5196
//Professor Quirrell had interrupted at this point, saying that it was time for
//lunch, and swiftly conducted a fuming Harry out of the bronze doors of
//Gringotts, through Diagon Alley, and to a fine restaurant called Mary’s Place,
//where a room had been reserved for them. The owner had looked shocked at seeing
//Professor Quirrell accompanied by Harry Potter, but had conducted them to the
//room without complaint.
// Аліна: припускаю, що owner ресторану "У Мері" все ж таки жінка Мері, тому "власниця"
На цьому професор Квірел його обірвав -- їм, мовляв, уже час обідати -- і швидко потягнув
розгніваного Гаррі через бронзові двері до алеї Діаґон і приємного ресторану
"`У Мері`", де на них чекала заброньована кімната. Власниця здавалася
приголомшеною, побачивши професора Квірела в товаристві Гаррі Поттера, проте провела їх до кімнати
без зайвого слова.

// 5197
//And Professor Quirrell had quite deliberately announced that he would pay the
//bill, seeming to rather enjoy the look on Harry’s face.
Професор Квірел нарочито проголосив, що оплатить рахунок, явно
насолоджуючись виразом на Гарріному обличчі.

// 5198
//“No,” said Professor Quirrell to the waitress, “we will not require menus. I
//will have the daily special accompanied by a bottle of Chianti, and Mr. Potter
//will have the Diracawl soup to start, followed by a plate of Roopo balls, and
//treacle pudding for dessert.”
// hedrok @ Roopo balls - babylon 5, також у 88:15929
// hedrok Diracawl: у "Фантастичних звірах" є "Diricawl", перекладений як
// "діріколь". У 028:5733 Diricawl, у 048:8850 та 048:8862 знову "Diracawl".
// Припускаючи, що Diracawl - просто одрук, усюди перекладаємо однаково
// "діріколь".
-- Ні, -- сказав він офіціантці, -- меню нам не потрібне. Я буду
сьогоднішню фірмову страву з пляшкою кʼянті, а містер Поттер -- діріколевий
суп на перше, тарелю кульок рупу на друге й мелясовий пудинг на десерт.

// 5199
//The waitress, clad in robes that still looked severe and formal while being
//rather shorter than usual, bowed respectfully and departed, shutting the door
//behind her.
Офіціантка, вбрана хоч і в стриману й офіційну, однак куди
коротшу за звичайну мантію, з повагою вклонилася й вийшла, зачинивши за собою двері.

// 5200
//Professor Quirrell waved a hand in the direction of the door, and a bolt slid
//shut. “Note the bolt on the inside. This room, Mr. Potter, is known as Mary’s
//Room. It happens to be proof against all scrying, and I do mean __all;__
//Dumbledore himself could detect nothing of what happens here. Mary’s Room is
//used by two kinds of people. The first sort are engaged in illicit dalliances.
//And the second sort lead interesting lives.”
Професор Квірел махнув рукою в напрямку дверей, і клямка засунулася.

// hedrok: @ scrying
-- Зверніть увагу на клямку зсередини. Це місце, містере Поттер, відоме як
"`Кімната Мері`". Її захищено від усіх магічних
методів підглядання -- і я маю на увазі __всіх__. Сам Дамблдор не в змозі дізнатися,
що тут відбувається. "`Кімнату Мері`" використовують два типи людей. Перші
підтримують недозволені стосунки. А другі мають цікаве життя.

// 5201
//“__Really,__” said Harry.
-- Он як, -- сказав Гаррі.

// 5202
//Professor Quirrell nodded.
Професор Квірел кивнув.

// 5203
//Harry’s lips were parted in anticipation. “It would be a waste to just sit here
//and eat lunch, then, without doing anything special.”
// hedrok: @ хтось сформулюйте це нормально :)
Гаррі вичікувально привідкрив рота:

-- Яке ж це, мабуть, марнотратсво -- просто сидіти тут, обідати й не робити нічого особливого.

// 5204
//Professor Quirrell grinned, then took out his wand and flicked it in the
//direction of the door. “Of course,” he said, “people who lead interesting lives
//take precautions more __thorough__ than the dalliers. I have just sealed
//us in. Nothing will now pass in or out of this room - through the crack under
//the door, for example. And…”
Професор Квірел широко всміхнувся й дістав паличку, вказавши нею на двері:

-- Звісно, люди, що ведуть цікаве життя, вживають ретельніших
застережних заходів, ніж ті, що крутять романи. Я щойно нас запечатав. Ніщо тепер не
проникне в кімнату чи з неї, наприклад, крізь щілину під дверима. І...

// 5205
//Professor Quirrell then spoke no fewer than four different Charms, none of
//which Harry recognized.
Він вимовив щонайменше чотири різні закляття, жодне з яких
Гаррі не впізнав.

// 5206
//“Even that does not __really__ suffice,” said Professor Quirrell. “If we
//were doing anything of truly great import, it would be necessary to perform
//another twenty-three checks besides those. If, say, Rita Skeeter knew or
//guessed that we would come here, it is possible that she could be in this room
//wearing the true Cloak of Invisibility. Or she could be an Animagus with a tiny
//form, perhaps. There are tests to rule out such rare possibilities, but to
//perform all of them would be arduous. Still, I wonder if I should do them
//anyway, just so as not to teach you bad habits?” And Professor Quirrell tapped
//a finger on his cheek, looking abstracted.
-- Взагалі, навіть цього недостатньо, -- зазначив професор Квірел. -- Якби
ми робили щось по-справжньому важливе, то обовʼязково мали б застосувати ще
двадцять три перевірки. Якби, скажімо, Ріта Скітер знала чи здогадалася
про наш візит сюди, теоретично вона могла б зачаїтися десь тут під
істинним Плащем невидимости. Чи в якійсь крихітній
формі, якби була анімагом. Існують способи перевірити навіть такі рідкісні можливості, проте вдаватися до
них усіх -- це такий клопіт. А втім, я вагаюся, чи все ж не виконати їх,
просто щоб не подавати вам поганого прикладу?

Він почав постукувати пальцем по щоці, ніби замислився.

// 5207
//“It’s fine,” Harry said, “I understand, and I’ll remember.” Though he was a
//little disappointed that they weren’t doing anything of truly great import.
-- Усе гаразд, -- запевнив Гаррі, -- я розумію і запамʼятаю.

Хоч і дещо розчарувався, що вони не збиралися робити нічого по-справжньому
важливого.

// 5208
//“Very well,” Professor Quirrell said. He leaned back in his chair, smiling
//broadly. “You wrought quite well today, Mr. Potter. The basic notion was yours,
//I’m sure, even if you delegated the execution. I don’t think we’ll be hearing
//much more from Rita Skeeter after this. Lucius Malfoy will not be pleased with
//her failure. If she’s smart, she’ll flee the country the instant she realizes
//she’s been fooled.”
-- Дуже добре, -- професор Квірел сперся на спинку крісла й широко
всміхнувся. -- Ви як слід сьогодні попрацювали, містере Поттер. Впевнений, що
основна ідея належала вам, навіть якщо виконання ви доручили комусь іншому. Не думаю,
що ми колись ще почуємо про Ріту Скітер. Луціус Мелфой не зрадіє її
невдачі. Якщо їй вистачить клепки, то вона втече з країни, щойно збагне, що її обдурили.

// 5209
//A sinking sensation began to dawn in Harry’s stomach. “Lucius was behind Rita
//Skeeter…?”
Гаррі стало зле:

-- За Рітою Скітер стояв Луціус?..

// 5210
//“Oh, you didn’t realize that?” said Professor Quirrell.
-- О, а ви не знали? -- запитав професор Квірел.

// 5211
//Harry hadn’t thought about what would happen to Rita Skeeter afterward.
Гаррі не роздумував був, що трапиться з Рітою Скітер опісля.

// 5212
//At all.
Узагалі.

// 5213
//Not in the slightest.
Аніскілечки.

// 5214
//But she would get fired from her job, __of course__ she would be fired,
//she might have children going through Hogwarts for all Harry knew, and now it
//was worse, much worse -
Але ж її звільнять з роботи, ну звісно. У неї цілком можуть
бути діти в Гоґвортсі, а тепер усе стало гірше, набагато гірше...

// 5215
//“Is Lucius going to have her killed?” Harry said in a barely audible voice.
//Somewhere in his head, the Sorting Hat was screaming at him.
-- Луціус її вбʼє? -- ледь чутно промовив Гаррі. Десь у його голові на нього
волав Сортувальний Капелюх.

// 5216
//Professor Quirrell smiled dryly. “If you have not dealt with journalists
//before, take it from me that the world gets a little brighter every time one
//dies.”
Професор Квірел сухо посміхнувся:

-- Якщо вам раніше не доводилося мати справи з журналістами, повірте мені на слово:
світ трохи яскравішає щоразу, як хтось із них помирає.

// 5217
//Harry jumped out of his chair with a convulsive movement, he had to find Rita
//Skeeter and warn her before it was too late -
Гаррі конвульсивно підстрибнув зі свого стільця. Він мав знайти Ріту
Скітер і попередити її, доки не стало запізно...

// 5218
//“__Sit down__,” Professor Quirrell said sharply. “__No__, Lucius
//won’t kill her. But Lucius makes life __extremely__ unpleasant for those
//who serve him ill. Miss Skeeter will flee and start her life over with a new
//name. __Sit down,__ Mr. Potter; there is nothing you can do at this point,
//and you have a lesson to learn.”
-- __Сядьте__, -- різко звелів професор Квірел. -- __Ні__, Луціус її не вбʼє.
Втім, він уміє __добряче__ псувати життя своїм недостатньо старанним
служкам. Міс Скітер втече й почне життя спочатку під новим імʼям.
Сядьте, містере Поттер. Наразі ви нічого не можете вдіяти й мусите дечого
навчитися.

// 5219
//Harry sat down, slowly. There was a disappointed, annoyed look on Professor
//Quirrell’s face that was doing more to stop him than the words.
Гаррі повільно сів. Розчароване й роздратоване обличчя професора Квірела
зупинило його успішніше, ніж слова.

// 5220
//“There are times,” Professor Quirrell said, his voice cutting, “when I worry
//that your brilliant Slytherin mind is simply wasted on you. Repeat after me.
//Rita Skeeter was a vile, disgusting woman.”
-- Подеколи, -- різко зауважив професор Квірел, -- я непокоюся, чи не змарновано
на вас ваші геніальні слизеринські мізки. Повторюйте за мною. Ріта Скітер була
мерзенною, огидною жінкою.

// 5221
//“Rita Skeeter was a vile, disgusting woman,” Harry said. He wasn’t comfortable
//saying it, but there didn’t seem to be any other possible actions, none at all.
-- Ріта Скітер була мерзенною, огидною жінкою, -- послухався Гаррі. Йому було
незручно це казати, проте інших можливих дій не існувало -- жодної.

// 5222
//“Rita Skeeter tried to destroy my reputation, but I executed an ingenious plan
//and destroyed __her__ reputation first.”
-- Ріта Скітер намагалася знищити мою репутацію, проте я втілив геніальний план
і першим знищив __її__ репутацію.

// 5223
//“Rita Skeeter challenged me. She lost the game, and I won.”
-- Ріта Скітер кинула мені виклик. Вона програла, а я виграв.

// 5224
//“Rita Skeeter was an obstacle to my future plans. I had no choice but to deal
//with her if I wanted those plans to succeed.”
-- Ріта Скітер була перешкодою для моїх майбутніх планів. І я не мав вибору,
крім як розібратися з нею, якщо хочу втілити свої плани.

// 5225
//“Rita Skeeter was my enemy.”
-- Ріта Скітер була моїм ворогом.

// 5226
//“I cannot possibly get anything done in life if I am not willing to defeat my
//enemies.”
-- Неможливо досягти чогось у житті, якщо не мати можливости перемагати
ворогів.

// 5227
//“I have defeated one of my enemies today.”
-- Я сьогодні переміг одного зі своїх ворогів.

// 5228
//“I am a good boy.”
-- Я гарний хлопчик.

// 5229
//“I deserve a special reward.”
-- Я заслуговую на особливу винагороду.

// 5230
//“Ah,” said Professor Quirrell, who had been grinning a benevolent smile for the
//last few lines, “I see I have succeeded in catching your attention.”
-- А-а, -- протягнув професор Квірел, що великодушно посміхався протягом останніх
кількох фраз, -- бачу, мені вдалося привернути вашу увагу.

// 5231
//That was true. And while Harry felt like he was being railroaded into something
//- no, that wasn’t just a feeling, he __had__ been railroaded - he couldn’t
//deny that saying those things, and seeing Professor Quirrell’s smile,
//__did__ make him feel better.
А й правда. Гаррі хоч і почувався, ніби йому щось навʼязали -- ні,
не просто почувався, думку йому таки навʼязали, -- він не міг заперечити, що
після цих слів і усмішки професора Квірела йому
полегшало на душі.

// 5232
//Professor Quirrell reached into his robes, the gesture slow and deliberately
//significant, and drew forth…
Професор Квірел повільно й нарочито значуще засунув руку в мантію і дістав...
// 5233
//…a __book__.
книжку.

// 5234
//It was different from any book Harry had ever seen, the edges and corners
//visibly misshapen; __rough-hewn__ was the phrase that came to mind, like
//it had been hacked out of a book mine.
Гаррі ще не бачив жодної книжки, схожої на цю: краї та кути видавалися
неправильними, через що в мозку спливало словосполучення "`грубо обтесаний`", ніби
її видобули з якоїсь книжкової шахти.

// 5235
//“What is it?” breathed Harry.
-- Що це? -- видихнув Гаррі.

// 5236
//“A diary,” said Professor Quirrell.
-- Щоденник.

// 5237
//“Whose?”
-- Чий?

// 5238
//“That of a famous person.” Professor Quirrell was smiling broadly.
-- Однієї відомої людини, -- професор Квірел широко всміхався.

// 5239
//“Okay…”
-- Добренько...

// 5240
//Professor Quirrell’s expression became more serious. “Mr. Potter, one of the
//requisites for becoming a powerful wizard is an excellent memory. The key to a
//puzzle is often something you read twenty years ago in an old scroll, or a
//peculiar ring you saw on the finger of a man you met only once. I mention this
//to explain how I managed to remember this item, and the placard attached to it,
//after meeting you a good deal later. You see, Mr. Potter, over the course of my
//life, I have viewed a number of private collections held by individuals who
//are, perhaps, not quite deserving of all that they have -”
// hedrok: копія в 056:9907 (one of the ... met only once)
Професор Квірел посерйознішав:

-- Містере Поттер, щоб стати могутнім чарівником, необхідно мати бездоганну
памʼять. Щось прочитане двадцять років тому в
старому манускрипті чи ексцентричний перстень на пальці
людини, з якою ви зустрічалися лиш раз, часто можуть виявитися ключем до загадки. Я розповідаю це, щоб пояснити, як мені
вдалося пригадати цю річ і прикріплений до неї ярлик уже після того, як значно пізніше я
зустрів вас. Розумієте, містере Поттер, протягом свого життя я
проглянув чимало приватних колекцій особистостей, що, гадаю, не
зовсім заслуговували на свою власність...

// 5241
//“You __stole__ it?” Harry said incredulously.
-- Ви її __вкрали__? -- недовірливо уточнив Гаррі.

// 5242
//“That is correct,” said Professor Quirrell. “Very recently, in fact. I think
//you will appreciate this particular item much more than the vile little man who
//held it for no other purpose than impressing his equally vile friends with its
//rarity.”
-- Саме так. Власне, зовсім нещодавно. На мою думку, ви оціните цю річ значно
краще, ніж паскудний чоловічок, який зберігав її, лише щоб вихвалятися її раритетністю
перед своїми не менш паскудними друзями.

// 5243
//Harry was simply gaping now.
Гаррі просто роззявив рота.

// 5244
//“But if you feel that my actions were incorrect, Mr. Potter, I suppose you
//needn’t accept your special present. Though of course I shan’t go to the
//trouble of stealing it __back__. So which is it to be?”
-- Та якщо ви не схвалюєте моїх дій, містере Поттер, то, гадаю, ви не
зобовʼязані приймати цей особливий подарунок. Хоча, звісно, я не завдаватиму собі клопотів,
щоб викрадати її назад. То як воно буде?

// 5245
//Professor Quirrell tossed the book from one hand to another, causing Harry to
//reach out involuntarily with a look of dismay.
Професор Квірел перекидував книжку з руки в руку, через що Гаррі мимоволі стривожено
потягнувся до неї.

// 5246
//“Oh,” said Professor Quirrell, “don’t worry about a little rough handling. You
//could toss this diary in a fireplace and it would emerge unscathed. In any
//case, I await your decision.”
-- О, не переймайтеся деяким неакуратним користуванням, -- заспокоїв його професор Квірел. --
Цей щоденник можна кинути у вогнище -- він і тоді залишиться неушкодженим. Хай там як,
я чекаю на ваше рішення.

// 5247
//Professor Quirrell casually threw the book up into the air and caught it again,
//grinning.
Професор Квірел, посміхаючись, мимохідь підкинув книжку в повітря й знову
впіймав її.

// 5248
//__No,__ said Gryffindor and Hufflepuff.
"`Ні`", -- заперечили ґрифіндорець і гафелпафець.

// 5249
//__Yes__, said Ravenclaw. __What part of the word ‘book’ did you two
//not understand?__
"`Так, -- наполіг рейвенкловець. -- Яку частину слова '`книжка`' ви двоє
не зрозуміли?`".

// 5250
//__The theft part,__ said Hufflepuff.
"`Частину про крадіжку`", -- нагадав гафелпафець.

// 5251
//__Oh, come on,__ said Ravenclaw, __you can’t seriously ask us to say
//no and spend the rest of our life wondering what it was.__
"`Та облиш, -- відмахнувся рейвенкловець, -- ти ж не пропонуєш
відмовитися й решту життя роздумувати, що ж це було`".

// 5252
//__It sounds like a net positive from a utilitarian standpoint,__ said
//Slytherin. __Think of it as an economic transaction which generates gains
//from trade, only without the trade part.____ Plus, __we __didn’t steal it and
//it won’t help anyone to have Professor Quirrell keep it.__
"`Здається, що з утилітарного погляду підсумковий результат позитивний, -- втрутився
слизеринець. -- Сприймайте це як економічну транзакцію, що призводить до вигоди
від торгівлі, тільки без торгівлі. Крім того, __ми__ нічого не крали й ніхто не
виграє, якщо професор Квірел залишить книжку собі`".

// 5253
//__He’s trying to turn you Dark!__ shrieked Gryffindor, and Hufflepuff
//nodded firmly.
"`Він намагається перетягти тебе на Темну сторону!`" -- заверещав ґрифіндорець, а
гафелпафець впевнено кивнув.

// 5254
//__Don’t be a naive little boy,__ said Slytherin, __he’s trying to
//teach you Slytherin.__
"`Не будь наївним маленьким хлопчиком, -- сказав слизеринець, -- він намагається
навчити тебе бути слизеринцем`".

// 5255
//__Yeah,__ said Ravenclaw. __Whoever owned the book originally was
//probably a Death Eater or something. It belongs with us.__
"`Ага, -- підхопив рейвенкловець. -- Хай хто володів цією книжкою, це напевно був
смертежер чи ще хтось такий. Вона належить нам`".

// 5256
//____

// 5257
//Harry’s mouth opened, then halted that way, an agonized look on his face.
Гаррі роззявив рота й так і застиг із виразом внутрішньої боротьби на обличчі.

// 5258
//Professor Quirrell seemed to be quite enjoying himself. He had balanced the
//book on its corner, on one finger, and was keeping it upright while humming a
//little tune.
Професор Квірел видавався щиро собою задоволеним. Збалансовуючи рукою книжку,
яку розмістив кутиком на одному пальці, він втримував її вертикально й
мугикав якусь просту мелодію.

// 5259
//There came a knock at the door.
Пролунав стук у двері.

// 5260
//The book vanished back into Professor Quirrell’s robes, and he rose up from his
//chair. Professor Quirrell started to walk over to the door -
Книжка зникла під мантією професора Квірела. Підвівшись зі стільця, він
рушив до дверей,
// 5261
//- and staggered, suddenly lurching into the wall.
як раптом похитнувся й вдарився об стіну.

// 5262
//“It’s all right,” said Professor Quirrell’s voice, which suddenly sounded a lot
//weaker than usual. “Sit down, Mr. Potter, it’s just a dizzy spell. Sit down.”
-- Усе гаразд, -- запевнив професор Квірел набагато слабшим голосом, ніж
зазвичай. -- Сядьте, містере Поттер, це просто запаморочливе закляття. Сядьте.

// 5263
//Harry’s fingers gripped the edge of his chair, uncertain as to what he should
//do, what he __could__ do. Harry couldn’t even get too close to Professor
//Quirrell, not unless he wanted to defy that sense of Doom -
Гаррі стиснув край стільця, не знаючи, що слід зробити, що можна
зробити. Він не міг навіть наблизитися до професора Квірела, якщо не
хотів боротися з цим лиховісним передчуттям.

// 5264
//Professor Quirrell straightened, then, his breathing seeming a bit heavy, and
//opened the door.
Професор Квірел випростався й, дещо важко дихаючи, відчинив двері.

// 5265
//The waitress came in, bearing a platter of food; and as she distributed the
//plates, Professor Quirrell walked slowly back to the table.
Офіціантка ввійшла з тацею їжі. Доки вона роздавала тарілки, професор
Квірел повільно вернувся за стіл.
// 5266
//But by the time the waitress had bowed her way out, Professor Quirrell was
//sitting upright and smiling again.
Та, коли офіціантка вклонилася й пішла, він уже сидів рівно й знову
всміхався.

// 5267
//Still, the brief episode of whatever-it-was had decided Harry. He couldn’t say
//no, not after Professor Quirrell had gone to that much trouble.
А втім, цей короткий епізод -- хай-там-що-це-було -- переконав Гаррі. Він не смів
відмовитися, не після стількох труднощів, яких зазнав був професор Квірел.

// 5268
//“Yes,” Harry said.
-- Добре, -- погодився Гаррі.

// 5269
//Professor Quirrell held up a cautioning finger, then took out his wand again,
//locked the door again, and repeated three of the same Charms from earlier.
Професор Квірел застережливо підняв палець, потім знову дістав паличку,
замкнув двері й повторив три з тих заклять, що звучали раніше.
// 5270
//Then Professor Quirrell took the book back out of his robes and tossed it to
//Harry, who almost dropped it into his soup.
Він дістав книжку з мантії та кинув Гаррі, а той ледь
не впустив її у свій суп.

// 5271
//Harry shot Professor Quirrell a look of helpless indignation. You weren’t
//supposed to __do__ that with books, enchanted or not.
Гаррі зиркнув на нього з безпомічним обуренням. Так не годиться чинити
з книжками, зачарованими чи ні.

// 5272
//Harry opened the book with ingrained, instinctive care. The pages seemed too
//thick, with a texture unlike either Muggle paper or wizarding parchment. And
//the contents were…
Він розгорнув книжку з властивою йому інстинктивною обережністю. Надто товсті аркуші
на дотик не нагадували ані маґлівський папір, ані чаклунський пергамент.
А сторінки були...

// 5273
//…blank?
...порожні?

// 5274
//“Am I supposed to be seeing -”
-- Я маю дивитися на...

// 5275
//“Look nearer the beginning,” said Professor Quirrell, and Harry (again with
//that helpless, ingrained care) turned a block of pages back.
-- Ближче до початку, -- порадив професор Квірел.

Гаррі (знову з природженою обережністю, якої він
не міг уникнути) перегорнув багато сторінок
назад.

// 5276
//The lettering was obviously handwritten, and very hard to read, but Harry
//thought the words might be Latin.
Нотатки явно робилися від руки, і розібрати їх було вкрай складно, проте Гаррі
здалося, що слова можуть бути латинськими.

// 5277
//“What __is__ this?” said Harry.
-- Що це? -- запитав він.

// 5278
//“That,” said Professor Quirrell, “is a record of the magical researches of a
//Muggleborn who never came to Hogwarts. He refused his letter, and conducted his
//own small investigations, which never did get very far without a wand. From the
//description on the placard, I expect that his name bears rather more
//significance to you than to me. That, Harry Potter, is the diary of Roger
//Bacon.”
-- Це, -- відповів професор Квірел, -- записи про магічні досліди маґлородця, що так і не потрапив до Гоґвортсу. Він
знехтував листом і ставив власні невеличкі випробування, однак без палички ніколи
з ними далеко не просунувся. Гадаю, що імʼя на ярлику
матиме для вас більше значення, ніж для мене. Це, Гаррі Поттере, щоденник Роджера Бе{stress}кона.

// 5279
//Harry almost fainted.
Гаррі ледь не знепритомнів.

// 5280
//Nestled up against the wall, where Professor Quirrell had stumbled, glistened
//the crushed remains of a beautiful blue beetle.
На стіні біля того місця, об яке вдарився професор Квірел, виблискували
розчавлені рештки гарного синього жука.
