// 5951
//== Egocentric Bias
== Розділ 29. Егоцентричне упередження

// 5952
//Unfortunately, no one can be told who J. K. Rowling is. You have to see her for
//yourself.
// hedrok: Матриця, переклад 1+1
На жаль, не можна просто пояснити, хто така Дж. К. Ролінґ. Ти повинен побачити
її сам.

// 5953
//Science disclaimers: Luosha points out that the theory of empathy in Ch. 27
//(you use your own brain to simulate others) isn’t quite a known scientific
//fact. The evidence so far points in that direction, but we haven’t analyzed the
//brain circuitry and proven it. Similarly, timeless formulations of quantum
//mechanics (alluded to in Ch. 28) are so elegant that I’d be shocked to find the
//final theory had time in it, but they’re not established yet either.
Наукові попередження: як зазначив Luosha, теорія емпатії з 27-го розділу (мовляв,
для симуляції мозку інших ми використовуємо власний) не є відомим науковим
фактом. Наявні докази вказують на це, проте ми ще не проаналізували
мозкові механізми й не довели цього. А ще безчасові формулювання
квантової механіки (згадані в 28-му розділі) такі елегантні, що я здивуюся,
якщо фінальна теорія міститиме час, проте це також ще не підтверджено.

***

// 5954
//There’d been a sinking feeling in Hermione’s stomach lately, every time she
//heard the other students talking about her and Harry. She’d been in a shower
//stall this morning when she’d overheard a conversation between Morag and Padma
//that had been the last straw piled on top of quite a lot of other straws.
Останнім часом Герміону пересмикувало щоразу, коли вона чула, як інші учні
обговорюють її і Гаррі. І підслухана зранку в ду{stress}ші
розмова Мораґ і Падми
стала останньою краплею в доволі великій цеберці.

// 5955
//She was starting to think that getting involved in a rivalry with Harry Potter
//had been a terrible mistake.
Вона починала думати, що зробила
жахливу помилку, вляпавшись у суперництво з Гаррі Поттером.

// 5956
//If she’d just __stayed away__ from Harry Potter, she could have been
//Hermione Granger, the brightest academic star of Hogwarts, who was earning more
//points for Ravenclaw than anyone. She wouldn’t have been __as__ famous as
//the Boy-Who-Lived, but she would have been famous for __herself__.
Якби вона просто трималася від нього подалі, то могла б залишитися
Герміоною Ґрейнджер, найяскравішою академічною зіркою Гоґвортсу, що заробила для Рейвенклову
більше очок, ніж будь-хто інший. Не такою відомою, як
Хлопчик-Що-Вижив, проте знаною за __свої__ заслуги.

// 5957
//Instead the Boy-Who-Lived had an academic rival, and her name happened to be
//Hermione Granger.
Натомість Хлопчик-Що-Вижив нажив собі суперницю з навчання, і так трапилося, що її звуть
Герміона Ґрейнджер.

// 5958
//And worse, she had gone on a date with him.
Що ще гірше, вона пішла з ним на побачення.

// 5959
//The idea of getting into a Romance with Harry had seemed like an appealing idea
//at first. She’d read books like that, and if there was anyone in Hogwarts who
//was a candidate for the heroine’s love interest it was obviously Harry Potter.
//Bright, funny, famous, sometimes scary…
Спершу думка про роман із Гаррі здавалася їй привабливою. Вона
читала такі книжки, і якщо хтось у Гоґвортсі й був кандидатом на любовне
захоплення героїні, то це, очевидно, Гаррі. Розумний, веселий, відомий, інколи
лячний...

// 5960
//So she’d forced Harry into going on a date with her.
Тож вона змусила Гаррі піти з нею на побачення.

// 5961
//And now __she__ was __his__ love interest.
І тепер це __вона__ стала __його__ любовним захопленням.

// 5962
//Or worse, one of the options on his dinner menu.
Чи ще гірше -- одним із пунктів меню для його вечері.

// 5963
//She’d been in a shower stall that morning and just about to turn on the water,
//when she’d heard giggles coming from outside. And she’d heard Morag talking
//about how that Muggleborn girl probably wouldn’t fight hard enough to win
//against Ginevra Weasley, and Padma speculating that Harry Potter might decide
//he wanted __both__.
Того ранку Герміона була в душовій кабінці й майже ввімкнула воду, як
зовні почулося хихотіння. Вона підслухала слова Мораґ, мовляв, навряд ця дівчина
маґлівського роду докладе достатньо зусиль, щоб перемогти Джіневру Візлі. У відповідь
Падма припустила, що Гаррі Поттер може вирішити, що хоче __обох__.

// 5964
//It was like they didn’t understand that GIRLS had options on their dinner menu
//and BOYS fought over them.
Ніби вони не розуміли, що це ДІВЧАТА вибирають серед пунктів вечірнього меню, а ХЛОПЦІ
борються за них.

// 5965
//But that wasn’t even the part that hurt, really. It was that when she scored 98
//on one of Professor McGonagall’s tests, the news wasn’t that Hermione Granger
//had scored the highest in the class, the news was that Harry Potter’s rival had
//scored seven more points than him.
Та насправді ображало навіть не це. Ображало те, що коли
один із тестів професорки Макґонеґел вона склала на 98 балів, то всі балакали не про Герміону
Ґрейнджер і її найвищу в класі оцінку. Суперниця Гаррі Поттера
здобула на сім балів більше за нього -- ось що стало новиною.

// 5966
//If you got too close to the Boy-Who-Lived, you became part of his story.
Опинившись заблизько до Хлопчика-Що-Вижив, ти стаєш частиною його
історії.
// 5967
//You didn’t get your own.
І не маєш більше власної.

// 5968
//And the thought had come to Hermione that she should just walk away, but that
//would’ve been too sad.
Герміоні якось подумалося, що їй варто просто відступити, та це було б надто
сумно.

// 5969
//But she did want to get __back__ what she’d accidentally given away by
//letting herself become known as Harry’s rival. She wanted to be a separate
//person again instead of Harry Potter’s third leg, was that too much to ask?
Але вона хотіла повернути те, що випадково віддала, взявши на себе звання
Гарріної суперниці. Хотіла знову бути окремою особистістю, а не
його третьою ногою. Невже це так багато?

// 5970
//It was a hard trap to climb out of once you fell in. No matter how high you
//scored in class, even if you did something that deserved a special dinnertime
//announcement, it just meant you were rivaling Harry Potter again.
Важко вибиратися з ями, необачно в неї впавши. Байдуже на оцінки, хоч які високі,
байдуже навіть на досягнення, варті окремого оголошення
під час вечері, -- це означатиме лише, що вона знову кидає виклик Гаррі Поттерові.

// 5971
//But she thought she’d come up with a way.
Але їй здавалося, що вона знайшла вихід.

// 5972
//Something to do that __wouldn’t__ be seen as pushing up on the opposite
//end of Harry Potter’s seesaw.
Дещо, про що ніхто не подумає як про черговий хід проти Гаррі.

// 5973
//It would be hard.
Це буде складно.

// 5974
//It would go against her nature.
Це суперечитиме її природі.

// 5975
//She would have to fight someone very evil.
Їй доведеться боротися з кимось дуже злим.

// 5976
//And she would need to ask someone even __more__ evil for help.
І доведеться попросити допомоги в декого навіть __злішого__.

// 5977
//Hermione raised her hand to knock upon that terrible door.
Герміона підняла руку, щоб постукати в ці жахливі двері.

// 5978
//She hesitated.
Завагалася.

// 5979
//Hermione realized she was being __silly__, and raised her hand a bit
//higher.
Вона вирішила, що поводиться по-дурному, і підвела руку трохи вище.

// 5980
//She tried to knock again.
Ще раз спробувала постукати.

// 5981
//Her hand quite failed to touch the door.
Але рука так і не торкнулася дверей.

// 5982
//And then the door swung open anyway.
Однак ті самі розчахнулися.

// 5983
//“Dear me,” said the spider, sitting in its web. “Was it really that hard to
//lose a single Quirrell point, Miss Granger?”
-- Ой лишенько, -- протягнув павук, що вмостився посеред свого павутиння. -- Невже вам так важко втратити
один-єдиний бал Квірела, міс Ґрейнджер?

// 5984
//Hermione stood there with her hand raised, her cheeks growing pink. It
//__had__ been.
Герміона застигла з піднятою рукою, заливаючись румʼянцем. Так, __важко__.

// 5985
//“Well, Miss Granger, I shall be merciful,” said the evil Professor Quirrell.
//“Consider it already lost. There, I have taken a hard choice from you. Are you
//not grateful?”
-- Ну, міс Ґрейнджер, я змилуюся над вами, -- сказав злий професор Квірел. --
Вважайте, що ви його вже втратили. Ось, я позбавив вас важкого вибору. Ну хіба ви
не вдячні?

// 5986
//“Professor Quirrell,” Hermione managed to say in a voice that squeaked a
//little. “I have a lot of Quirrell points, don’t I?”
-- Професоре Квірел, -- спромоглася пискнути Герміона.
-- У мене ж багато балів Квірела, чи не так?

// 5987
//“You do indeed,” said Professor Quirrell. “Though one less than you had before.
//Terrible, isn’t it? Just think, if I don’t like your reason for coming here,
//you could lose another fifty. Maybe I’d take them away one… by one… by one…”
-- Безсумнівно. Проте вже на один менше. Жахливо, правда? Лише уявіть:
якщо мені не сподобається причина вашого візиту, ви ризикуєте втратити
ще пʼятдесят. Можливо, я зніматиму їх один... за одним... за одним...

// 5988
//Hermione’s cheeks were going even redder. “You’re really evil, did anyone ever
//tell you that?”
Герміона розчервонілася ще сильніше:

-- Ви справді злий, вам це колись казали?

// 5989
//“Miss Granger,” Professor Quirrell said gravely, “it can be dangerous to give
//people compliments like that when they have not been truly earned. The
//recipient might feel bashful and undeserving and want to do something worthy of
//your praise. Now what was it you wanted to talk to me about, Miss Granger?”
-- Міс Ґрейнджер, -- загрозливо промовив професор Квірел, -- небезпечно робити
такі компліменти людям, що наразі їх ще не заслужили. Вони
можуть засоромитися від власної недостойности й вирішити втнути щось гідне
вашої похвали. То про що ви хотіли зі мною поговорити, міс Ґрейнджер?

***

// 5990
//It was after lunch on Thursday afternoon, and Hermione and Harry were ensconced
//in a little library nook, with a __Quietus__ field up so they could talk.
//Harry was lying stomach-down on the ground with his elbows resting on the floor
//and his head in his hands and his feet kicking up casually behind him. Hermione
//was occupying a stuffed chair much too large for her, like she was the Hermione
//center of a candy shell.
У четвер після обіду Герміона й Гаррі зручно влаштувалися в невеличкому закутку
бібліотеки, оточивши себе квієтусним полем, щоб можна було спокійно порозмовляти. Гаррі
лежав на животі, спираючись ліктями на підлогу, а головою -- на руки, і
змахував подеколи ногами в повітрі. Герміона майже потонула в куди більшому за неї мʼякому кріслі,
скидаючись на начинку в цукерці.

// 5991
//Harry had suggested that they could, as a first pass, read just the
//__titles__ of all the books in the library, and then Hermione could read
//all the tables of contents.
Гаррі запропонував був спершу проглянути тільки назви
всіх бібліотечних книжок, відтак щоб Герміона прочитала зміст кожної з них.

// 5992
//Hermione had thought this was a brilliant idea. She’d never done that with a
//library before.
Герміона подумала була, що це геніальна ідея. Такий підхід до
бібліотеки вона ще не застосовувала.

// 5993
//Unfortunately there was a slight flaw in this plan.
На жаль, цей план мав деякі прогалини.
// 5994
//Namely, they were both Ravenclaws.
Вони обидвоє були рейвенкловцями.

// 5995
//Hermione was reading a book called __Magical Mnemonics.______
Герміона читала книжку "`Магічна мнемоніка`".
// 5996
//____
// 5997
//Harry was reading a book called __The Skeptical Wizard.______
Гаррі -- "`Скептичний чарівник`".
// 5998
//____
// 5999
//Each had thought it was just one special exception they would make only this
//one time, and neither had yet realized it was impossible for either of them to
//ever finish reading all the book titles no matter how hard they tried.
Кожен гадав, що робить виняток -- лише цього єдиного разу.
Жоден ще не усвідомив, що вони не здатні дочитати назви всіх
книжок, хай як сильно намагатимуться.

// 6000
//The quiet of their little nook was broken by two words.
Тишу їхнього невеличкого закутка раптом порушили два слова, що їх ніби видерло з Гаррі:

// 6001
//“Oh, __no__,” Harry suddenly said out loud, sounding like the words had
//been torn out of him.
-- О __ні__.

// 6002
//There was a bit more quiet.
Ненадовго запала мовчанка.

// 6003
//“He __didn’t__,” Harry said, in the same voice.
-- __Не може бути__, -- сказав він таким самим голосом.

// 6004
//Then she heard Harry start giggling helplessly.
Вона почула безпорадне Гарріне хихотіння.

// 6005
//Hermione looked up from her book.
// 6006
//“All right,” she said, “what __is__ it?”
-- Гаразд, -- Герміона відірвалася від своєї книжки, -- що{stress} там у тебе?

// 6007
//“I just found out why you never ask the Weasleys about the family rat,” Harry
//said. “It’s __really__ awful and I shouldn’t be laughing and I’m a
//terrible person.”
-- Я щойно дізнався, чому ніколи не можна запитувати Візлі про їхнього родинного пацюка. Це
справді жахливо, мені не варто сміятися, я погана людина.

// 6008
//“Yes,” Hermione said primly, “you are. Tell me too.”
-- Так, -- твердо заявила Герміона, -- погана. Розкажи й мені.

// 6009
//“Okay, first the background. There’s a whole chapter in this book about Sirius
//Black conspiracy theories. You remember who that is, right?”
-- Добре, але спершу передісторія. Тут є цілий розділ про
теорії змов щодо Сіріуса Блека. Ти ж памʼятаєш, хто це, так?

// 6010
//“Of course,” said Hermione. Sirius Black was a traitor, a friend of James
//Potter who had let Voldemort into the protected home of the Potters.
-- Звісно, -- відповіла Герміона. Сіріус Блек був зрадником, другом Джеймса
Поттера, що видав Волдемортові захищений дім Поттерів.

// 6011
//“So it turns out there were a number of, shall we say, __irregularities__,
//associated with Black going to Azkaban. He didn’t get a trial, and the Junior
//Minister in charge when the Aurors arrested Black was none other than Cornelius
//Fudge, who became our current Minister of Magic.”
-- Виявляється, у тому, як він потрапив до Азкабану, було чимало, скажімо так, __незвичного__.
Блека не судили, а відповідальним за його арешт був не хто інший, як
молодший міністр Корнеліус Фадж, що потім став чинним міністром
магії.

// 6012
//That sounded a little suspicious to Hermione too, and she said as much.
Герміоні також це здалося трохи підозрілим, чим вона й поділилася.

// 6013
//Harry made a shrugging motion with his shoulders, as he lay on the floor
//looking at his book. “Suspicious things happen all the time, and if you’re a
//conspiracy theorist you can always find __something__.”
Гаррі знизав плечима, лежачи на підлозі й дивлячись у книжку:

-- Підозрілі речі трапляються постійно, а конспірологи
завжди знайдуть, за що{stress} вхопитися.

// 6014
//“But __no trial?__” said Hermione.
-- Але ж __без суду__? -- запитала Герміона.

// 6015
//“It was right after the Dark Lord’s defeat,” Harry said, his voice serious as
//he said it. “Things were incredibly chaotic, and when the Aurors tracked down
//Black he was standing there laughing in a street ankle-deep in blood, with
//twenty eyewitnesses to recount how he’d killed a friend of my father’s named
//Peter Pettigrew plus twelve bystanders. I’m not saying I approve of Black not
//getting a trial. But these are wizards we’re talking about here, so it’s not
//really any more suspicious than, I don’t know, the sort of thing people point
//to when they want to argue over who shot John F. Kennedy. So anyway, Sirius
//Black is the wizarding Lee Harvey Oswald. There’s all sorts of conspiracy
//theories about who __really__ betrayed my parents instead of him, and one
//of the favorites is Peter Pettigrew, and this is where it starts getting
//complicated.”
-- Це сталося відразу після поразки Темного Лорда, -- серйозно промовив Гаррі.
-- Панував неймовірний хаос, а коли аврори знайшли Блека, той стояв
посеред вулиці по кісточки в крові й реготав. Двадцятеро свідків
розповіло, як він убив був друга мого батька Пітера Петіґру й ще дванадцятьох
перехожих. Не те щоб я схвалював відсутність суду над Блеком, але ж
ідеться про чарівників. Це не більш підозріло, ніж, не знаю, усі ті деталі,
що на них вказують люди, сперечаючись про вбивцю Джона Кеннеді.
Хай там як, Сіріус Блек -- це Лі Гарві Освальд чаклунського світу. Існують
найрізноманітніші теорії змов щодо того, хто __насправді__ замість нього зрадив моїх батьків,
і один із фаворитів -- Пітер Петіґру. І тут усе
ускладнюється.

// 6016
//Hermione listened, fascinated. “But how do you go from there to the Weasleys’
//__pet rat__ -”
Герміона захоплено слухала:

-- Але до чого тут родинний пацюк Візлі?..

// 6017
//“Hold on,” said Harry, “I’m getting there. Now, after Pettigrew’s death it came
//out that he’d been a spy for the Light - not a double agent, just someone who
//snuck around and found things out. He’d been good at that since he was a
//teenager, even in Hogwarts he had a reputation for finding out all sorts of
//secrets. So the conspiracy theory is that Pettigrew became an unregistered
//Animagus while he was still in Hogwarts, an Animagus of something small that
//could scurry around and listen to conversations. The main problem being that
//successful Animagi are rare and doing it as a teenager would be really
//unlikely, so of course the conspiracy theory says that my father and Black were
//unregistered Animagi too. And in that conspiracy theory, Pettigrew himself
//killed the twelve bystanders, turned into his small Animagus form, and ran. So
//Michael Shermer says there are four additional problems with this. One, Black
//was the only one besides my parents who knew how to get through the wards
//around their house.” (Harry’s voice was a little hard as he said that.) “Two,
//Black was a more likely suspect to start with than Pettigrew, there’s a rumor
//Black deliberately tried to get a student killed during his time at Hogwarts,
//and he was from this really nasty pureblood family, Bellatrix Black was
//literally his cousin. Three, Black was twenty times the fighting wizard that
//Pettigrew was, even if he wasn’t as smart. The duel between them would have
//been like Professor Quirrell versus Professor Sprout. Pettigrew probably didn’t
//even get a chance to draw his wand, let alone fake all the evidence the
//conspiracy theory requires. And four, Black was standing in the street
//__laughing.__”
-- Чекай, зараз дізнаєшся. Ось, після смерти Петіґру стало відомо, що той був
шпигуном Світла -- не подвійним агентом, а просто деким, хто винюхував
інформацію. Йому це добре вдавалося ще з підліткового віку, навіть у
Гоґвортсі він мав славу людини, що вміє дізнаватися всілякі таємниці.
Отже, теорія змови ґрунтується на припущенні, що ще в школі Петіґру став незареєстрованим анімагом
з якоюсь маленькою формою, завдяки чому непомітно всюди нишпорив і
підслуховував розмови. Головна проблема -- успішні анімаги
рідкісні, тож украй малоймовірно, що хтось зміг це зробити в такому юному віці, а тому
мій батько й Блек, звісно, також були
незареєстрованими анімагами -- згідно з цією теорією. Згідно з нею ж, Петіґру самотужки вбив дванадцятьох
перехожих, набув своєї маленької анімагічної форми й утік. І Майкл Шермер
стверджує, що тут є чотири додаткові серйозні проблеми. По-перше,
Блек був єдиною людиною, крім моїх батьків, хто знав, як обійти захисні чари
їхнього будинку, -- на цих словах Гаррін голос дещо посуворішав. --
По-друге, Блек імовірніший підозрюваний, ніж Петіґру: ширилися чутки, що в Гоґвортсі він навмисно
намагався призвести до смерти іншого учня, а ще
він походить із дуже бридкої чистокровної родини. Сама Белатриса Блек -- це його
двоюрідна сестра. По-третє, Блек був удвадцятеро сильнішим бойовим магом,
ніж Петіґру, хоч і не настільки розумним. Дуель між ними скидалася б на
дуель між професором Квірелом і професоркою Спраут. Петіґру, мабуть, не встиг
би навіть витягти паличку, не те що сфабрикувати всі докази, як того вимагає
теорія змови. І, по-четверте, Блек стояв посеред вулиці й __реготав__.

// 6018
//“But the __rat__ -” said Hermione.
-- Але __пацюк__... -- нагадала Герміона.

// 6019
//“Right,” Harry said. “Well, to make a long story short, Bill Weasley decided
//that his little brother Percy’s pet rat was Pettigrew’s Animagus form -”
-- Так. Ну, якщо коротко, то Білл Візлі вирішив, що пацюк його молодшого брата
Персі й був анімагічною формою Петіґру...

// 6020
//Hermione’s jaw dropped.
У Герміони відпала щелепа.

// 6021
//“Yes,” Harry said, “you wouldn’t exactly expect Evil Pettigrew to be living a
//sad and furtive life as the pet rat of an enemy wizarding family, he’d either
//be with the Malfoys or, more likely, off in the Carribean after a bit of
//plastic surgery. Anyway, Bill knocks out his little brother Percy, stuns and
//grabs the rat, sends out all these emergency owl messages -”
// hedrok: @ knock out
-- Так, -- провадив далі Гаррі, -- складно уявити Лихого Петіґру, що потай животіє
як пацюк у ворожій чаклунській родині. Він радше б зачаївся з Мелфоями
чи, імовірніше, десь на Карибах після пластичної операції. Хай там як, Білл
вирубує свого молодшого брата Персі, паралізує і захоплює пацюка та розсилає
совиною поштою купу повідомлень про надзвичайну ситуацію...

// 6022
//“Oh, __no!__” Hermione said, the words torn out of her.
-- О __ні!__ -- вирвалося з Герміони.

// 6023
//“- and somehow manages to gather Dumbledore, the Minister of Magic, and the
//Head Auror -”
-- ...і якось йому вдається зібрати Дамблдора, міністра магії і
головного аврора...

// 6024
//“He __didn’t!__” said Hermione.
-- __Не може бути!__ -- вигукнула Герміона.

// 6025
//“And of course when they get there they think he’s crazy, but they use
//__Veritas Oculum __on the rat anyway, just to be sure, and what do they
//discover?”
-- І, звісно, діставшись до нього, вони вирішили, що Білл збожеволів,
проте однаково застосували до пацюка "`Верітас Окулум`", просто на
всяк випадок. І кого ж вони виявили?

// 6026
//She would’ve __died__. “A rat.”
Герміона аж вмирала від цікавости:

-- Пацюка.

// 6027
//“You win a cookie! So they dragged poor Bill Weasley off to St. Mungo’s and it
//turned out to be a pretty standard schizophrenic break, it just happens to some
//people, especially young men around what we’d consider college age. Guy was
//convinced he was ninety-seven years old and had died and gone back in time to
//his younger self via train station. And he responded perfectly well to
//antipsychotics and is back to normal and everything’s fine now, except people
//don’t talk as much anymore about Sirius Black conspiracy theories, and you
//don’t ever ask the Weasleys about the family rat.”
-- Молодець, візьми собі печивко! Отже, вони притягнули бідолашного Білла Візлі до
лікарні Святого Мунґо. Там зʼясувалося, що це звичайний напад шизофренії
-- таке просто трапляється з деякими людьми, особливо з парубками у віці, який
ми б назвали студентським. Хлопець щиро вірив, що йому девʼяносто сім
років, він помер був і через залізничну станцію вирушив назад у часі, вселившись у себе молодого.
Він чудово зреагував на антипсихотичне лікування й вернувся до нормального життя,
і все тепер добре, крім того, що теорії змов щодо Сіріуса Блека
обговорюють значно менше, а родину Візлі ніколи не розпитують про їхнього пацюка.

// 6028
//Hermione was giggling helplessly. It was really awful and she shouldn’t be
//laughing and she was a terrible person.
Герміона безпорадно хихотіла. Це справді жахливо, їй не варто сміятися,
вона погана людина.

// 6029
//“The thing I __don’t__ understand,” Harry said, after their giggles had
//died down, “is __why__ Black would hunt down Pettigrew instead of running
//as fast as he could. He had to know the Aurors would be after him. I wonder if
//they got the reason out of Black before they took him to Azkaban? See, this is
//why people who are absolutely positively guilty still go through the legal
//system and get trials.”
-- Чого я __не розумію__, -- сказав Гаррі, коли їхнє хихотіння вщухло, -- то
це __чому__ Блек кинувся вистежувати Петіґру, а не просто якнайшвидше втік. Він
не міг не розуміти, що його шукають аврори. Цікаво, ті дізналися його мотив,
перш ніж кинули до Азкабану? Ось чому навіть люди, чия вина не зумовлює жодного сумніву,
однаково мають пройти через юридичну систему й постати перед судом.

// 6030
//Hermione had to agree with that.
Герміона не могла не погодитися.

// 6031
//Soon Harry was done with his book while Hermione was only halfway through hers
//- hers was a much more difficult book than Harry’s, but she still felt
//embarrassed about that. And then she had to put __Magical Mnemonics__ back
//on the shelf and drag herself away, because it was time for her to face the
//most dreaded class in Hogwarts, BROOMSTICK RIDING.
Невдовзі Гаррі вже дочитав свою книжку, тоді як вона здолала лише половину своєї.
І хоча її книжка була значно складніша, ніж Гарріна, Герміону однаково пройняв
сором. Їй довелося повернути "`Магічну мнемоніку`" на
полицю й відтягнути себе від неї, адже вже майже настав час пережити
найстрашніший урок Гоґвортсу -- ПОЛЬОТИ НА МІТЛАХ.

// 6032
//Harry tagged along as she walked there, even though his own class wasn’t until
//an hour and a half later, like a fighter jet escorting a sad little propeller
//plane on its way to its own funeral.
Дорогою Гаррі склав їй компанію, хоча до його власного заняття лишалося ще
півтори години. Ніби реактивний винищувач, що проводжає сумний гвинтокрил до
місця його останнього спочинку.

// 6033
//The boy wished her goodbye in a quiet, sympathetic voice, and she walked onto
//the grassy fields of Doom.
Хлопець тихо й співчутливо побажав їй успіху, і вона вийшла на зелені поля
Лихої Долі.

// 6034
//And there was much shrieking and almost falling and horrible brushes with death
//and the ground in completely the __wrong place__ and the sun getting in
//her eyes and Morag buzzing her and Mandy thinking she was being __subtle__
//about always being near enough to catch her if she fell and she __knew__
//the other students were laughing at both of them but she never said anything to
//Mandy because she didn’t actually want to die.
Було чимало вереску, майже падінь, жахливих зіткнень зі смертю,
землі, що розміщувалася геть __не там, де їй годилося__, сонця, що засліплювало очі, галасливої Мораґ,
Менді, яка вважала, що завжди непомітно тримається
поруч, щоб встигнути впіймати Герміону, якщо та раптом впаде. Герміона знала, що
інші учениці сміялися з них обох, але ніколи нічого не казала Менді, бо справді не
хотіла померти.

// 6035
//After ten million years the class ended, and she was back on the ground where
//she belonged until next Thursday. Sometimes she had nightmares about it always
//being Thursday.
Минуло десять мільйонів років, перш ніж заняття закінчилося, а вона знову вернулася на
землю, де до наступного четверга їй і було місце. Іноді їй снилися жахи,
що кожен день був четвергом.

// 6036
//__Why__ everyone had to learn this, when they were just going to Apparate
//or Floo or portkey everywhere once they grew up, was a complete and utter
//mystery to Hermione. Nobody actually needed to ride broomsticks as an adult, it
//was like being forced to play dodgeball in P.E.
Чому всі мусять навчатися цього, якщо повнолітніми вони зможуть потрапити куди
завгодно за допомогою явлення, флу чи летиключів, було для
Герміони цілковитою загадкою. Насправді дорослі не мали жодної потреби літати на
мітлах, це просто нагадувало примусову гру у вибивали на фізкультурі.

// 6037
//At least Harry had the decency to be ashamed of being good at it.
Принаймні Гаррі вистачило гідности, щоб соромитися своїх успіхів у цій царині.

***

// 6038
//It was a couple of hours later, and she was in a Hufflepuff study hall with
//Hannah, Susan, Leanne, and Megan. Professor Flitwick, surprisingly diffident
//for a teacher, had asked if she might possibly maybe help those four with their
//Charms homework for a while, even though they weren’t Ravenclaws, and Hermione
//had felt so proud she’d almost __burst__.
Декілька годин потому вона зустрілася в навчальній залі Гафелпафу разом з Анною,
Сьюзен, Ліною і Меґан. Професор Флитвік (на диво боязкий, як на вчителя)
запитав був, чи не завдасть їй надто великого клопоту зовсім трішечки допомогти
цим чотирьом із їхнім домашнім завданням із чарів, нехай
вони й не з Рейвенклову. Герміону аж розпирали гордощі.

// 6039
//Hermione took a piece of parchment, spilled a little bit of ink on it, tore it
//into four pieces, crumpled them, and tossed the pieces on the table.
Вона взяла аркуш пергаменту, заляпала його дещо чорнилом і розірвала на
шматочки, які зіжмакала й розкидала по столі.
// 6040
//__She__ could have gotten it just from crumpling it, but doing all that
//made it more like garbage, and that helped when someone was first practicing
//the Disposal Charm.
__Їй__ вистачило б і просто зіжмаканого паперу, але так це
більше скидалося на сміття, що на початках допомагало
тренувати очищувальні чари.

// 6041
//Hermione sharpened her ears and eyes, and said, “Okay, try it.”
Герміона нашорошила вуха й очі:

-- Гаразд, тепер спробуйте.

// 6042
//“__Everto.__”
-- __Еверто.__

// 6043
//“__Everto.__”
-- __Еверто.__

// 6044
//“__Everto.__”
-- __Еверто.__

// 6045
//“__Everto.__”
-- __Еверто.__

// 6046
//Hermione didn’t think she’d quite caught all the problems. “Can you all try it
//again?”
Герміона засумнівалася, чи вдалося їй помітити всі помилки:

-- Спробуйте ще раз, будь ласка.

// 6047
//An hour later Hermione had concluded that (1), Leanne and Megan were sort of
//sloppy, but if you asked them to keep practicing something, they would, (2)
//Hannah and Susan were focused and driven to the point where you had to keep
//telling them to __slow down__ and __relax__ and __think__ about
//things instead of __trying__ so hard - it was odd to think that those two
//would soon be __hers__ - and (3) she liked helping Hufflepuffs, the whole
//study hall had a very cheerful atmosphere.
За годину Герміона дійшла таких висновків: (1) Ліна й Меґан були, так би мовити,
недбалими, але якщо попросити їх докласти зусиль, то вони дослу{stress}хаються; (2)
Анна й Сьюзен зосереджувалися й старалися навіть занадто, аж доводилося
підказувати їм пригальмувати, розслабитися й обміркувати дії, а не
просто щосили намагатися (дивно було думати,
що ці дві невдовзі __будуть у неї__); і (3) їй сподобалося допомагати гафелпафцям
-- у всій їхній навчальній залі панувала доволі радісна атмосфера.

// 6048
//When she left for dinner, she found the Boy-Who-Lived reading a book while he
//waited to escort her. It made her feel flattered, and also a little worried
//because Harry didn’t seem to really talk to __anyone__ besides her.
Вийшовши на вечерю, вона побачила, що Хлопчик-Що-Вижив чекає на неї за
читанням книжки. Це їй лестило, та водночас трішки непокоїло: складалося враження, ніби Гаррі
не розмовляв із жодною людиною, крім неї.

// 6049
//“Did you know there’s a girl in Hufflepuff who’s a Metamorphmagus?” said
//Hermione as they headed toward the Great Hall. “She makes her hair really red,
//like stopsign red not Weasley red, and when she spilled hot tea on herself she
//turned into a black-haired boy until she got it under control again.”
// hedrok: @ гра слів red - red...
-- А ти знав, що в Гафелпафі є метаморфомагиня? -- запитала Герміона
дорогою до Великої зали. -- Вона може робити своє волосся червоним. Тобто
не рудим, як у Візлі, а червоним, як знак "`Стоп`". А коли вона облилася
гарячим чаєм, то обернулася на чорнявого хлопця, доки знову себе не опанувала.

// 6050
//“Really? Cool,” said Harry, sounding a bit distracted. “Um, Hermione, just to
//check, you know tomorrow is the last day to sign up for Professor Quirrell’s
//armies, right?”
-- Справді? Круто, -- неуважливо відповів Гаррі. -- Ем, Герміоно, просто уточнюю:
ти ж знаєш, що завтра останній день, щоб записатися до військ
професора Квірела, так?

// 6051
//“Yes,” Hermione said. “The armies of the evil Professor Quirrell.” Her voice
//was a little angry, though Harry didn’t know why, of course.
-- Так. До військ злого професора Квірела, -- сердито кинула Герміона,
хоча Гаррі, звісно, і гадки не мав чому.

// 6052
//“Hermione,” Harry said, his voice exasperated, “he’s not evil. He’s a little
//bit Dark and a whole lot Slytherin. It’s not the same as being __evil__.”
-- Герміоно, він не злий, -- роздратовано заперечив Гаррі. -- Він трохи темний, а ще
цілковитий слизеринець. Це не те ж саме, що бути __злим__.

// 6053
//Harry Potter had too many words for things, that was his problem. He would have
//been better off if he’d just divided the universe into Good and Bad. “Professor
//Quirrell called me up in front of the whole class and told me to __shoot
//someone!__”
Гаррі Поттер знаходив речам забагато слів -- ось у чому його проблема.
Йому б пішло на користь, якби він просто розділяв усесвіт на добре й
погане.

-- Професор Квірел ви{stress}кликав мене наперед класу й звелів __вистрелити
в когось__!

// 6054
//“He was right,” Harry said, his face sober. “I’m sorry, Hermione, but he was.
//You should have shot __me,__ I wouldn’t have minded. You can’t learn
//Battle Magic if you can’t practice against real opponents using real spells.
//And now you’re doing okay in sparring, aren’t you?”
-- Він мав рацію, -- розсудливо промовив Гаррі. -- Вибач, Герміоно, але мав.
Слід було вистрелити в мене, я б не заперечував. Не можна навчитися бойової магії,
якщо відмовлятися практикувати справжні закляття на справжніх противниках.
Крім того, тепер ти добре справляєшся на спарингах, чи не так?

// 6055
//Hermione was only twelve, and so she knew, but she couldn’t put it into words,
//she couldn’t find the thing to say that would convince Harry.
Герміоні було лише дванадцять, тому вона не могла висловити те, що знала, не
могла дібрати слів, що переконали б Гаррі.
// 6056
//Professor Quirrell had taken a young girl and called up that girl in front of
//everyone, and ordered her to open fire without provocation on a classmate.
Професор Квірел вибрав дівчинку, ви{stress}кликав її наперед і звелів вистрелити
в однокласника без жодної на те причини.

// 6057
//It didn’t __matter__ if Professor Quirrell was right about her needing to
//learn it.
__Байдуже__, чи мав він рацію, що їй треба цього навчитися.

// 6058
//Professor McGonagall wouldn’t ever have done that.
Професорка Макґонеґел ніколи б так не вчинила.

// 6059
//Professor Flitwick wouldn’t ever have done that.
Професор Флитвік ніколи б так не вчинив.

// 6060
//Maybe not even Professor Snape would have done that.
Навіть професор Снейп ніколи б так не вчинив. Мабуть.

// 6061
//Professor Quirrell was __EVIL__.
Професор Квірел був __ЗЛИМ__.

// 6062
//But she couldn’t find the words, and she knew that Harry would never believe
//her.
Але вона не могла дібрати слів і знала, що Гаррі нізащо їй не
повірить.

// 6063
//“Hermione, I’ve talked to older students,” Harry said. “Professor Quirrell
//could be the __only__ competent Defense Professor we get in all seven
//years at Hogwarts. Anything else we can learn later. If we want to study
//Defense, we have to do it __this year.__ The students who sign up for the
//extracurricular stuff are going to be learning huge amounts, way beyond what
//the Ministry thinks first-years are supposed to study - did you know we’re
//going to be learning the Patronus Charm? In __January?__”
-- Герміоно, я розмовляв зі старшокласниками. Професор Квірел може виявитися
__єдиним__ компетентним професором із захисту за всі наші сім років
у Гоґвортсі. Все інше можна надолужити пізніше. Якщо ми
хочемо навчитися захисту, то маємо зробити це __цього року__. Учні, що
запишуться на факультативні заняття, дізнаються купу всього, незрівнянно більше,
ніж міністерство вважає за потрібне для першокласників. Ти знала, що ми
вивчатимемо закляття "`Патронус`"? У __січні__?

// 6064
//“The __Patronus Charm?__” Hermione said, her voice going up in surprise.
-- __Закляття "`Патронус`"?__ -- здивовано вигукнула Герміона.

// 6065
//Her books said that was one of the brightest magics known, a weapon against the
//Darkest creatures, cast with pure positive emotions. It wasn’t something she’d
//expect the evil Professor Quirrell to teach - or arrange to be taught, since
//Hermione couldn’t imagine he could do the spell himself.
Її книжки стверджували, що це одні з найсвітліших відомих чарів, зброя проти
найтемніших істот, що спрацьовувала тільки від щирих
позитивних емоцій. Вона не очікувала такої науки від злого професора Квірела
-- чи що він її організує, адже Герміона й уявити не могла, що сам він
здатен застосовувати це закляття.

// 6066
//“Yes,” Harry said. “Students don’t usually learn the Patronus Charm until their
//fifth years or even later! But Professor Quirrell says the Ministry schedules
//were made up by talking Flobberworms, and the ability to cast the Patronus
//Charm depends on emotions more than magical strength. Professor Quirrell says
//that he thinks most students do __way__ less than they can, and this year
//he’s going to prove it.”
-- Так, -- підтвердив Гаррі. -- Зазвичай учні вивчають це закляття лише в
пʼятому класі, а то й пізніше! Проте професор Квірел каже, що міністерську програму
складали балакучі флобервʼяки, а здатність накладати
"`Патронус`" залежить радше від емоцій, а не магічної сили. Він
вважає, що більшість учнів робить куди менше, ніж може насправді, і запевняє,
що цьогоріч це доведе.

// 6067
//There was the usual tone of awed worship that Harry’s voice had when he talked
//about Professor Quirrell, and Hermione gritted her teeth and kept walking.
Гаррі говорив про професора Квірела з
благоговінням і трепетом у голосі, як і завжди. Герміона йшла далі, стиснувши щелепи.

// 6068
//“I already signed up, actually,” Hermione said, her voice a little quiet. “I
//did it this morning. For everything, just like you said.”
-- Взагалі-то, я вже записалася, -- тихо зауважила вона. -- Зранку. З
усіх цих причин, як ти й сказав.

// 6069
//__In for a penny, in for a pound__ was the usual expression.
Запрігся -- тягни, як то кажуть.
// 6070
//Besides, she didn’t want to __lose__, and if she wanted to win she had to
//learn.
До того ж Герміона не збиралася __програвати__, а якщо вона хотіла виграти, то
мусила навчатися.

// 6071
//“So you __will__ be in the armies, then?” Harry’s voice was suddenly
//enthusiastic. “That’s awesome, Hermione! I’ve already gotten my list of
//soldiers, but I’m sure Professor Quirrell will let me add one more, or trade -”
-- То ти будеш у військах? -- у Гарріному голосі зненацька зʼявився запал.
-- Це чудово, Герміоно! Я вже отримав список солдатів, проте впевнений, що
професор Квірел дозволить взяти ще одного чи обміняти...

// 6072
//“I’m not joining __your__ army.” Hermione’s voice was sharp. She knew it
//was a reasonable assumption but it __still__ annoyed her.
-- Я не збираюся до __твого__ війська, -- різко обірвала його Герміона. Вона знала,
що це припущення мало сенс, та однаково роздратувалася.

// 6073
//Harry blinked. “Not Draco Malfoy’s, surely. So you want to be in the third
//army? Even though we don’t know who the general __is__ yet?” Harry sounded
//surprised and a little wounded, and she couldn’t blame him, though of course
//she did blame him, since in fact it was all his fault. “But why not mine?”
-- Ну ж не до Драко Мелфоя, -- закліпав Гаррі. -- Отже, ти хочеш бути в третьому війську?
Хоча ще невідомо, __хто__ там стане генералом? --
він звучав здивовано й трохи ображено, і вона не могла йому дорікати, проте, звісно,
дорікала, адже насправді це Гаррі був у всьому винний. -- Але чому не в
моєму?

// 6074
//“Think about it,” Hermione snapped, “and maybe you’ll work it out!”
-- Подумай, -- зірвалася Герміона, -- можливо, щось і зрозумієш!

// 6075
//And she sped up her stride and left Harry gaping behind her.
Вона пришвидшила ходу й залишила позаду остовпілого Гаррі.

***

// 6076
//“Professor Quirrell,” Draco said in his most formal voice, “I must protest your
//appointment of Hermione Granger as the third general.”
-- Професоре Квірел, -- промовив Драко якомога офіційніше, -- я
вимушений оскаржити призначення Герміони Ґрейнджер генералкою третього
війська.

// 6077
//“Oh?” said Professor Quirrell, leaning back in his chair in a casual and
//relaxed manner. “Protest away, Mr. Malfoy.”
-- О? -- професор Квірел недбало й розслаблено сперся на спинку
крісла. -- Ну то оскаржуйте, містере Мелфой.

// 6078
//“Granger is unfit for the position,” said Draco.
-- Ґрейнджер непридатна для цієї посади.

// 6079
//Professor Quirrell tapped a finger on his cheek thoughtfully. “Why yes, yes she
//is. Do you have any further protests?”
Професор Квірел задумливо постукав пальцем по щоці:

-- Саме так, так і є. Ще щось?

// 6080
//“Professor Quirrell,” said Harry Potter beside him, “with all due respect to
//Miss Granger’s many outstanding academic talents and the Quirrell points she
//has justly earned in your classes, her personality is not suited to military
//command.”
-- Професоре Квірел, -- втрутився Гаррі Поттер, що стояв поруч із Драко, -- з усією
повагою до багатьох видатних академічних талантів міс Ґрейнджер, а також балів
Квірела, що їх вона чесно заслужила на ваших заняттях, її особистість не
відповідає потребам військового командування.

// 6081
//Draco had been relieved when Harry had agreed to accompany him to Professor
//Quirrell’s office. It wasn’t __just__ that Harry was a gigantic blatant
//teacher’s pet where Professor Quirrell was concerned. Draco had also started to
//worry that Harry actually __was__ friends with Granger, it had been a
//while now and he __still__ hadn’t made his move… but this was more like
//it.
// часткова копія 024:4715: move
Драко полегшало було, коли Гаррі погодився піти з ним до кабінету
професора Квірела, і не лише через цілковиту очевидність, що той був улюбленцем
на його заняттях. Драко також починав хвилюватися,
чи Гаррі, бува, й справді не здружився з Ґрейнджер. Минуло вже чимало
часу, а він __досі__ не зробив наступного ходу проти неї... Та тепер усе йшло як треба.

// 6082
//“I agree with Mr. Potter,” said Draco. “Appointing her as a general turns it
//into a farce.”
-- Погоджуюся з містером Поттером, -- підтакнув Драко. -- Її призначення
генералкою перетворює все це на фарс.

// 6083
//“Harshly put,” said Harry, “but I cannot bring myself to disagree with Mr.
//Malfoy. To be blunt, Professor Quirrell, Hermione Granger has around as much
//intent to kill as a bowl of wet grapes.”
// hedrok: intent to kill as bowl of wet grapes копія в 078:13931
-- Різко, але не можу не погодитися з містером
Мелфоєм, -- підхопив Гаррі. -- Якщо відверто, професоре Квірел,
готовности вбити в ній приблизно стільки ж, скільки в чаші митого винограду.

// 6084
//“That,” said Professor Quirrell mildly, “is not a thing I would fail to notice
//myself. You are telling me nothing I do not already know.”
-- Це я і без вас помітив, -- мʼяко відповів професор Квірел. -- Ви не
повідомили мені нічого нового.

// 6085
//It was Draco’s turn to say something, but the conversation had suddenly
//hiccupped. That answer had __not__ been in the possibilities he and Harry
//had brainstormed before coming here. What __did__ you say after the
//teacher said that he knew everything you knew and he was still going to commit
//an obvious mistake?
Настала Дракова черга говорити, але далі розмова щось не клеїлася.
Перш ніж прийти сюди, вони ґрунтовно обмізкували всі ймовірні реакції,
але такої не передбачили. Що взагалі можна сказати, якщо сам учитель підтвердив, що
він уже знає всі наведені аргументи й однаково збирається скоїти явну помилку?

// 6086
//The silence stretched.
Мовчанка затягнулася.

// 6087
//“Is this some sort of plot?” Harry said slowly.
-- Це якийсь хитрий план? -- повільно припустив Гаррі.

// 6088
//“Must everything I do be some sort of plot?” said Professor Quirrell. “Can’t I
//ever create chaos just for the sake of chaos?”
-- Невже всі мої вчинки мають бути якимось планом? Невже я не можу
сіяти хаос суто заради хаосу?

// 6089
//Draco almost choked.
Драко забракло повітря.

// 6090
//“Not in your Battle Magic class,” Harry said with calm certainty. “Other
//places, maybe, but not there.”
-- Не на бойовій магії, -- спокійно й упевненено заявив
Гаррі. -- Можливо, деінде, але не в своєму класі.

// 6091
//Professor Quirrell slowly raised his eyebrows.
Професор Квірел повільно здійняв брови.

// 6092
//Harry gazed steadily back at him.
Геррі незмигно на нього дивився.

// 6093
//Draco shivered.
Драко затремтів.

// 6094
//“Well then,” Professor Quirrell said. “Neither of you seem to have considered a
//very simple question. Who could I appoint instead of Miss Granger?”
-- Що ж. Видається, жоден із вас не подумав про одну
дуже просту річ. Кого ж мені призначити, як не міс Ґрейнджер?

// 6095
//“Blaise Zabini,” Draco said without hesitation.
-- Блеза Забіні, -- негайно запропонував Драко.

// 6096
//“Any other suggestions?” said Professor Quirrell, sounding quite amused.
-- Ще варіанти? -- здавалося, що професор Квірел
розважається.

// 6097
//__Anthony Goldstein and Ernie Macmillan,__ came the thought, before
//Draco’s common sense kicked in and ruled out mudbloods and Hufflepuffs no
//matter how aggressively they dueled. So instead Draco just said, “What’s wrong
//with Zabini?”
Драко спершу спали на гадку Ентоні Ґолдштейн і Ерні Макмілан, а тоді його здоровий
ґлузд збунтував і заветував усіх бруднокровців та гафелпафців, хай як люто
ті билися на дуелях. Натомість він просто запитав:

-- А що не так із Забіні?

// 6098
//“I __see__…” Harry said slowly.
-- __Зрозуміло__... -- протягнув Гаррі.

// 6099
//“I __don’t,__” said Draco. “Why not Zabini?”
-- А мені __ні__. Чому не Забіні?

// 6100
//Professor Quirrell looked at Draco. “Because, Mr. Malfoy, no matter how hard he
//tries, he’ll never be able to keep up with you or Mr. Potter.”
Професор Квірел поглянув на Драко:

-- Тому що, містере Мелфой, неважливо, як сильно він старатиметься, йому ніколи не бути на
одному рівні з вами чи містером Поттером.

// 6101
//The shock of it staggered Draco. “You can’t believe __Granger__ is going
//to -”
Драко похитнуло від цього удару:

-- Ви ж не вважаєте, що __Ґрейнджер__ колись...

// 6102
//“He’s gambling on her,” Harry said quietly. “It’s not guaranteed. The odds
//aren’t even good. She’ll probably never give us a good fight, and even if she
//does, it may take her months to learn. But she’s the only one in our year with
//any chance at all of growing to beat us.”
-- Він робить на неї ставку, -- тихо пояснив Гаррі. -- Без жодної гарантії.
Навіть без хорошого шансу. Вона, напевно, ніколи не влаштує нам гідного бою, а
якщо й влаштує, то тільки після місяців навчання. Проте вона єдина
з нашого року, хто має бодай якийсь потенціал, щоб перемогти нас.

// 6103
//Draco’s hands twitched but didn’t clench into fists. Showing up as your
//supporter and then backing out was a classic undermining tactic, so Harry
//Potter __was__ in it with Granger and __that __implied -
Дракові руки смикнулися, але в кулаки не стиснулися. Заявити про підтримку, а потім
передумати -- класичний маневр. Отже, Гаррі Поттер таки дружив із Ґрейнджер,
з чого випливало...

// 6104
//“But Professor,” Harry went on smoothly, “I’m worried Hermione will be
//__miserable__ as the general of an army. I’m speaking as her friend now,
//Professor Quirrell. The competition might be good for Draco and me, but what
//you’re asking her to do isn’t good for __her!__”
-- Але, професоре, -- знову заговорив Гаррі, -- я хвилююся, чи не стане Герміона
нещасною на посаді генералки війська. Кажу це як її друг.
Змагання може піти на користь Драко й мені, однак те, що ви
просите від неї, не зробить добра __їй__!

// 6105
//Never mind.
Проїхали.

// 6106
//“Your friendship for Hermione Granger does you credit,” Professor Quirrell said
//dryly. “Especially as you are able to be friends with Draco Malfoy at the same
//time. Quite a feat, that.”
-- Дружба з Герміоною Ґрейнджер робить вам честь, -- сухо зазначив професор
Квірел. -- Особливо з огляду на те, що водночас ви товаришуєте з Драко Мелфоєм. Оце
так звитяга.

// 6107
//Harry suddenly looked a little nervous, meaning he probably felt a lot
//__more __nervous, and Draco silently swore to himself. Of course Harry
//wasn’t going to fool Professor Quirrell.
Гаррі раптом почав здаватися трохи знервованим, що мало означати, що він був __куди
знервованішим__, і Драко подумки вилаявся. Звісно, Гаррі не обдурить
професора Квірела.

// 6108
//“And I doubt Miss Granger would appreciate your friendly concern,” said
//Professor Quirrell. “She asked me for the position, Mr. Potter, I did not ask
//her.”
-- І сумніваюся, що міс Ґрейнджер оцінить ваше дружнє занепокоєння. Вона сама
захотіла цю посаду, містере Поттер. Я її не просив.

// 6109
//Harry was quiet at this for a moment. Then he flashed Draco a quick look that
//mixed apology and warning, saying at the same time, __Sorry, I did my
//best__ and __We’d better not press it any further.__
Гаррі трохи помовчав і зиркнув на Драко. У його очах змішалися жаль і
пересторога, ніби він казав: "`Вибач, я зробив усе, що міг`", а ще водночас: "`Краще нам
на цьому зупинитися`".

// 6110
//“As for her being miserable,” Professor Quirrell went on, a slight smile now
//playing about his lips, “I suspect that she will have a much easier time with
//the rigors of her position than either of you suspect, and that she will put up
//a good fight much sooner than you think.”
-- А стосовно її нещастя, -- професор Квірел легенько
посміхнувся. -- Підозрюю, що вона набагато легше впорається з викликами своєї
посади, ніж ви очікуєте, і влаштує вам гарний бій значно раніше, ніж ви думаєте.

// 6111
//Harry and Draco both gasped in horror.
Гаррі й Драко скрикнули від жаху.

// 6112
//“You’re not going to __advise__ her, are you?” said Draco, utterly aghast.
-- Ви ж не будете давати їй порад, чи не так? -- приголомшено запитав Драко.

// 6113
//“I never signed up to fight __you!__” said Harry.
-- Я не погоджувався боротися з __вами__! -- долучився Гаррі.

// 6114
//The smile playing around Professor Quirrell’s lips grew wider. “As a matter of
//fact, I __did__ offer to share a few suggestions regarding Miss Granger’s
//first battles.”
Посмішка на обличчі професора Квірела поширшала:

-- Я справді пропонував дати міс Ґрейнджер кілька порад щодо її перших боїв.

// 6115
//“__Professor Quirrell!__” said Harry.
-- __Професоре Квірел!__ -- вигукнув Гаррі.

// 6116
//“Oh, don’t worry,” Professor Quirrell said. “She turned me down. Just as I
//expected.”
-- О, не переймайтеся. Вона відмовилася. Як я й передбачав.

// 6117
//Draco’s eyes narrowed.
Драко примружився.

// 6118
//“Dear me, Mr. Potter,” said Professor Quirrell, “didn’t anyone ever tell you
//it’s rude to stare?”
-- Заради Мерліна, містере Поттер, -- промовив професор Квірел, -- невже вам ніхто
ніколи не казав, що витріщатися неввічливо?

// 6119
//“You’re not going to secretly help her some __other__ way, are you?” said
//Harry.
-- Ви ж не збираєтеся таємно допомагати їй у якийсь __інший__ спосіб? --
уточнив Гаррі.

// 6120
//“Would I do that?” said Professor Quirrell.
-- Невже я на таке здатен?

// 6121
//“Yes,” said Draco and Harry at the same time.
-- Так, -- одночасно відповіли Драко й Гаррі.

// 6122
//“I am wounded by your lack of trust. Well then, I promise not to help General
//Granger in any way that the two of you don’t know about. And now I suggest that
//both of you be about your military affairs. November approaches, and swiftly.”
//Копія "обіцяю не допомагати" 031:6493
-- Мене глибоко ранить ваша недовіра. Що ж, обіцяю не
допомагати генералці Ґрейнджер у будь-який невідомий вам спосіб. А тепер
раджу вам повертатися до своїх військових справ. Листопад наближається, і
швидко.

***

// 6123
//Draco saw the implications before the door had closed all the way behind them
//on their way out of Professor Quirrell’s office.
Усі наслідки цієї ситуації Драко збагнув ще до того, як за ними зачинилися двері
кабінету професора Квірела.

// 6124
//Harry had once spoken dismissively of “people stuff”.
// копія: "people stuff" з 024:4764
Гаррі колись зневажливо згадував про "`людську всячину`".
// 6125
//And now that was Draco’s only hope.
І тепер вона стала його єдиною надією.

// 6126
//Let him not realize, let him not realize…
Лиш би він не зрозумів, лиш би він не зрозумів...

// 6127
//“We should just attack the Granger girl first and get her out of our way,” said
//Draco. “After we crush her, we can have our own contest without any
//distractions.”
-- Нам варто просто першими атакувати це дівчисько Ґрейнджер і прибрати її з
дороги, -- запропонував Драко. -- А розтрощивши її, зможемо спокійно
змагатися між собою -- ніщо нас не відволікатиме.

// 6128
//“Now that doesn’t really seem fair to her, does it?” said Harry in a mild
//voice.
-- Ну, це здається не дуже чесним щодо неї, чи не так? -- лагідно заперечив Гаррі.

// 6129
//“What do __you__ care?” said Draco. “She’s your rival, right?” Then, with
//just the right note of suspicion in his voice, “Don’t tell me you’ve started
//__really__ liking her, after being her rival all this time…”
-- А __тобі__ що до того? Вона ж твоя суперниця, правда?
Тільки не кажи, -- у голосі залунала точно підібрана недовірлива нотка, -- що вона
й справді почала тобі подобатися після такого тривалого суперництва...

// 6130
//“Founders forbid,” said Harry. “What can I say, Draco? I merely have a natural
//sense of justice. Granger does too, you know. She has a very firm grasp on good
//and evil, and she’s probably going to attack evil first. Having a name like
//‘Malfoy’ is just asking for it, you know.”
-- Бороніть мене засновники. Що я можу сказати, Драко? Я просто маю
природне відчуття справедливости. І Ґрейнджер також, знаєш. Її
уявлення про добро і зло непохитні, і цілком імовірно, що спершу вона атакує зло.
Знаєш, ходити з таким іменем, як "`Мелфой`", -- це ж просто напрошуватися.

// 6131
//__DAMN IT!__
__ПРОКЛЯТТЯ!__

// 6132
//“Harry,” said Draco, sounding wounded and maybe a little superior, “don’t you
//want to fight __fairly__ against me?”
-- Гаррі, а ти хіба не хочеш
боротися чесно зі мною? -- ображено й трохи зверхньо запитав Драко.

// 6133
//“You mean rather than attacking you after you’ve already lost some of your
//forces beating Granger?” said Harry. “Oh, I don’t know. Maybe after I get bored
//with just winning I’ll try that ‘fair’ thing.”
-- Маєш на увазі, відмовитися нападати на тебе тільки після того, як ти вже витратиш частину
своїх сил на знищення Ґрейнджер? Навіть не знаю... Можливо, коли мені
набридне просто вигравати, я спробую цю "`чесну`" штуку.

// 6134
//“Maybe she’ll attack __you,__” Draco said. ”__You’re__ her rival.”
-- Може, вона атакує __тебе__, __ти__ ж її суперник.

// 6135
//“But I’m her __friendly__ rival,” Harry said with an evil grin. “I bought
//her a nice birthday present and everything. You wouldn’t go around sabotaging
//your friendly rival like that.”
-- Але я її __дружній__ суперник, -- Гаррі лиховісно посміхнувся. -- Я купив
їй гарний подарунок на день народження й таке інше. Ніхто отак просто не псує
стосунків із дружнім суперником.

// 6136
//“What about sabotaging your __friend’s__ chance at a fair fight?” said
//Draco angrily. “I thought we were friends!”
-- А псувати шанси свого друга на чесний бій? -- гнівно накинувся
Драко. -- Я вважав нас друзями!

// 6137
//“Let me rephrase that,” said Harry. “__Granger__ wouldn’t sabotage a
//friendly rival. But that’s because she has the killing intention of a bowl of
//wet grapes. __You__ would. You __totally__ would. And guess what, so
//would I.”
-- Дозволь перефразувати. __Ґрейнджер__ не вчинила б так із дружнім суперником,
але тільки через те, що готовности вбити в ній стільки ж, скільки в чаші митого винограду. __Ти__ --
вчинив би. Ще й як вчинив би. І знаєш що? Я теж.

// 6138
//__DAMN IT!__
__ПРОКЛЯТТЯ!__

***

// 6139
//If it had been a play, there would have been dramatic music.
Якби це була пʼєса, то грала б драматична музика.

// 6140
//The hero, impeccably turned out in green-trimmed robes and perfectly combed
//white-blonde hair, faced the villain.
Одягнений у бездоганну мантію із зеленою облямківкою герой з ідеально
вкладеним білявим волоссям зустрівся поглядом із лиходійкою.

// 6141
//The villain, leaning back in a simple wooden chair with her buckteeth clearly
//visible and stray chestnut curls drifting over her cheeks, faced the hero.
Відверто зубата лиходійка спиралася на спинку простого деревʼяного стільця,
її неохайні каштанові пасма спадали на щоки. Вона зустрілася
поглядом із героєм.

// 6142
//It was Wednesday, October 30th, and the first battle was coming up on Sunday.
Була середа, тридцяте жовтня, і перший бій відбудеться в неділю.

// 6143
//Draco was standing in General Granger’s office, a room the size of a small
//classroom. (__Why__ each general’s office was so large, Draco wasn’t quite
//sure. A chair and a desk would have worked for him. He wasn’t even clear on why
//the generals needed offices at all, his soldiers knew where to find him. Unless
//Professor Quirrell had deliberately arranged the huge offices for them as a
//sign of status, in which case Draco was all for it.)
Драко стояв у кабінеті генералки Ґрейнджер -- приміщенні розміром із невеличкий клас.
(Драко не зовсім розумів, __навіщо__ кожному генералові здався такий великий кабінет,
йому б вистачило й просто стола зі стільцем. Та й
навіщо їм це взагалі, його солдати й так
знали, де його знайти. Хіба що професор Квірел навмисно надав їм величезні
приміщення, щоб підкреслити їхній статус, у такому разі Драко не мав нічого
проти.)

// 6144
//Granger sat on the room’s single chair like a throne, all the way on the other
//end of the office from where the door opened. There was a long oblong table
//stretched across the middle of the room between them, and four small circular
//tables scattered around the corners, but only that one single chair, all the
//way at the opposite end. The room had windows along one wall, and one beam of
//sunlight touched the top of Granger’s hair like a glowing crown.
Ґрейнджер сиділа, немов на троні, на єдиному стільці в
протилежному від дверей кінці кабінету. Посеред кімнати між ними простягнувся довгий стіл,
у кутках розмістилися ще чотири круглі столики. Але стілець був тільки один
-- ген навпроти дверей. Крізь вікна на одній зі стін пробивалося
сонячне світло, і волосся Ґрейнджер, вершечок якого зачепило променем, скидалося на блискучу корону.

// 6145
//It would have been nice if Draco could have walked slowly forward. But there
//was a table in the way, and Draco had to go around it diagonally, and there was
//no good way to do that in a dramatic and dignified fashion. Had that been
//deliberate? If it had been his father, it surely would have been; but this was
//Granger, so surely not.
Було б чудово, якби Драко міг повільно пройти вперед. Але на заваді йому стояв
стіл, який довелося обійти по діагоналі, а драматично й гідно це зробити неможливо.
Невже так і задумувалося? Якби йшлося про його батька, то, безперечно,
так; але це була Ґрейнджер, тому, безперечно, ні.

// 6146
//There was nowhere for him to sit, and Granger hadn’t stood up, either.
Сісти йому було ні{stress}де, а Ґрейнджер вирішила не підводитися.
// 6147
//Draco kept the outrage entirely off his face.
Драко ніяк не виказав своєї люті.

// 6148
//“Well, Mr. Draco Malfoy,” Granger said once he stood before her, “you requested
//an audience with me and I have been so gracious as to grant it. What was your
//plea?”
-- Ну, містере Драко Мелфой, -- сказала Ґрейнджер, коли він підійшов, -- ви
просили авдієнції зі мною, і я милостиво її надаю. Що ви хотіли
обговорити?

// 6149
//__Come with me to visit Malfoy Manor, my father and I would like to show
//you some interesting spells.__
"`Ходімо до маєтку Мелфоїв, ми з батьком хочемо показати тобі кілька цікавих
заклять`".

// 6150
//____

// 6151
//“Your rival, Potter, came to me with an offer,” said Draco, putting a serious
//look on his face. “He doesn’t mind losing to me, but would be humiliated if you
//won. So he wants to join with me and wipe you out immediately, not just in our
//first battle, all of them. If I won’t do that, Potter wants me to hold back or
//harass you, while he launches an all-out attack on you as his first move.”
-- Ваш суперник, Поттер, приходив до мене з пропозицією, -- Драко прибрав
серйозного вигляду. -- Він не проти програти мені, проте вважає поразку
від ваших рук занадто принизливою. Тому він хоче обʼєднати сили зі мною і відразу
вас знищити -- не лише в першій битві, а й у всіх наступних. У разі моєї
відмови Поттер очікує, що я відступлю або виснажуватиму ваші сили, доки він
атакуватиме вас усім своїм військом.

// 6152
//“I see,” Granger said, looking surprised. “And you’re offering to help me
//against him?”
-- Зрозуміло, -- Ґрейнджер видавалася здивованою. -- І ви хочете мені допомогти?

// 6153
//“Of course,” said Draco smoothly. “I didn’t think what he wanted to do to you
//was fair.”
-- Звісно, -- улесливо промовив Драко. -- Його пропозиція здалася мені нечесною.

// 6154
//“Why, that’s very nice of you, Mr. Malfoy,” said Granger. “I’m sorry for how I
//spoke to you earlier. We should be friends. Can I call you Drakey?”
-- Як мило з вашого боку, містере Мелфой. Мені так прикро через те, як я
розмовляла з вами раніше. Нам слід бути друзями. Чи можу я називати вас Дракі?

// 6155
//Alarm bells started to sound in Draco’s head, but there was a __chance__
//she meant it…
У Драковій голові залунали попереджувальні дзвоники, проте залишалася ймовірність, що це вона
серйозно...

// 6156
//“Of course,” said Draco, “if I can call you Hermy.”
-- Звісно. Якщо я зможу називати вас Гермі.

// 6157
//Draco was pretty sure he saw her expression flicker.
Драко був доволі впевнений, що помітив, як смикнулося її обличчя.

// 6158
//“Anyway,” Draco said, “I was thinking it would serve Potter right if we both
//attacked him and wiped him out.”
-- Хай там як, -- провадив він далі, -- я гадав, що непогано було б провчити Поттера:
напасти разом і розтрощити його.

// 6159
//“But that wouldn’t be fair to Mr. Potter, would it?” said Granger.
-- Але ж це буде нечесно щодо містера Поттера, чи не так? -- запитала Ґрейнджер.

// 6160
//“I think it’d be very fair,” Draco said. “He was planning to do it to you
//first.”
-- Як на мене, все буде дуже чесно. Він планував учинити так із вами першим.

// 6161
//Granger was giving him a stern look that could possibly have intimidated him if
//he’d been a Hufflepuff instead of a Malfoy. “You think I’m pretty stupid, don’t
//you, Mr. Malfoy?”
Ґрейнджер суворо на нього дивилася. Це, можливо, подіяло б на якогось гафелпафця, але
не на Мелфоя.

-- Ви вважаєте мене величезною дурепою, чи не так, містере Мелфой?

// 6162
//Draco smiled charmingly. “No, Miss Granger, but I thought I’d at least
//__check.__ So, what do you want?”
Драко чарівно посміхнувся:

-- Ні, міс Ґрейнджер, але я подумав, що варто принаймні __перевірити__. Отже,
чого ти хочеш?

// 6163
//“Are you offering to __bribe__ me?” said Granger.
-- Ти збираєшся мене __підкупити__?

// 6164
//“Sure,” said Draco. “Can I just slip you a Galleon and have you beat on Potter
//instead of me for the rest of the year?”
-- Звісно. Я підкину тобі ґалеон, а ти до кінця року нападатимеш на Поттера, а не на мене,
згода?

// 6165
//“Nope,” said Granger, “but you can offer me ten Galleons and have me attack
//both of you equally, instead of just you.”
-- Ні, але можеш підняти ціну до десяти ґалеонів за те, що я атакуватиму
вас обох однаково, а не лише тебе.

// 6166
//“Ten Galleons is a lot of money,” Draco said cautiously.
-- Десять ґалеонів -- це великі гроші, -- Драко завагався.

// 6167
//“I didn’t know the Malfoys were poor,” said Granger.
-- Не знала, що Мелфої такі злидарі, -- парирувала Ґрейнджер.

// 6168
//Draco stared at Granger.
Драко витріщився на неї.
// 6169
//He was starting to get a strange feeling about this.
Його охопило відчуття, що коїться щось дивне.
// 6170
//That particular reply didn’t seem like it should have come from this particular
//girl.
Щось було не так: саме ця відповідь не мала б лунати від саме цієї дівчини.

// 6171
//“Well,” said Draco, “you don’t get to be rich by wasting money, you know.”
-- Ну, марнотратством не збагатієш, знаєш.

// 6172
//“I don’t know if you know what a dentist is, Mr. Malfoy, but my parents are
//__dentists__ and anything less than ten Galleons isn’t worth my time at
//all.”
-- Не знаю, чи відомо тобі, хто такі дантисти, але мої батьки --
__дантисти__, і будь-що менше від десяти ґалеонів не вартує мого часу.

// 6173
//“Three Galleons,” Draco said, more as a probe than anything else.
-- Три ґалеони, -- сказав Драко, радше промацуючи ґрунт.

// 6174
//“Nope,” said Granger. “If you want an equal fight at all, I don’t believe that
//a Malfoy wants an equal fight less than he wants ten Galleons.”
-- Ні, якщо ти взагалі хочеш рівного бою, а я не вірю, що Мелфой цінує рівний
бій менше, ніж десять ґалеонів.

// 6175
//Draco was starting to get a __very__ strange feeling about this.
Драко охопило відчуття, що коїться щось __дуже__ дивне.

// 6176
//“No,” said Draco.
-- Ні, -- відмовився він.

// 6177
//“No?” said Granger. “This is a limited time offer, Mr. Malfoy. Are you sure you
//want to risk a whole year of being miserably crushed by the Boy-Who-Lived? That
//would be pretty embarrassing for the House of Malfoy, wouldn’t it?”
-- Ні? -- уточнила Ґрейнджер. -- Ця пропозиція діятиме недовго, містере Мелфой.
Ви впевнені, що ризик терпіти до кінця року нищівні поразки від
Хлопчика-Що-Вижив для вас прийнятний? Це буде досить принизливо для роду Мелфоїв, чи не так?

// 6178
//It was a very persuasive argument, one that was hard to refuse, but you didn’t
//get to be rich by spending money when your heart told you it was a setup.
Переконливий аргумент, такий важко було відкинути, проте ніхто ще не
розбагатів, витрачаючи гроші попри відчуття, що все це підлаштовано.

// 6179
//“No,” said Draco.
-- Ні, -- повторив Драко.

// 6180
//“See you on Sunday,” said Granger.
-- До зустрічі в неділю, -- попрощалася Ґрейнджер.

// 6181
//Draco turned and walked out of the office without another word.
Драко розвернувся й покинув кабінет без жодного слова.

// 6182
//That had been __not right…__
Щось тут було не так...

***

// 6183
//“Hermione,” Harry said patiently, “we’re __supposed__ to be plotting
//against each other. You could even betray me and it wouldn’t mean anything
//outside the battlefield.”
-- Герміоно, -- терпляче товкмачив Гаррі, -- ми __маємо__ змовлятися один проти
одного. Ти можеш навіть зрадити мене -- це нічого не означатиме поза полем бою.

// 6184
//Hermione shook her head. “It wouldn’t be nice, Harry.”
Герміона похитала головою:

-- Це було б негарно, Гаррі.

// 6185
//Harry sighed. “I don’t think you’re getting into the spirit of this at all.”
-- Здається, -- зітхнув Гаррі, -- ти зовсім не розумієш духу цієї гри.

// 6186
//__It wouldn’t be nice.__ She’d actually said that. Hermione didn’t know
//whether to be insulted at what Harry thought of her, or worried about whether
//she really __did __sound like that much of a goody-two-shoes usually.
"`Це було б негарно`". Так, саме так вона й сказала. Герміона не знала, чи ображатися їй,
що Гаррі був про неї такої думки, чи непокоїтися, що переважно вона й справді поводиться
аж занадто зразково.

// 6187
//It was probably time to change the subject.
Напевно, варто змінити тему.

// 6188
//“Anyway, are you doing anything special for tomorrow?” said Hermione. “It’s -”
-- Хай там як, ти щось уже запланував на завтра?
Це ж... --
// 6189
//Her voice cut off abruptly as she realized.
вона різко затнулася, зрозумівши.

// 6190
//“Yes, Hermione,” Harry said a little tightly, “what day is it?”
-- Так, Герміоно, -- дещо напружено відповів Гаррі, -- що завтра?

***

// 6191
//__Interlude:__
__Інтерлюдія:__

// 6192
//There was a time when October 31st had been called Halloween in magical
//Britain.
Колись у чаклунській Британії тридцять першого жовтня святкували Геловін.
// 6193
//Now it was Harry Potter Day.
Тепер це був День Гаррі Поттера.

// 6194
//Harry had turned down all the offers, even the one from Minister Fudge which
//might have been good for future political favors and which he __really__
//should have gritted his teeth and taken. But to Harry, October 31st would
//always be The Dark Lord Killed My Parents Day. There should have been a quiet,
//dignified memorial service somewhere, and if there was one, he hadn’t been
//invited.
Гаррі відмовився був від усіх запрошень, навіть від міністра Фаджа -- яке
могло виявитися дуже корисним із погляду майбутньої політичної підтримки, тож йому __справді__
варто було зціпити зуби й прийняти його. Але для Гаррі тридцять перше жовтня
назавжди залишиться Днем, Коли Темний Лорд Убив Моїх Батьків. Можливо, десь і відбувалася тиха й
гідна поминальна церемонія, однак туди його не
запросили.

// 6195
//Hogwarts got the day off to celebrate. Even the Slytherins didn’t dare wear
//black outside their own dorm. There were special events and special foods and
//the teachers looked the other way if anyone ran through the hallways. It was
//the tenth anniversary, after all.
У Гоґвортсі був святковий вихідний. Навіть слизеринці не наважувалися
носити чорне поза своїми підземеллями. Були особливі заходи, особлива їжа, а
вчителі дивилися деінде, коли хтось бігав коридорами. Зрештою, це була
десята річниця.

// 6196
//Harry spent the day in his trunk so as not to spoil it for anyone else, eating
//snack bars in place of meals, reading some of his sadder science fiction books
//(no fantasy), and writing a letter to Mum and Dad that was much longer than the
//ones he usually sent.
Гаррі пробув увесь день у своїй валізі, щоб не псувати всім свято: обідав
батончиками, читав сумну наукову фантастику (не фентезі) і
написав значно довшого, ніж зазвичай, листа своїм батькам.
