// 8168
//== Humanism, Pt 2
== Розділ 44. Гуманізм, ч.2

// 8169
//“Fawkes,” said Albus Dumbledore, his voice cracking, “help him, please -”
-- Фоуксе, -- сказав Дамблдор надтріснутим голосом, -- допоможи йому, будь
ласка...

// 8170
//A brilliant creature of red-gold shuffled into the field of vision, looking
//down quizzically; and it began to croon.
Блискуче червоно-золоте створіння зʼявилося в полі зору й питально поглянуло
вниз. Тоді почало наспівувати.

// 8171
//The meaningless chirps slid off the emptiness, there was nothing onto which
//they could hold.
Беззмістовне цвірінькання відскакувало від порожнечі, там не було нічого, за
що воно могло б зачепитися.

// 8172
//“You’re noisy,” said the voice, “you should die.”
-- Ти шумний, -- сказав голос, -- ти маєш померти.

// 8173
//“Chocolate,” Albus Dumbledore said, “you need chocolate, and your friends - but
//I dare not take you back -”
-- Шоколад, -- сказав Албус Дамблдор, -- тобі потрібен шоколад і твої друзі...
проте я не наважуся повернути тебе...

// 8174
//Then a shining raven came, and spoke in Professor Flitwick’s voice; whereupon
//Albus Dumbledore gasped in sudden comprehension, and cursed aloud at his own
//stupidity.
Тоді прибув яскравий крук, щось сказав голосом професора Флитвіка. Тоді Албус
Дамблдор скрикнув від раптового розуміння і вголос вилаявся на свою дурість.

// 8175
//The empty thing laughed at that, for it had retained the capacity to be amused.
Порожнє створіння розсміялося, бо зберегло здатність розважатися.

// 8176
//And a moment later they had all vanished in another flash of fire.
За мить вони всі зникли з черговим спалахом вогню.

***

// 8177
//It was only a moment, it seemed, between when Flitwick’s raven had flown to
//elsewhere, and when Albus Dumbledore reappeared in another crack of red and
//golden fire with Harry in his arms; but somehow in that time Hermione had
//already managed to fill her hands with chocolate.
Видавалося, після того, як крук професора Флитвіка кудись полетів, минула лише
мить, і Албус Дамблдор знову зʼявився з черговим тріскотом червоного та золотого
вогню, Гаррі був у нього на руках. Але якимось чином цього разу Герміона
вже встигла наповнити свої руки шоколадом.

// 8178
//Before Hermione even got there, chocolate had zoomed off the table and straight
//into Harry’s mouth, which a tiny part of her mind said was unfair,
//__he’d__ gotten a chance to do it for __her -__
Але не встигла Герміона до них дістатися, як шоколад сам злетів зі стола прямо
до рота Гаррі, і якась крихітна частина її розуму заявила, що це нечесно:
__він__-то __мав__ можливість зробити це для __неї__...

// 8179
//Harry spat the chocolate back out again.
Гаррі виплюнув шоколад.

// 8180
//“Go away,” said a voice so empty it wasn’t even cold.
-- Іди геть, -- сказав такий порожній голос, що він навіть не був холодним.

// 8181
//…
...

// 8182
//Everything seemed to freeze, everyone who had been moving toward Harry halted,
//all movements broken by the shock of those two dead words.
Усе ніби застигло. Усі, хто почав рух до Гаррі, заклякли на місці. Усі рухи
зупинив шок від цих двох мертвих слів.

// 8183
//Then: “No,” said Albus Dumbledore, “I will not,” and time resumed again, even
//as another piece of chocolate zoomed off the table and into Harry’s mouth.
Тоді:

-- Ні, -- сказав Албус Дамблдор, -- не піду.

І час знову пішов, коли ще один шматок шоколаду перелетів повітрям до рота Гаррі.

// 8184
//Hermione was close enough now that she could see Harry’s expression become more
//hateful, as his mouth chewed with a mechanical, unnatural rhythm.
Герміона тепер була достатньо близько, щоб бачити, що обличчя Гаррі сповнила
ненависть, а жував він з механічним, неприродним ритмом.

// 8185
//The Headmaster’s voice was grim as iron. “Filius, call Minerva, tell her she
//must come at speed.”
Директор був суворим, наче залізо.

-- Філіусе, поклич Мінерву, скажи, що вона має прийти швидко.

// 8186
//Professor Flitwick whispered to his silver raven, and it flew into the air and
//vanished.
Професор Флитвік зашепотів щось своєму срібному крукові, і той злетів у повітря
та зникнув.

// 8187
//Another piece of chocolate floated into Harry’s mouth, and the mechanical
//chewing continued.
Черговий шматок шоколаду залетів до рота Гаррі, і механічне жування
продовжилося.

// 8188
//There were more students gathering around where the Headmaster watched over
//Harry with grim eyes: Neville, Seamus, Dean, Lavender, Ernie, Terry, Anthony,
//none of them daring to approach any closer than Hermione had.
Навколо директора, що суворо спостерігав за Гаррі, зібралося більше студентів:
Невіл, Шеймус, Дін, Лаванда, Ерні, Террі, Ентоні. Жоден з них не наважувався
підійти ближче, ніж Герміона.

// 8189
//“What can we do?” said Dean in a trembling voice.
-- Що ми можемо зробити? -- запитав Дін, його голос тремтів.

// 8190
//“Back off and give him more space -” said the dry voice of Professor Quirrell.
-- Відійдіть і дайте йому більше простору... -- сухо сказав професор Квірел.

// 8191
//“No!” interrupted the Headmaster. “Let him be surrounded by his friends.”
-- Ні! -- перервав директор. -- Хай навколо нього будуть друзі.

// 8192
//Harry swallowed his chocolate, and said in that empty voice, “They’re stupid.
//They should die__mmmppphhh__” as another piece of chocolate entered his
//mouth.
Гаррі проковтнув шоколад і сказав порожнім голосом:

-- Вони дурні. Вони мають померти __мммффф__, -- коли ще один шматок шоколаду
наповнив його рот.

// 8193
//Hermione saw the looks of shock that crossed their faces.
Герміона бачила, яким шоком наповнилися їхні обличчя.

// 8194
//“He doesn’t mean it, does he?” Seamus said it like he was begging.
-- Він же несерйозно, правда? -- запитав Шеймус, ніби він благав про це.

// 8195
//“You don’t understand,” Hermione said, her voice breaking, “__that’s not
//Harry -__” and she shut up before she said anything more, but she __had__
//to say that much.
-- Ви не розумієте, -- сказала Герміона, її голос зривався, -- __це не
Гаррі...__ -- і вона замовкла, не сказавши більше нічого, але вона __мала__
сказати хоча б це.

// 8196
//She saw from the look on his face that Neville understood, and she also saw
//that the others didn’t. If Harry had really never thought anything like that,
//then being exposed to a Dementor for less than a minute wouldn’t have made him
//say it. That’s what they were probably thinking.
З виразу обличчя Невіла вона побачила, що він зрозумів, але також бачила, що
решта не зрозуміли. Якщо Гаррі справді ніколи так не думав, то дія дементора
протягом менш ніж хвилини не мала змусити його це сказати. Ось про що вони,
напевно, думали.

// 8197
//Less than a minute of Dementor exposure couldn’t create a whole new evil person
//inside you out of nothing.
Менше, ніж хвилина дії дементора, не могла створити цілковито нову злу особистість
всередині тебе з нічого.

// 8198
//But if that person was __already there__ -
Але якщо ця особистість __уже була там__...

// 8199
//__Does the Headmaster know?__
__Чи знає директор?__

// 8200
//Hermione looked up at the Headmaster, and found that Albus Dumbledore was
//gazing at __her__, and that his blue eyes had grown suddenly piercing -
Герміона поглянула на директора і побачила, що його погляд зосереджено на
__ній__, і його сині очі раптом стали дуже пронизливими...

// 8201
//Words came into her mind.
У її розумі зʼявилися слова.

// 8202
//__Do not speak of it,__ said the will of Dumbledore to her.
__Не розповідай про це__, -- сказала воля Дамблдора.

// 8203
//__You know,__ thought Hermione. __About his dark side.__
__Ви знаєте__, подумала Герміона. __Про його темну сторону.__

// 8204
//__I know. But this is beyond even that. Fawkes’s song cannot reach him,
//where he is lost.__
__Я знаю. Але це навіть гірше. Пісня Фоукса не може дістатися до нього там,
де він загубився.__

// 8205
//__What can we -__
__Що ми можемо...__

// 8206
//__I have a plan,__ sent the Headmaster. __Patience.__
__У мене є план__, надіслав директор. __Терпіння.__

// 8207
//Something about the tenor of that thought made Hermione nervous. __What
//sort of plan?__
Щось у манері цієї думки змусило Герміону нервуватися. __Який план?__

// 8208
//__It is better that you not know,__ sent the Headmaster.
__Краще тобі не знати__, надіслав директор.

// 8209
//Now Hermione was getting __really__ nervous. She didn’t know how
//__much__ the Headmaster knew about Harry’s dark side -
Тепер Герміона __справді__ нервувала. Вона не знала, __як багато__
директор знав про темну сторону Гаррі...

// 8210
//__A fair point,__ sent the Headmaster. __I am about to tell you;
//steel yourself so as not to react. Are you ready? Good. I am going to pretend
//to cast the Killing Curse on Professor McGonagall - DO NOT REACT, Hermione!__
__Слушно__, надіслав директор. __Я зараз розповім тобі. Підготуйся й не реагуй.
Ти готова? Добре. Я збираюся зробити вигляд, що використаю смертельне прокляття
на професорці Макґонеґел... НЕ РЕАГУЙ, Герміоно!__

// 8211
//That took work. The Headmaster really was crazy! That wouldn’t bring Harry
//__out__ of his dark side, Harry would go __completely berserk__, he’d
//__kill__ the Headmaster -
Це потребувало зусиль. Директор і справді був божевільним! Це не __поверне__
Гаррі з темної сторони, Гаррі __повністю розлютиться__, він __убʼє__
директора...

// 8212
//__But that is not true darkness,__ sent Albus Dumbledore. __That is
//protectiveness, that is love. Fawkes will be able to reach him, then. And when
//Harry sees that Minerva is alive after all, it will return him fully.__
__Але це не справжня пітьма__, надіслав Албус Дамблдор. __Це бажання захистити,
це любов. Тоді Фоукс зможе досягти його. А коли Гаррі побачить, що Мінерва
насправді жива, це повністю поверне його.__

// 8213
//The thought came to Hermione -
Герміоні дещо спало на думку...

// 8214
//__I doubt that will work,__ sent the Headmaster, __and you may not
//like the way he reacts if you try. But you may try if you wish.__
__Навряд чи це спрацює__, надіслав директор, __і тобі може не сподобатися,
як він відреагує, якщо спробуєш. Але можеш спробувати, якщо бажаєш.__

// 8215
//She hadn’t really meant that seriously! It was too -
Вона ж не серйозно! Це було надто...

// 8216
//Then her eyes moved, breaking gaze with the Headmaster, going to the boy
//looking around with empty, despising eyes as his mouth kept chewing and
//swallowing bar after bar of chocolate without effect. Her heart wrenched, and
//suddenly a lot of things didn’t seem to matter, only that there was a chance.
Тоді вона перевела погляд, розірвавши контакт з директором, і подивилася на
хлопця, що роззирався довкола порожніми, презирливими очима. Його рот продовжував
жувати й ковтати плитки шоколаду одну за одною без жодного ефекту. ЇЇ серце
стиснулося, і раптом купа всього більше не мало значення. Мало значення лише те,
що був шанс.

***

// 8217
//There was a compulsion to chew and swallow chocolate. The response to
//compulsion was killing.
Його примушували жувати й ковтати шоколад. Реакцією на примус було вбивство.

// 8218
//People had gathered around and stared. That was annoying. The response to
//annoyance was killing.
Люди зібралися навколо й витріщалися. Це дратувало. Реакцією на роздратування
було вбивство.

// 8219
//Other people were chattering in the background. That was insolent. The response
//to insolence was to inflict pain, but since none of them were useful, killing
//them would be simpler.
Інші люди базікали подалі. Це було зарозуміло. Реакцією на зарозумілість було
завдавати болю, але жоден з них не був корисним, тому вбити їх буде легше.

// 8220
//Killing all those people would be difficult. But many of them didn’t trust
//Quirrell, who was strong. Finding exactly the right trigger could cause them
//all to kill each other.
Вбити усіх цих людей буде складно. Але багато хто з них не довіряв Квірелові,
що був сильним. Пошук потрібного імпульсу, що призведе до того, що вони
повбивають один одного.

// 8221
//Then a person leaned over into the field of vision and did something completely
//strange, something that belonged to a foreign mode of thought, for which there
//was only a single response stored anywhere -
А тоді хтось схилився в його поле зору й зробив щось надзвичайно дивне, щось, що
стосувалося цілковито чужого режиму мислення, на це була збережена лише одна-єдина
реакція...

***

// 8222
//She heard the gasps around her, and they didn’t matter, she maintained the kiss
//on those chocolate-smeared lips as the tears welled in her eyes.
Вона почула зойки довкола, проте їй було начхати, вона продовжувала цілувати ці
замазані шоколадом губи, а в її очах накопичувалися сльози.

// 8223
//And Harry’s arms came up and pushed her away, and his lips yelled, “__I
//told you, no kissing!__”
А тоді Гаррі підвів руки й відштовхнув її, а його губи крикнули:

// hedrok: no kissing - копія 036:7278
// hedrok: повністю - копія в 047:8518
-- __Я ж казав тобі! Жодних поцілунків!__

***

// 8224
//“I think he’ll be all right now,” the Headmaster said, looking at where Harry
//was crying in great wretched sobs as Fawkes crooned over him. “Excellently
//done, Miss Granger. Do you know, not even I would have expected that to
//actually work?”
-- Гадаю, тепер з ним все буде гаразд, -- сказав директор. Він дивився туди, де
Гаррі плакав і гучно схлипував, а Фоукс наспівував над ним. -- Бездоганно виконано,
міс Ґрейнджер. Знаєте, навіть я не очікував, що це справді спрацює.

// 8225
//The phoenix’s song wasn’t meant for her, Hermione knew, but she could still be
//soothed by it, which she needed, because her life was officially over.
Пісня фенікса призначалася не їй, і Герміона знала про це, проте все одно втішала
її, і їй це було потрібно, бо її життя офіційно скінчене.
