// 8226
//== Humanism, Pt 3
== Розділ 45. Гуманізм, ч.3

// 8227
//Fawkes’s song gently trailed off into nothing.
Пісня Фоукса поступово вщухла.

// 8228
//Harry sat up from where he had lain on the winter-blasted grass, Fawkes still
//perched on his shoulder.
Гаррі сидів на вбитій зимою траві, на якій він щойно лежав, Фоукс досі був на
його плечі.

// 8229
//There were intakes of breath from all around him.
Навколо нього багато хто затамував подих.

// 8230
//“Harry,” said Seamus in a wavering voice, “are you all right?”
-- Гаррі, з тобою все гаразд? -- запитав Шеймус, його голос тремтів.

// 8231
//The peace of the phoenix was still in him, and warmth, from where Fawkes
//perched. Warmth, spreading out through him, and the memory of the song, still
//alive in the phoenix’s presence. There were terrible things that had happened
//to him, terrible thoughts that had passed through him. He had regained an
//impossible memory, for all that the Dementor had made him desecrate it. A
//strange word kept echoing in his mind. And all of that could be put on hold for
//later, while the phoenix still shone red and gold beneath the setting sun.
Феніксовий спокій ще не покинув його, як і тепло, що надходило з місця, де всівся
Фоукс. Тепло пронизувало його, як і спогади про пісню, що досі були яскравими
в присутності фенікса. З ним трапилися були жахливі речі, жахливі думки пройшли
крізь його розум. Він згадав неможливе, хоча дементор і змусив його спаплюжити
цей спогад. Дивне слово лунало в його голові. Але все це може зачекати, доки
фенікс ще сяє червоним та золотим під світлом заходу сонця.

// 8232
//Fawkes cawed at him.
Фоукс каркнув на нього.

// 8233
//“Something I have to do?” Harry said to Fawkes. “What?”
-- Щось, що я маю зробити? -- запитав Гаррі Фоукса. -- Що саме?

// 8234
//Fawkes bobbed its head in the direction of the Dementor.
Фоукс кивнув головою в напрямку дементора.

// 8235
//Harry looked at the unseeable horror still in its cage, then back at the
//phoenix, puzzled.
Гаррі поглянув на невидимий жах, що досі був у клітці, а потім спантеличено
повернув погляд до фенікса.

// 8236
//“Mr. Potter?” said Minerva McGonagall’s voice from behind him. “__Are__
//you all right?”
-- Містере Поттер? -- почув він голос Мінерви з-за спини. -- З вами __справді__
все гаразд?

// 8237
//Harry climbed to his feet and turned.
Гаррі звівся на ноги й обернувся.

// 8238
//Minerva McGonagall was looking at him, looking very worried; Albus Dumbledore
//beside her was studying him carefully; Filius Flitwick appeared tremendously
//relieved; and all the students were just plain staring.
Мінерва Макґонеґел дуже стурбовано дивилася на нього. Албус Дамблдор стояв поряд
та уважно його розглядав. Філіуса Флитвіка, видавалося, переповнювало надзвичайне
полегшення. А всі учні просто витріщалися.

// 8239
//“I think so, Professor McGonagall,” Harry said calmly. He’d almost said
//__Minerva__ before managing to stop himself. While Fawkes was on his
//shoulder, at least, Harry was fine; it might be that he would collapse a moment
//after Fawkes left, but somehow thoughts like that didn’t seem important. “I
//think I’m okay.”
-- Гадаю так, професорко Макґонеґел, -- спокійно відповів Гаррі. Він ледь не
бовкнув "`Мінерво`", але вчасно зупинився. Принаймні, доки Фоукс сидітиме на
його плечі, все з ним буде добре. Можливо, він знепритомніє, щойно Фоукс покине
його, проте це не здавалося важливим. -- Гадаю, я в нормі.

// 8240
//There ought to have been cheering, or sighs of relief, or something, but no one
//seemed to know what to say, no one at all.
Хтось мав би почати підбадьорювати його, чи хоча б полегшено видихнути абощо,
проте жоден з них не знав, що сказати. Жоден.

// 8241
//The peace of the phoenix lingered.
Феніксовий спокій тривав.

// 8242
//Harry turned back. “Hermione?” he said.
Гаррі обернувся.

-- Герміоно?

// 8243
//Everyone with the tiniest smidgin of romance in their hearts held their breath.
Усі з бодай крихтою романтики в серці затамували подих.

// 8244
//“I don’t really know how to say thank you graciously,” Harry said quietly, “any
//more than I know how to apologize. All I can say that if you’re wondering
//whether it was the right thing to do, it was.”
-- Я не знаю як гідно віддячити тобі, -- тихо сказав Гаррі, -- так само, як і
не знаю, як вибачатися. Можу сказати лише, що якщо ти сумніваєшся, чи правильно
вчинила, то знай, що правильно.

// 8245
//The boy and the girl gazed into each other’s eyes.
Хлопець та дівчина поглянули в очі одне одному.

// 8246
//“Sorry,” Harry said. “About what happens next. If there’s anything I can do -”
-- Вибач, -- сказав Гаррі. -- За те, що буде далі. Якщо я можу щось зробити...

// 8247
//“No,” Hermione said back. “There isn’t. It’s all right, though.” Then she
//turned from Harry and walked away, toward the path that led back to the gates
//of Hogwarts.
-- Ні, -- відповіла Герміона. -- Не можеш. Втім, усе гаразд.

Тоді вона відвернулася від Гаррі та пішла в бік шляху, що вів до брами Гоґвортсу.

// 8248
//A number of girls gave Harry puzzled looks, and then followed her. As they
//went, you could hear the excited questions starting.
Чимало дівчат обдарували Гаррі спантеличеними поглядами, а потім пішли за нею.
Коли вони трохи віддалилися, від них почулися сповнені емоцій розпитування.

// 8249
//Harry looked at them as they left, turned back to look at the other students.
//They’d seen him on the ground, screaming, and…
Гаррі дивився на них, доки вони не зникли з поля зору, а потім обернувся до
інших учнів. Вони бачили його на землі, як він кричав, і...

// 8250
//Fawkes nuzzled his cheek, briefly.
Фоукс ткнувся дзьобом у його щоку.

// 8251
//…and that would help them, someday, understanding that the Boy-Who-Lived could
//also be hurt, could be wretched. So that when they were hurt and wretched
//themselves, they would remember seeing Harry writhing on the ground, and know
//that their own pain and troubles didn’t mean they’d never amount to anything.
//Had the Headmaster calculated that, when he had let the other students stay and
//watch?
...і це колись допоможе їм зрозуміти, що Хлопчик-Що-Вижив також може відчувати
біль, що йому теж може бути нестерпно. Щоб тоді, коли їм самим буде боляче й
нестерпно, вони згадали, як Гаррі корчився на землі, і знали, що їхні
проблеми й тривоги не означають, що в них ніколи нічого не вийде. Чи для цього
директор дозволив решті учнів залишитися та дивитися?

// 8252
//Harry’s eyes went back to the tall tattered cloak, almost absentmindedly, and
//without really being aware of what he was speaking, Harry said, “It shouldn’t
//ought to exist.”
Очі Гаррі майже бездумно поглянули на високий подертий плащ, і він несвідомо
сказав:

-- Це не має існувати.

// 8253
//“Ah,” said a dry, precise voice. “I thought you might say that. I am very sorry
//to tell you, Mr. Potter, that Dementors cannot be killed. Many have tried.”
-- А, -- сказав сухий точний голос. -- Я знав, що ви можете таке сказати. Мені
дуже прикро повідомляти вам, містере Поттер, що дементорів неможливо вбити.
Багато хто намагався.

// 8254
//“Really?” Harry said, still absentmindedly. “What did they try?”
-- Справді? -- досі бездумно сказав Гаррі. -- А що вони пробували?

// 8255
//“There is a certain extremely dangerous and destructive spell,” Professor
//Quirrell said, “which I will not name here; a spell of cursed fire. It is what
//you would use to destroy an ancient device such as the Sorting Hat. It has no
//effect on Dementors. They are undying.”
-- Існує певне надзвичайно небезпечне й руйнівне закляття, -- сказав професор
Квірел, -- що я його не називатиму тут, -- закляття проклятого вогню. Його можна
використовувати для знищення древніх пристроїв на кшталт Сортувального
Капелюха. Воно не має жодного ефекту на дементорів. Вони невмирущі.

// 8256
//“They are not undying,” said the Headmaster. The words mild, the gaze sharp.
//“They do not possess eternal life. They are wounds in the world, and attacking
//a wound only makes it larger.”
-- Вони не невмирущі, -- сказав директор. Слова спокійні, погляд гострий. --
Вони не мають вічного життя. Вони -- рани цього світу, а напад на рану лише
збільшує її.

// 8257
//“Hm,” Harry said. “Suppose you threw it into the Sun? Would it be destroyed?”
-- Гм... -- почав Гаррі. -- А якщо кинути дементора в Сонце? Його буде знищено?

// 8258
//“__Throw__ it into the __Sun?__” squeaked Professor Flitwick, looking
//like he wanted to faint.
-- __Кинути__ дементора в __Сонце__? -- пискнув професор Флитвік. Видавалося,
він от-от знепритомніє.

// 8259
//“It seems unlikely, Mr. Potter,” Professor Quirrell said dryly. “The Sun is
//very large, after all; I doubt the Dementor would have much effect on it. But
//it is not a test I would like to try, Mr. Potter, just in case.”
-- Це здається малоймовірним, містере Поттер, -- сухо сказав професор Квірел. --
Зрештою, Сонце дуже велике. Сумніваюся, що дементор сильно на нього вплине. Втім,
я б волів цього не перевіряти, містере Поттер, про всяк випадок.

// 8260
//“I see,” Harry said.
-- Розумію, -- сказав Гаррі.

// 8261
//Fawkes cawed a final time, mantled his wings around Harry’s head, and then
//launched himself from Harry. Launched himself straight toward the Dementor,
//screaming a great piercing cry of defiance that echoed around the field. And
//before anyone could react to that, there was a flash of fire, and Fawkes was
//gone.
Фоукс каркнув востаннє, обгорнув крилами голову Гаррі та злетів. Та полетів прямо на
дементора з пронизливим криком непокори, що рознісся над усім полем. Не встигнув
ніхто й поворухнутися, як спалахнув вогонь, і Фоукс зник.

// 8262
//The peace faded, a little.
Частка спокою зникла.

// 8263
//The warmth faded, a little.
Частка тепла зникла.

// 8264
//Harry took in a deep breath, let it out again.
Гаррі глибоко вдихнув та видихнув.

// 8265
//“Yep,” Harry said. “Still alive.”
-- Ага, -- сказав Гаррі. -- Я досі живий.

// 8266
//Again that silence, again the absence of cheering; no one seemed to know how to
//respond -
Знову ця тиша, знову відсутність підбадьорювання. Ніхто не знав, що сказати у
відповідь...

// 8267
//“It is good to know you are fully recovered, Mr. Potter,” Professor Quirrell
//said firmly, as though to deny any other possibility. “Now, I believe Miss
//Ransom was up next?”
-- Радий чути, що ви цілковито одужали, містере Поттер, -- твердо сказав
професор Квірел, ніби заперечував можливість іншого. -- Тепер, здається, черга
міс Рензом?

// 8268
//That started a bit of an argument, in which Professor Quirrell was right and
//everyone else was wrong. The Defense Professor pointed out that, despite the
//understandable emotions of all concerned, the chance of a similar mishap
//occurring to any other student verged on the infinitesimal; the more so as they
//now knew to avoid mischances with wands. And meanwhile, there were other
//students who needed to take their own best chance at casting a corporeal
//Patronus Charm, or else learn the feeling of a Dementor so they could flee, and
//discover their own degree of vulnerability…
Тоді почалася коротка суперечка, в якій професор Квірел мав рацію, а решта
помилялися. Професор із захисту зазначив, що, незважаючи на зрозумілі емоції
всіх присутніх, імовірність того, що така ж неприємна пригода спіткає іншого
учня, нескінченно мала. Тим паче, вони тепер знали, що треба уникати таких
випадків із паличками. А тим часом були інші учні, що їм треба було скористатися
своїм шансом створити матеріального патронуса, чи хоча б навчитися впізнавати
наближення дементора, щоб мати можливість втекти, та дізнатися про рівень своєї
вразливості...

// 8269
//In the end it turned out that Dean Thomas and Ron Weasley of Gryffindor were
//the only ones left who were still willing to go anywhere near the Dementor,
//which simplified the argument.
Зрештою виявилося, що лише Дін Томас та Рон Візлі з Ґрифіндору досі готові були
підійти до дементора, що допомогло розвʼязати суперечку.

// 8270
//Harry glanced in the Dementor’s direction. The word echoed in his mind again.
Гаррі поглянув у напрямку дементора. Слово лунало в його розумі.

// 8271
//__All right,__ Harry thought to himself, __if the Dementor is a
//riddle, what is the answer?__
__Гаразд__, подумав він, __якщо дементор -- загадка, то яка відповідь?__

// 8272
//And just like that, it was obvious.
І тоді все стало очевидно.

// 8273
//Harry looked at the tarnished, slightly corroded cage.
Гаррі поглянув на окиснену, дещо розʼїдену клітку.

// 8274
//He saw what lay beneath the tall, tattered cloak.
Він побачив, що було під високим пошматованим плащем.

// 8275
//That was it, then.
Он воно як.

// 8276
//Professor McGonagall came and spoke to Harry. She hadn’t seen the worst of it,
//so there was only a slight glitter of water in her eyes. Harry told her that he
//needed to talk to her afterward and ask a question he’d put off for a while,
//but that didn’t need to happen right now, if she was busy. There was a certain
//look about her which suggested that she had been pulled away from something
//important; and Harry observed this to her, and said that she honestly didn’t
//need to feel guilty about leaving. This earned him something of a sharp look,
//but then leave she did, hurriedly, with a promise that they would talk later.
Професорка Макґонеґел підійшла порозмовляти з Гаррі. Вона не бачила найгіршої
частини, у її очах лише ледь блищала волога. Гаррі сказав їй, що йому треба буде
дещо з нею обговорити пізніше та поставити питання, яке він довго відкладав, проте
це все зачекає, якщо в неї нагальні справи. Щось у її поведінці підказало йому,
що її відірвали від чогось важливого. Гаррі сказав їй про це й запевнив, що вона
не має почуватися винною, що піде. Через це він отримав суворий погляд, проте вона
квапливо пішла, пообіцявши, що вони порозмовляють пізніше.

// 8277
//Dean Thomas cast his white bear again, even in the Dementor’s presence; and Ron
//Weasley put up an adequate shield of sparkling mist. Which concluded the day,
//so far as everyone else was concerned, and Professor Flitwick began to herd the
//students back to Hogwarts. When it was clear that Harry meant to stay behind,
//Professor Flitwick looked at him quizzically; and Harry, for his part, glanced
//significantly at Dumbledore. Harry didn’t know what Professor Flitwick made of
//that, but after a sharp gaze of warning, his Head of House departed.
Дін Томас знову створив білого ведмедя -- навіть у присутності дементора. Рон
Візлі вичаклував достатній щит з яскравого туману. Це завершувало сьогоднішній
день, наскільки було відомо решті. Професор Флитвік почав збирати учнів разом
для повернення до Гоґвортсу. Коли стало ясно, що Гаррі збирається залишитися,
професор Флитвік запитально подивився на нього. Гаррі у відповідь значуще
поглянув на Дамблдора. Гаррі не знав, як саме професор Флитвік сприйняв це, проте
після суворого попереджального погляду вихователь його гуртожитку пішов.

// 8278
//And so remained only Harry, Professor Quirrell, Headmaster Dumbledore, and an
//Auror trio.
І ось залишилися лише Гаррі, професор Квірел, директор Дамблдор та трійка
аврорів.

// 8279
//It would have been better to get rid of the trio first, but Harry couldn’t
//think of a good way to do that.
Краще було б спочатку позбутися трійки, але Гаррі не міг вигадати способу,
як це зробити.

// 8280
//“All right,” said Auror Komodo, “let’s take it back.”
-- Гаразд, -- сказав аврор Комодо, -- повернімо його.

// 8281
//“Excuse me,” Harry said. “I’d like to have another go at the Dementor.”
-- Перепрошую, -- сказав Гаррі. -- Я хотів би спробувати з дементором ще раз.

***

// 8282
//Harry’s request met with a certain amount of opposition of the __you’re
//completely insane__ variety, though it was only Auror Butnaru who actually said
//that out loud.
Прохання Гаррі викликало опір різновиду "`та ти зовсім божевільний`", хоча вголос це
сказав лише аврор Бутнару.

// 8283
//“Fawkes told me to,” Harry said.
-- Фоукс мені це доручив, -- сказав Гаррі.

// 8284
//This did not overcome all the opposition, despite the look of shock it produced
//on Dumbledore’s face. The argument went on, and it was starting to wear the
//edges off the phoenix’s remaining peace, which annoyed Harry, though only a
//little.
Це не зламало опір, хоча викликало чималий подив на обличчі Дамблдора. Вони
сперечалися далі, і це майже розвіяло залишки феніксового спокою. Це роздратувало
Гаррі, але лише трохи.

// 8285
//“Look,” Harry said, “I’m pretty sure I know what I was doing wrong before.
//There’s a kind of person who has to use a different sort of warm and happy
//thought. Just let me try it, okay?”
-- Послухайте, -- сказав Гаррі, -- я доволі впевнений, що зрозумів, що я робив
не так. Існують люди, що їм потрібні теплі й щасливі спогади іншого типу.
Просто дозвольте спробувати, гаразд?

// 8286
//This did not prove persuasive either.
Це також не виявилося переконливим.

// 8287
//“I think,” Professor Quirrell said finally, staring at Harry with narrowed
//eyes, “that if we do not allow him to do this under supervision, he may, at
//some point or another, sneak off and look for a Dementor on his own. Do I
//accuse you falsely, Mr. Potter?”
-- Гадаю, -- зрештою сказав професор Квірел, він дивився на Гаррі зіщуленими
очима, -- якщо не дозволити йому зробити це під наглядом, він може одного дня
нишком втекти й піти шукати дементора. Чи мої звинувачення безпідставні,
містере Поттер?

// 8288
//There was an appalled pause at this. It seemed like a good time to play his
//trump card.
Усі приголомшено замовкли. Видавалося, саме час зіграти козирем.

// 8289
//“I don’t mind if the Headmaster keeps his own Patronus up,” Harry said.
//__For I will be in the presence of a Dementor just the same, Patronus or
//no.__
-- Я не проти, якщо директор не розвіюватиме свій патронус, -- сказав Гаррі.

__Бо я все одно буду в присутності дементора, за патронусом чи ні.__

// 8290
//There was confusion at this, even Professor Quirrell looked puzzled; but the
//Headmaster finally acceded, since it didn’t seem likely that Harry could be
//hurt through four Patronuses.
Це ви{stress}кликало спантеличення, навіть професор Квірел був здивований.
Але нарешті директор згодився, бо навряд чи Гаррі міг зазнати шкоди крізь
чотирьох патронусів.

// 8291
//__If the Dementor could not reach through your Patronus on some level,
//Albus Dumbledore, you would not see a naked man painful to look upon…__
__Якби дементор не міг впливати крізь ваш патронус на якомусь рівні, Албусе
Дамблдоре, то ви б не бачили голого чоловіка, що на нього боляче дивитися...__

// 8292
//Harry didn’t say it out loud, for obvious reasons.
Гаррі не сказав цього вголос через очевидні причини.

// 8293
//And they began to walk toward the Dementor.
І вони почали наближатися до дементора.

// 8294
//“Headmaster,” Harry said, “suppose the Ravenclaw door asked you this riddle:
//What lies at the center of a Dementor? What would you say?”
-- Директоре, -- сказав Гаррі, -- припустімо, що двері Рейвенклову поставили б
вам загадку: "`що є центром дементора?`" Що ви б відповіли?

// 8295
//“Fear,” said the Headmaster.
-- Страх, -- сказав директор.

// 8296
//It was a simple enough mistake. The Dementor approached, and the fear came over
//you. The fear hurt, you felt the fear weakening you, you wanted the fear to go
//away.
Легко було помилитися. Дементор наближався, і ти починав боятися. Страх шкодив,
ти відчував, як страх позбавляє тебе сил, і ти хотів, щоб страх минув.

// 8297
//It was natural to think the fear was the problem.
Природно було вважати, що проблема -- страх.

// 8298
//So they’d concluded that the Dementor was a creature of pure fear, that there
//was nothing there to fear but fear itself, that the Dementor couldn’t hurt you
//if you weren’t afraid…
І тому було вирішено, що дементор -- створіння щирого страху, і немає чого
боятися, крім самого страху, що дементор не може нашкодити тобі, якщо ти не
боїшся...

// 8299
//But…
Але...

// 8300
//__What lies at the center of a Dementor?__
__Що є центром дементора?__

// 8301
//__Fear.__
__Страх.__

// 8302
//__What is so horrible that the mind refuses to see it?__
__Що є настільки жахливим, що розум відмовляється це бачити?__

// 8303
//__Fear.__
__Страх.__

// 8304
//__What is impossible to kill?__
__Що неможливо вбити?__

// 8305
//__Fear.__
__Страх.__

// 8306
//…it didn’t quite fit, once you thought about it.
...ця відповідь не дуже пасувала, якщо замислитися.

// 8307
//Though it was clear enough why people would be reluctant to look beyond the
//first answer.
Хоча було доволі очевидно, чому люди не поспішали шукати ще іншої відповіді після першої.

// 8308
//People __understood__ fear.
Люди __розуміли__ страх.

// 8309
//People knew what they were supposed to __do__ about fear.
Люди знали, що треба __робити__ зі страхом.

// 8310
//So, faced with a Dementor, it wouldn’t exactly be comforting to ask: ‘What if
//the fear is just a side effect rather than the main problem?’
Отже під час зустрічі з дементором не дуже приємно ставити собі питання: "`А що
як страх -- це лише побічний ефект, а не головна проблема?`"

// 8311
//They had come very close to the Dementor’s cage guarded by four Patronuses,
//when there came sharp intakes of breath from the three Aurors and Professor
//Quirrell. Everyone’s faces turned to look at the Dementor, seeming to listen;
//there was horror on Auror Goryanof’s face.
Вони вже дуже близько підійшли до клітки з дементором, що його охороняли чотири
патронуси, коли три аврори та професор Квірел різко ввібрали повітря. Усі
поглянули на дементора і ніби слухали його; на лиці аврора Ґорянофа застигнув
жах.

// 8312
//Then Professor Quirrell raised his head, his face hard, and spat toward the
//Dementor.
Тоді професор Квірел підвів голову, його обличчя було суворим, і плюнув у напрямку
дементора.

// 8313
//“It did not like having its prey taken from it, I suppose,” Dumbledore said
//quietly. “Well. If it becomes necessary, Quirinus, there will always be a
//refuge for you at Hogwarts.”
-- Гадаю, йому не сподобалося, що в нього забрали здобич, -- тихо сказав
Дамблдор. -- Ну, якщо буде потрібно, Квіріне, для тебе завжди буде прихисток у
Гоґвортсі.

// 8314
//“What did it say?” said Harry.
-- Що він сказав? -- запитав Гаррі.

// 8315
//Every head swung to stare at him.
Усі повернули до нього голови та втупилися в нього.

// 8316
//“You didn’t hear it…?” Dumbledore said.
-- Ти не чув?.. -- запитав Дамблдор.

// 8317
//Harry shook his head.
Гаррі заперечно похитав головою.

// 8318
//“It said to me,” said Professor Quirrell, “that it knew me, and that it would
//hunt me down someday, wherever I tried to hide.” His face was rigid, showing no
//fright.
-- Він сказав мені, -- відповів професор Квірел, -- що знає мене, і що колись
вистежить мене, хай де я намагатимуся сховатися.

Його лице було незворушним, не показувало і тіні страху.

// 8319
//“Ah,” Harry said. “I wouldn’t worry about that, Professor Quirrell.”
//__It’s not like Dementors can actually talk, or think; the structure they
//have is borrowed from your own mind and expectations…__
-- А, -- сказав Гаррі. -- Я б не хвилювався про це, професоре Квірел.

__Навряд чи дементори справді вміють розмовляти чи думати, вони все позичають з
вашого власного розуму та очікувань...__

// 8320
//Now everyone was giving him __very__ strange looks. The Aurors were
//glancing nervously at each other, at the Dementor, at Harry.
Тепер усі __дуже__ дивно на нього дивилися. Аврори знервовано дивилися
то один на одного, то на дементора, то на Гаррі.

// 8321
//And they stood directly before the Dementor’s cage.
І ось вони стояли прямо поряд із кліткою з дементором.

// 8322
//“They are wounds in the world,” Harry said. “It’s just a wild guess, but I’m
//guessing the one who said that was Godric Gryffindor.”
-- Вони -- рани світу, -- сказав Гаррі. -- Це лише здогад навмання, проте гадаю,
що це цитата Ґодрика Ґрифіндора.

// 8323
//“Yes…” said Dumbledore. “How did you know?”
-- Так... -- сказав Дамблдор. -- Звідки ти дізнався?

// 8324
//__It is a common misconception__, thought Harry, __that all the best
//rationalists are Sorted into Ravenclaw, leaving none for other Houses. This is
//not so; being Sorted into Ravenclaw indicates that your strongest virtue is
//curiosity, wondering and desiring to know the true answer. And this is not the
//__only__ virtue a rationalist needs. Sometimes you have to work hard on a
//problem, and stick to it for a while. Sometimes you need a clever plan for
//finding out. And sometimes what you need more than anything else to see an
//answer, is the courage to face it…__
// hedrok: схожий текст у 017:2853
__Поширене помилкове уявлення__, подумав Гаррі, __ніби всіх найкращих
раціоналістів сортують до Рейвенклову, а в інших гуртожитках їх немає. Це не
так. Опинитися в Рейвенклові означає, що твоєю найсильнішою рисою
характеру є цікавість: бажання дізнатися справжню відповідь. А це не
__єдина__ риса, що потрібна раціоналістові. Подеколи треба старанно працювати над
задачею, довго над нею думати. Подеколи потрібен хитрий план, щоб дізнатися
відповідь. А інколи, щоб побачити відповідь, найбільше потрібна сміливість
визнати її...__

// 8325
//Harry’s gaze went to what lay beneath the cloak, the horror far worse than any
//decaying mummy. Rowena Ravenclaw might also have known, for it was an obvious
//enough riddle once you saw it as a riddle.
Гаррі подивився на те, що було під плащем, -- на жах значно страшніший за
будь-яку мумію, що розкладається. Можливо, Ровена Рейвенклов також знала, адже
це доволі очевидна загадка, якщо розуміти, що це загадка.

// 8326
//And it was also obvious why the Patronuses were animals. The animals didn’t
//know, and so were sheltered from the fear.
Також ставало очевидним, чому патронуси були тваринами. Тварини не знали, і
тому були захищені від страху.

// 8327
//But Harry knew, and would always know, and would never be able to forget. He’d
//tried to teach himself to face reality without flinching, and though Harry had
//not yet mastered that art, still those grooves had been worn into his mind, the
//learned reflex to look __toward__ the painful thought instead of away.
//Harry would never be able to forget by thinking warm happy thoughts about
//something else, and that was why the spell hadn’t worked for him.
Але Гаррі знав, і завжди знатиме, і ніколи не зможе забути. Він старався був
привчити себе дивитися на дійсність і не здригатися, і хоча Гаррі ще не
опанував це мистецтво, але звичка вже була вбудована в його розум: рефлекс
__дивитися на__ болісні теми, а не відвертати погляд. Гаррі ніколи не зможе
забути цього за допомогою теплих щасливих думок про щось інше, ось чому закляття для
нього не працювало.

// 8328
//So Harry would think a warm happy thought that __wasn’t__ about something
//else.
Тож Гаррі використає теплу щасливу думку __не__ про щось інше.

// 8329
//Harry drew forth his wand that Professor Flitwick had returned to him, put his
//feet into the beginning stance for the Patronus Charm.
Гаррі витягнув уперед паличку, що її повернув професор Флитвік, прийняв
початкову позу для чарів патронуса.

// 8330
//Within his mind, Harry discarded the last remnants of the peace of the phoenix,
//put aside the calm, the dreamlike state, remembered instead Fawkes’s piercing
//cry, and roused himself for battle. Called upon all the pieces and elements of
//himself to awaken. Raised up within himself all the strength that the Patronus
//Charm could ever draw upon, to put himself into the right frame of mind for the
//final warm and happy thought; remembered all bright things.
Гаррі відкинув рештки феніксового спокою, вийшов з незворушного, примарного стану
та згадав натомість пронизливий крик Фоукса, підготувався до битви. Закликав
усі частинки й елементи себе прокинутися. Зібрав усю можливу силу, що могла
живити чари патронуса, налаштував розум для останньої теплої й щасливої думки.
Згадав усі яскраві речі.

// 8331
//The books his father had bought him.
Книжки, що їх купив йому тато.

// 8332
//Mum’s smile when Harry had handmade her a mother’s day card, an elaborate thing
//that had used half a pound of spare electronics parts from the garage to flash
//lights and beep a little tune, and had taken him three days to make.
Усмішку мами, коли Гаррі сам зробив їй листівку на день матері -- це був
складний пристрій, для якого він використав чверть кілограма запасних електричних
частин з гаража. Лампочки мигтіли, листівка видавала невеличку мелодію. Він
працював над нею три дні.

// 8333
//Professor McGonagall telling him that his parents had died well, protecting
//him. As they had.
Як професорка Макґонеґел сказала йому, що його батьки померли гідно, захищаючи
його. Це було правдою.

// 8334
//Realizing that Hermione was keeping up with him and even running faster, that
//they could be true rivals and friends.
Усвідомлення того, що Герміона не відстає від нього, а навіть іде попереду, що
вони можуть бути справжніми суперниками та друзями.

// 8335
//Coaxing Draco out of the darkness, watching him slowly move toward the light.
Витягування Драко з темряви хитрощами, можливість бачити, як він повільно йде
до світла.

// 8336
//Neville and Seamus and Lavender and Dean and everyone else who looked up to
//him, everyone that he would have fought to protect if anything threatened
//Hogwarts.
Невіл, Шеймус, Лаванда, Дін та всі інші, що рівняються на нього, всі, заради
захисту кого він готовий боротися, якщо щось загрожуватиме Гоґвортсу.

// 8337
//Everything that made life worth living.
Все, що робило життя вартим того, щоб його прожити.

// 8338
//His wand rose into the starting position for the Patronus Charm.
Він підняв паличку в початкову позицію для чарів патронуса.

// 8339
//Harry thought of the stars, the image that had almost held off the Dementor
//even without a Patronus. Only this time, Harry added the missing ingredient,
//he’d never truly seen it but he’d seen the pictures and the video. The Earth,
//blazing blue and white with reflected sunlight as it hung in space, amid the
//black void and the brilliant points of light. It belonged there, within that
//image, because it was what gave everything else its meaning. The Earth was what
//made the stars significant, made them more than uncontrolled fusion reactions,
//because it was Earth that would someday colonize the galaxy, and fulfill the
//promise of the night sky.
Гаррі згадав зірки -- зображення, що майже стримало дементора навіть без
патронуса. Тільки цього разу Гаррі додав елемент, що його бракувало, він
ніколи не бачив цього особисто, проте бачив достатньо світлин та відео.
Синьо-біла земля сяяла віддзеркаленим світлом Сонця й висіла у космосі серед
чорної порожнечі та яскравих точок світла. Вона мала бути там, у цьому
зображенні, бо саме вона надавала усьому сенсу. Через Землю зірки були
значущими, ставали чимось більшим, ніж просто безконтрольні термоядерні
реактори, адже саме з Землі колись колонізують галактику, здійснять обіцянку
нічного неба.

// 8340
//Would they still be plagued by Dementors, the children’s children’s children,
//the distant descendants of humankind as they strode from star to star? No. Of
//course not. The Dementors were only little nuisances, paling into nothingness
//in the light of that promise; not unkillable, not invincible, not even close.
//You had to put up with little nuisances, if you were one of the lucky and
//unlucky few to be born on Earth; on Ancient Earth, as it would be remembered
//someday. That too was part of what it meant to be alive, if you were one of the
//tiny handful of sentient beings born into the beginning of all things, before
//intelligent life had come fully into its power. That the much vaster future
//depended on what you did here, now, in the earliest days of dawn, when there
//was still so much darkness to be fought, and temporary nuisances like
//Dementors.
Чи переслідуватимуть дементори прапрапрадітей, далеких нащадків людства, коли ті
пересуватимуться від зірки до зірки? Ні. Звісно ж ні. Дементори -- лише невеличка
незручність, що зникне у світлі цієї обіцянки. Не безсмертні, не
невразливі, зовсім ні. Треба долати невеличкі незручності, якщо ти був одним з
тих, кому водночас пощастило та не пощастило народитися на Землі. На Древній Землі,
як її колись називатимуть. Це також було частиною життя: якщо ти був одним з
горстки живих істот, що народилися на самому початку, перед тим, як розумне
життя досягло своєї повної сили, то набагато більше майбутнє залежало від того,
що ти робив тут, зараз, у найперші дні світанку, коли ще існувало так багато
темряви, яку треба побороти, та тимчасових незручностей на кшталт дементорів.

// 8341
//Mum and Dad, Hermione’s friendship and Draco’s journey, Neville and Seamus and
//Lavender and Dean, the blue sky and brilliant Sun and all bright things, the
//Earth, the stars, the promise, everything humanity was and everything it would
//become…
Мама й тато, дружба Герміони та світоглядна подорож Драко, Невіл, Шеймус,
Лаванда та Дін, синє небо та сяйво Сонця, і всі яскраві речі: Земля, зірки, ця
обіцянка, усе, чим людство було, і чим воно стане...

// 8342
//On the wand, Harry’s fingers moved into their starting positions; he was ready,
//now, to think the right sort of warm and happy thought.
На паличці пальці Гаррі пересунулися в початкові позиції. Тепер він був готовий,
він вибрав правильну теплу й щасливу думку.

// 8343
//And Harry’s eyes stared directly at that which lay beneath the tattered cloak,
//looked straight at that which had been named Dementor. The void, the emptiness,
//the hole in the universe, the absence of color and space, the open drain
//through which warmth poured out of the world.
І Гаррі поглянув прямо на те, що було під подраним плащем, втупився у те,
що називали дементором. Рана, порожнеча, діра у всесвіті, відсутність кольору
та простору, відкритий стік для тепла цього світу.

// 8344
//The fear it exuded stole away all happy thoughts, its closeness drained your
//power and strength, its kiss would destroy everything that you were.
Страх від нього крав усі щасливі думки, його наближення забирало всі сили, його
поцілунок знищував те, ким ти є.

// 8345
//__I know you now__, Harry thought as his wand twitched once, twice, thrice
//and four times, as his fingers slid exactly the right distances, __I
//comprehend your nature, you symbolize Death, through some law of magic you are
//a shadow that Death casts into the world.__
__Тепер я знаю тебе__, подумав Гаррі, змахуючи паличкою один, два, три й чотири
рази, його пальці сковзнули на правильні відстані. __Я осягнув твою природу, ти
символізуєш смерть, через якийсь закон магії ти є тінню смерті в цьому світі.__

// 8346
//__And Death is not something I will ever embrace.__
__А смерті я ніколи не прийму.__

// 8347
//__It is only a childish thing, that the human species has not yet
//outgrown.__
__Це лише дитяча проблема, що її людство ще не переросло.__

// 8348
//__And someday…__
__А колись...__

// 8349
//__We’ll get over it…__
__Ми залишимо тебе позаду...__

// 8350
//__And people won’t have to say goodbye any more…__
__І людям більше не доведеться прощатися...__

// 8351
//The wand rose up and leveled straight at the Dementor.
Він вказав паличкою прямо на дементора.

// 8352
//__“EXPECTO PATRONUM!”__
-- __ЕКСПЕКТО ПАТРОНУМ!__

// 8353
//The thought exploded from him like a breaking dam, surged down his arm into his
//wand, burst from it as blazing white light. Light that became corporeal, took
//on shape and substance.
Думка вибухнула в ньому, ніби греблю прорвало, хлинула рукою до палички,
вирвалася з неї палаючим білим світлом. Світло стало матеріальним, набуло форми
й субстанції.

// 8354
//A figure with two arms, two legs, and a head, standing upright; the animal
//__Homo sapiens, __the shape of a human being.
Фігура з двома руками, двома ногами та головою стояла прямо. Тварина __Homo
sapiens__, форма людської істоти.

// 8355
//Glowing brighter and brighter as Harry poured all his strength into his spell,
//blazing with incandescent light brighter than the fading sunset, the Aurors and
//Professor Quirrell shielding their eyes in shock -
Гаррі наповнював закляття своєю силою, й вона сяяла дедалі яскравіше,
сліпила сильніше за сонце на заході. Аврори та професор Квірел прикрили очі
від шоку...

// 8356
//__And someday when the descendants of humanity have spread from star to
//star, they won’t tell the children about the history of Ancient Earth until
//they’re old enough to bear it; and when they learn they’ll weep to hear that
//such a thing as Death had ever once existed!__
__А колись, коли нащадки людства оселяться на різних зірках, вони не
розповідатимуть дітям історію Древньої Землі, доки ті не стануть достатньо
дорослими, щоб витримати її. А коли вони слухатимуть, то плакатимуть від того,
що смерть колись існувала!__

// 8357
//The figure of a human shone more brilliant now than the noonday Sun, so radiant
//that Harry could feel the warmth of it on his skin; and Harry sent out all his
//defiance at the shadow of Death, opening all the floodgates inside him to make
//that bright shape blaze even brighter and yet brighter.
Фігура людини тепер світила яскравіше, ніж полудневе сонце, так променисто, що
Гаррі міг відчути тепло шкірою. І Гаррі надіслав усю свою непокору проти тіні
смерті, відчинив усі водоспуски всередині, щоб яскрава форма палала навіть
яскравіше, і ще яскравіше.

// 8358
//__You are not invincible, and someday the human species will end you.__
__Ти не невразлива, і колись людство покінчить з тобою.__

// 8359
//__I will end you if I can, by the power of mind and magic and science.__
__Я покінчу з тобою, якщо зможу, силою розуму, магії та науки.__

// 8360
//__I won’t cower in fear of Death, not while I have a chance of winning.__
__Я не тремтітиму від страху смерті, доки маю шанс перемогти.__

// 8361
//__I won’t let Death touch me, I won’t let Death touch the ones I love.__
__Я не дозволю смерті взяти ані мене, ані тих, кого я люблю.__

// 8362
//__And even if you do end me before I end you,__
__Та навіть якщо ти покінчиш зі мною раніше, ніж я з тобою,__

// 8363
//__Another will take my place, and another,__
__Інший стане на моє місце, а потім ще хтось,__

// 8364
//__Until the wound in the world is healed at last…__
__Доки рана цього світу нарешті не загоїться...__

// 8365
//Harry lowered his wand, and the bright figure of a human faded away.
Гаррі опустив паличку, і яскрава фігура людини поступово зникла.

// 8366
//Slowly, he exhaled.
Він повільно видихнув.

// 8367
//Like waking up from a dream, like opening his eyes after sleep, Harry’s gaze
//moved away from the cage, he looked around and saw that everyone was staring at
//him.
Він ніби прокинувся, ніби розплющив очі після сну. Гаррі відірвав погляд від
клітки, він роззирнувся навкруги й побачив, що всі витріщалися на нього.

// 8368
//Albus Dumbledore was staring at him.
Албус Дамблдор витріщався на нього.

// 8369
//Professor Quirrell was staring at him.
Професор Квірел витріщався на нього.

// 8370
//The Auror trio was staring at him.
Трійка аврорів витріщалися на нього.

// 8371
//They were all looking at him like they’d just seen him destroy a Dementor.
Вони всі дивилися на нього так, ніби побачили, що він щойно знищив дементора.

// 8372
//The tattered cloak lay empty within the cage.
Порожній подертий плащ лежав у клітці.
