// 9409
//== The Stanford Prison Experiment, Pt 4
== Розділ 54. Стенфордський Тюремний Експеримент, ч.4

// 9410
//A faint green spark moved forward to set the pace, and behind it followed a
//brilliant silver figure, all other entities invisible. They had traversed five
//legs of corridor, turned right five times and gone up five flights of stairs;
//and when Bellatrix had finished her second bottle of chocolate milk, she had
//been given solid bars of chocolate to eat.
Слабка зелена цятка рухалася попереду, щоб задавати темп, а за нею йшла яскрава
срібна фігура, всі інші дійові особи були невидимими. Вони пройшли п'ять секцій
коридору, повертали праворуч п'ять разів та піднялися на п'ять маршів сходів.
А коли Белатриса допила другу пляшку шоколадного молока, їй дали тверді плитки
шоколаду.

// 9411
//It was after her third bar of chocolate that strange noises began to come from
//Bellatrix’s throat.
Тепер вона доїла третю плитку шоколаду, і з її горла почулися дивні звуки.

// 9412
//It took a moment for Harry to understand, to process the sounds, it didn’t
//sound like anything he’d ever heard before; the rhythm of it was shattered,
//almost unrecognizable, it took him that long to realize that Bellatrix was
//crying.
Лише за деякий час Гаррі зрозумів, зміг обробити звуки, схожих на які він ще
ніколи не чув. Ритм був зіпсованим, майже невпізна{stress}нним, Гаррі довго не
міг збагнути, що Белатриса плаче.

// 9413
//Bellatrix Black was crying, the Dark Lord’s most terrible weapon was crying,
//she was invisible but you could hear it, tiny pathetic sounds she was trying to
//suppress, even now.
Белатриса Блек плакала, найстрашніша зброя Темного Лорда плакала, вона була
невидимою, проте їх можна було почути навіть зараз -- тихі жалюгідні звуки, які
вона намагалася стримати.

// 9414
//“It’s real?” said Bellatrix. Tonality had returned into her voice, no longer a
//dead mutter, it rose up at the end to form the question. “It’s real?”
-- Це насправді? -- запитала Белатриса. До її голосу повернулася тональність,
це вже не був шепіт мерця, голос зміцнів та сформулював питання, -- це
насправді?

// 9415
//__Yes,__ thought the part of Harry simulating the Dark Lord, __now
//be silent __-
__Так__, подумала частина Гаррі, що симулювала Темного Лорда, __тепер
замовкни...__

// 9416
//He couldn’t make those words pass his lips, he just couldn’t.
Він не міг вимовити ці слова губами, просто не міг.

// 9417
//“I knew - you would - come to me - someday,” Bellatrix’s voice quavered and
//fractured as she drew breath for quiet sobs, “I knew - you were alive - that
//you would come - to me - my Lord…” there was a long inhalation like a huge
//gasp, “and that even - when you came - you still wouldn’t love me - never - you
//would never love me back - that was why - they couldn’t take - my love from me
//- even though I can’t remember - can’t remember so many other things - though I
//don’t know what I forgot - but I remember how much I love you, Lord -”
-- Я знала... що ви... прийдете за мною... колись, -- голос Белатриси тремтів
та ламався, коли вона набирала повітря для тихих схлипувань. -- Я знала... що
ви живі... що ви прийдете... за мною... володарю... -- довге втягування
повітря, ніби від неймовірного подиву, -- і що навіть коли... ви прийдете... ви
все одно не кохатимете мене... ніколи... ви ніколи не відповісте на моє кохання...
ось чому... вони не змогли забрати... в мене кохання... хоч я й не пам'ятаю...
не пам'ятаю багато всього... хоча не знаю, що саме забула... але пам'ятаю, як
кохаю вас, володарю...

// 9418
//There was a knife stabbing through Harry’s heart, he’d never heard anything so
//terrible, he wanted to hunt down the Dark Lord and kill him just for this…
У серце Гаррі ніби встромили ніж -- він ніколи не чув нічого настільки
жахливого, йому хотілося знайти й вбити Темного Лорда лише за це...

// 9419
//“Do you still - have use for me - my Lord?”
-- Вам досі... є з мене користь... володарю?

// 9420
//“No,” hissed Harry’s voice, without him even thinking, it just seemed to be
//operating on automatic, “I entered Azkaban on a whim. Of course I have use for
//you! Don’t ask foolish questions.”
-- Ні, -- прошипів Гаррі без жодної думки, видавалося, він розмовляє автоматично,
-- я зайшов в Азкабан подихати свіжим повітрям. Звісно мені є з тебе користь!
Не став дурних питань.

// 9421
//“But - I’m weak,” said Bellatrix’s voice, and a full sob escaped her, it
//sounded much too loud in the corridors of Azkaban, “I can’t kill for you, my
//Lord, I’m sorry, they ate it all, ate me all up, I’m too weak to fight, what
//good am I to you now -”
-- Але... я слабка, -- сказала Белатриса, і не стримала глибокого схлипування,
що здавалося аж надто гучним у коридорах Азкабану, -- я більше не можу вбивати
для вас, володарю, вони все з'їли, з'їли мене всю, я заслабка, щоб битися,
навіщо я тепер вам...

// 9422
//Harry’s brain cast about desperately for some way to reassure her, from the
//lips of a Dark Lord who would never speak a single word of caring.
Розум Гаррі несамовито шукав спосіб заспокоїти її, хоча з губ Темного Лорда не
зійде жодне слово турботи.

// 9423
//“Ugly,” said Bellatrix. Her voice said that word like it was the final nail in
//her coffin, the last despair. “I’m ugly, they ate that too, I’m, I’m not pretty
//any more, you won’t even, be able, to use me, as a reward, for your servants -
//even the Lestranges, won’t want, to hurt me, any more -”
-- Бридка, -- сказала Белатриса таким голосом, ніби забила останній цвях у власну
труну, вбила останню надію. -- Я бридка, це вони теж з'їли, я... я більше не вродлива,
ви навіть... не зможете... використати мене... як винагороду... для своїх слуг... навіть
Лестранжі... не захочуть... більше... завдавати мені болю...

// 9424
//The brilliant silver figure stopped walking.
Яскрава срібна фігура зупинилася.

// 9425
//Because Harry had stopped walking.
Бо Гаррі зупинився.

// 9426
//__The Dark Lord, he…__ The part of Harry’s self that was soft and
//vulnerable was screaming in disbelieving horror, trying to reject reality,
//refuse the understanding, even as a colder and harder part completed the
//pattern: __She obeyed him in that as she obeyed him in all things.__
__Темний Лорд, він...__ частина Гаррі, що була м'якою та вразливою кричала від
жаху, намагалася не визнати дійсність, відмовлялася розуміти, а його холодніша
та міцніша частина завершила думку: __Вона підкорялася йому в цьому, як
підкорялася в усьому іншому__.

// 9427
//The green spark bobbed urgently, darted forward.
Зелена цятка нетерпляче зарухалася, закликала вперед.

// 9428
//The silver humanoid stayed in place.
Срібний гуманоїд не зрушив з місця.

// 9429
//Bellatrix was sobbing harder.
Белатриса схлипувала сильніше.

// 9430
//“I’m, I’m not, I can’t be, useful, any more…”
-- Я... я не... я не можу... бути корисною... тепер...

// 9431
//Giant hands were squeezing Harry’s chest, wringing him like a washcloth, trying
//to crush his heart.
Гігантські руки стисли Гаррі, витискали його ніби ганчірку, намагалися розчавити
його серце.

// 9432
//“Please,” whispered Bellatrix, “just kill me…” Her voice seemed to calm, once
//she said that. “Please Lord, kill me, I’ve no reason to live if I’m no use to
//you… I only want it to stop… please hurt me one last time, my Lord, hurt me
//until I stop… I love you…”
// hedrok @ until I stop
-- Будь ласка, -- прошепотіла Белатриса, -- просто вбийте мене... -- тепер її
голос здавався спокійним, коли вона сказала це. -- Будь ласка, володарю, вбийте
мене, у мене немає причин жити, я більше не корисна для вас... я лише хочу, щоб
це припинилося... будь ласка, зробіть мені боляче востаннє, володарю, зробіть
мені боляче, доки я не припиню... я кохаю вас...

// 9433
//It was the saddest thing Harry had ever heard.
Нічого сумнішого Гаррі в житті не чув.

// 9434
//The bright silver shape of Harry’s Patronus flickered -
Яскрава срібна фігура патронуса Гаррі блимнула...

// 9435
//Wavered -
Колихнулася...

// 9436
//Brightened -
Пояскравішала...

// 9437
//The fury that was rising in Harry, his rage against the Dark Lord who had done
//this, the rage against the Dementors, against Azkaban, against the world that
//allowed such horror, it all seemed to be pouring straight through his arm and
//into his wand without there being any way of blocking it, he tried willing it
//to stop and nothing happened.
Гнів здіймався всередині Гаррі, лють на Темного Лорда, що скоїв це, лють на
дементорів, на Азкабан, на світ, що дозволяв такі жахіття, це все лилося
його рукою в паличку й прямо в патронуса, не було жодного способу заблокувати це,
він спробував це зупинити, та нічого не сталося.

// 9438
//“My Lord!” whispered the disguised voice of Professor Quirrell. “My spell is
//going out of control! Help me, my Lord!”
-- Володарю! -- прошепотів змінений голос професора Квірела. -- Я втрачаю
контроль над закляттям! Допоможіть мені, володарю!

// 9439
//Brighter the Patronus, brighter and brighter, it was waxing faster than on the
//day that Harry had destroyed a Dementor.
Патронус яскравішав і яскравішав, він набирав силу швидше, ніж у день, коли
Гаррі знищив був дементора.

// 9440
//“My Lord!” the silhouette said in a terrified whisper. “Help me! Everyone will
//feel it, my Lord!”
-- Володарю! -- нажахано прошепотів силует. -- Допоможіть! Усі його відчують,
володарю!

// 9441
//__Everyone will feel it,__ thought Harry. His imagination could picture it
//clearly, the prisoners in their cells stirring as the cold and darkness fell
//away, replaced by healing light.
__Усі його відчують,__ подумав Гаррі. Він ясно бачив це в уяві: як в'язні в
камерах прокидаються від того, що холод і тьма відступають, а на їхньому місці
з'являється цілюще світло.

// 9442
//Every exposed surface now burned like a white sun in the reflections, the
//silhouette of Bellatrix’s skeleton and the sallow man now clearly visible in
//the blaze, the Disillusionment spells unable to keep pace with the unearthly
//brilliance; only the Cloak of Invisibility out of the Deathly Hallows withstood
//it.
Кожна видима поверхня тепер сліпила, ніби біле сонце відбитим світлом, силуети
Белатриси-скелета та довгов'язого чолов'яги тепер були ясно видні у сяянні,
закляття розілюзнення були нездатні встигати за цим неземним промінням. Лише
Плащ невидимості зі смертельних реліквій витримав.

// 9443
//“My Lord! __You must stop it!__”
-- Володарю! __Ви маєте зупинити це!__

// 9444
//But Harry could no longer will it to stop, he no longer wanted it to stop. He
//could sense it, more and more of the sparks of life in Azkaban being sheltered
//by his Patronus, __as it unfolded like spreading wings of sunlight, the
//air turned to absolute silver as he thought it, Harry knew what he had to do.__
Але Гаррі вже не мав волі зупинити це, він уже не хотів зупиняти це. Він
відчував це -- як дедалі більше іскор життя в Азкабані захищав його патронус --
__він розгортався, ніби крила під сонцем, і від цієї думки повітря навкруги
перетворилося на срібло, Гаррі знав, що треба робити.__

// 9445
//“__Please, my Lord!__”
-- __Благаю, володарю!__

// 9446
//The words went unheard.
Він пропустив слова повз вуха.

// 9447
//__They were far from him, the Dementors in their pit, but Harry knew that
//they could be destroyed even at this distance if the light blazed bright
//enough, he knew that Death itself could not face him if he stopped holding
//back, so he unsealed all the gates inside him and sank the wells of his spell
//into all the deepest parts of his spirit, all his mind and all his will, and
//gave over absolutely everything to the spell -__
__Дементори у своїй ямі були далеко, але Гаррі знав, що може знищити їх навіть
з цієї відстані, якщо світло буде достатньо яскравим, він знав, що сама смерть
не витримає, якщо він не буде стримуватися, якщо він зірве печатки з усіх брам
всередині себе, наповнить колодязі закляття найглибиннішими частинами свого
духу, усім своїм розумом, усієї волею, віддасть цілковито все закляттю...__

// 9448
//And in the interior of the Sun, an only slightly dimmer shadow moved forward,
//reaching out an entreating hand.
І в цій середині Сонця, лише трохи тьмяніша тінь рухалася вперед з
простягнутою в благанні рукою.

// 9449
//__WRONG__
// hedrok: копія 16:2522,2523
__НЕПРАВИЛЬНО__

// 9450
//__DON’T__
__НЕ ТРЕБА__

// 9451
//The sudden sense of doom clashed with Harry’s steel determination, dread and
//uncertainty striving against the bright purpose, nothing else might have
//reached him but that. The silhouette took another step forward and another, the
//sense of doom rising to a point of terrible catastrophe; and in the drench of
//cold water, Harry saw it, he realized the consequences of what he was doing,
//the danger and the trap.
Раптове лиховісне передчуття ударилося об сталеву впевненість Гаррі, страх і
непевність боролися з яскравою метою, ніщо інше не змогло б на нього вплинути.
Силует зробив ще крок до нього, і ще один, лиховісне передчуття сягнуло
точки страшенної катастрофи. І ніби від відра холодної води, Гаррі побачив,
зрозумів наслідки того, що він робив, небезпеку та пастку.

// 9452
//If you had been watching from outside you would have seen the interior of the
//Sun brightening and dimming…
Якби хтось дивився ззовні, то побачив би, як середина сонця яскравішає та тьмяніє...

// 9453
//Brightening and dimming…
Яскравішає та тьмяніє...

// 9454
//…and finally fading, fading, fading into ordinary moonlight that seemed like
//pitch darkness by contrast.
...і гасне, гасне, гасне доки не перетворюється на звичайне місячне сяйво, що в
порівнянні здавалося цілковитою темрявою.

// 9455
//Within the darkness of that moonlight stood a sallow man with his hand
//outstretched in entreaty, and the skeleton of a woman, lying upon the floor, a
//puzzled look upon her face.
У цій темряві місячного сяйва стояв високий чоловік з простягнутою з благанням
рукою, лежала на підлозі жінка-скелет зі спантеличеним обличчям.

// 9456
//And Harry, still invisible, fallen to his knees. The greater danger had passed,
//and now Harry was just trying not to collapse, to keep the spell going at the
//lower level. He’d drained something, hopefully not lost something __-__ he
//should have known, should have remembered, that it wasn’t mere magic that
//fueled the Patronus Charm -
І стояв на колінах досі невидимий Гаррі. Страшніша небезпека минула, і тепер
Гаррі старався не знепритомніти, і підтримувати закляття на цьому слабшому рівні.
Він щось спустошив у собі, і сподівався, що нічого не втратив назавжди...
Він мав би розуміти, мав би пам'ятати, що не лише магія живила чари патронуса...

// 9457
//“Thank you, my Lord,” whispered the sallow man.
-- Дякую, володарю, -- прошепотів чолов'яга.

// 9458
//“Fool,” said the hard voice of a boy pretending to be a Dark Lord. “Did I not
//warn you that the spell could prove fatal if you failed to control your
//emotions?”
-- Дурень, -- вимовив голос хлопця, що вдавав Темного Лорда. -- Хіба я не
попереджав тебе, що закляття може бути фатальним, якщо не контролювати
свої емоції?

// 9459
//Professor Quirrell’s eyes did not widen, of course.
Звісно, очі професора Квірела не розширилися.

// 9460
//“Yes, my Lord, I understand,” said the Dark Lord’s servant in a faltering
//voice, and turned to Bellatrix -
-- Так, володарю, я розумію, -- тремтячим голосом сказав слуга Темного Лорда,
та обернувся до Белатриси...

// 9461
//She was already pushing herself off the floor, slowly, like an old, old Muggle
//woman. “How funny,” Bellatrix whispered, “you were almost killed by a Patronus
//Charm…” A giggle that sounded like it was blowing dust out of her giggle pipes.
//“I could punish you, maybe, if my Lord froze you in place and I had knives…
//maybe I can be useful after all? Oh, I feel a little better now, how strange…”
// hedrok: "Oh, I feel a little better now, how strange" копія в 055:9671
Вона повільно підводилася з підлоги, ніби дуже, дуже стара жінка-маґл.

-- Як весело, -- прошепотіла Белатриса, -- тебе ледь не вбили чари патронуса...
-- хихотіння, що звучало, ніби хтось прочищав інструмент для хихотіння. -- Я певно
могла б тебе покарати, якби володар заморозив тебе на місці й у мене були
ножі... можливо, я таки можу бути корисною? О, я почуваюся трохи краще, як
дивно...

// 9462
//“Be silent, dear Bella,” Harry said in a chill voice, “until I give you leave
//to speak.”
-- Помовч, люба Бело, -- крижаним голосом сказав Гаррі, -- доки я не дозволю тобі
розмовляти.

// 9463
//There was no reply, which was obedience.
Відповіді не було, що означало покірність.

// 9464
//The servant levitated the human skeleton, and made her invisible once more,
//followed shortly by his own disappearance with the sound of another cracking
//egg.
Слуга підняв жінку-скелет у повітря, знову зробив її невидимою, і одразу сам
зникнув зі звуком розбитого яйця.

// 9465
//They passed on through the corridors of Azkaban.
Вони пішли далі коридорами Азкабану.

// 9466
//And Harry knew that as they passed, the prisoners were stirring in their cells
//as the fear lifted for one precious moment, maybe even feeling a small touch of
//healing as his light passed them by, and then collapsing down again as the cold
//and darkness pressed back in.
І Гаррі знав, що коли вони проходили повз, в'язні у камерах прокидалися, а страх
відступав на безцінну мить, можливо, вони навіть відчували якесь зцілення, коли
світло проходило поряд, а потім це все зникало, і поверталися холод і тьма.

// 9467
//Harry was trying very hard not to think about it.
Гаррі дуже намагався не думати про це.

// 9468
//Otherwise his Patronus would wax until it burned away every Dementor in
//Azkaban, blazing bright enough to destroy them even at this distance…
Інакше його патронус набиратиме силу, доки не спопелить кожного дементора
Азкабану, доки не засяє достатньо яскраво, щоб знищити їх навіть з цієї
відстані...

// 9469
//Otherwise his Patronus would wax until it burned away every Dementor in
//Azkaban, taking all of Harry’s life as fuel.
Інакше його патронус набиратиме силу, доки не спопелить кожного дементора
Азкабану, і використає як паливо все життя Гаррі цілком.

***

// 9470
//In the Auror’s quarters at the top of Azkaban, one Auror trio was snoring in
//the barracks, one Auror trio was resting in the breakroom, and one Auror trio
//was on duty in the command room, keeping their watch. The command room was
//simple but large, with three chairs at back where three Aurors sat, their wands
//always in hand to sustain their three Patronuses, as the bright white forms
//paced in front of the open window, sheltering them all from the Dementors’
//fear.
У кімнатах аврорів на верхівці Азкабану одна трійця аврорів хропіла у бараках,
одна трійця аврорів набиралася сил у кімнаті відпочинку, і одна трійця аврорів
чергувала у командній кімнаті -- пильнувала. Командна кімната була простою,
але великою, з трьома стільцями позаду, у яких сиділи аврори. У кожного в руці
була паличка, щоб підтримувати патронусів. Три яскраві білі створіння крокували
навпроти вікна, захищали їх від страху дементорів.

// 9471
//The three of them usually stuck to the back, and played poker, and didn’t look
//out the window. You could have seen some sky there, sure, and there was even an
//hour or two every day where you could’ve seen some sun, but that window also
//looked down on the central pit of hell.
Вони зазвичай сиділи подалі й грали в покер, і не дивились у вікно. Так, з
нього можна було побачити трохи неба, і навіть на годину чи дві виходило сонце
щодня, але з вікна також було видно головну яму пекла.

// 9472
//Just in case a Dementor wanted to float up and talk to you.
На випадок, якщо дементор захоче підлетіти й щось сказати.

// 9473
//There was no way that Auror Li would have agreed to serve duty here, triple pay
//or no triple pay, if he hadn’t had a family to support. (His real name was
//Xiaoguang, and everyone called him Mike instead; he’d named his children Su and
//Kao, which hopefully would serve them better.) His only consolation, besides
//the money, was that at least his mates played an excellent game of Dragon
//Poker. Though it would be hard __not__ to, at this point.
// hedrok @ Xiaoguang варто взяти транскрипцію з китайської
// hedrok https://en.wikipedia.org/wiki/Dragon_Poker Аспрін, перекладів
// українською ніби немає
Аврор Лі нізащо б не погодився на службу тут, і начхати на потрійну платню, якби
йому не треба було підтримувати родину. (Його насправді звали Ксіаоґуанґ, але
всі його називали просто Майк; він назвав дітей Су та Као, і сподівався, що
так їм буде легше.) Єдиною розрадою, крім грошей, було те, що принаймні його
товариші чудово грали в драконовий покер. Хоча за їхніх умов __не__ грати
чудово було складно.

// 9474
//It was their 5,366th game and Li had what would probably be his best hand of
//the 5300s. It was a Saturday in February and there were three players, which
//let him shift the suit of any one hole card except a two, three, or seven; and
//that was enough to let him build a Corps-a-Corps with Unicorns, Dragons, and
//sevens…
Це була їхня п'ять тисяч триста шістдесят шоста гра, і у Лі були найкращі карти
з п'ятдесят третьої сотні. Була субота лютого, грали три гравці, відповідно,
він міг змінити масть будь-якої однієї закритої карти, крім двійки, трійки та
сімки. А цього було достатньо, щоб зібрати корпус-до-корпусу з єдинорогів,
драконів та сімок...

// 9475
//Across the table from him, Gerard McCusker looked up from the table cards
//toward the direction of the window, staring.
З іншого боку стола Джерерд Маккаскер підвів погляд з карт до вікна й почав
витріщатися.

// 9476
//The sinking feeling came over Li’s stomach with surprising speed.
На диво швидко в Лі виникло погане передчуття.

// 9477
//If his seven of hearts got hit by a Dementor Modifier and turned into a six, he
//was going straight down to two pair and McCusker might beat that -
Якщо на його сімку чирви подіє модифікатор дементора й перетворить на шістку,
то в нього залишиться звичайнісінька пара, і Маккаскер може виграти...

// 9478
//“Mike,” said McCusker, “what’s with your Patronus?”
-- Майку, -- сказав Маккаскер, -- а що це з твоїм патронусом?

// 9479
//Li turned his head and looked.
Лі озирнувся.

// 9480
//His soft silver badger had turned away from its watch over the pit and was
//staring downward at something only it could see.
Його срібний борсук відвернувся від спостереження за ямою та втупився вниз
на щось, що міг бачити лише він.

// 9481
//A moment later, Bahry’s moonlit duck and McCusker’s bright anteater followed
//suit, staring in the same downward direction.
За мить качка з місячного сяйва Барі та яскравий мурахоїд Маккаскера зробили те
ж саме: витріщилися вниз.

// 9482
//They all exchanged glances, and then sighed.
Аврори перезирнулися й зітхнули.

// 9483
//“I’ll tell them,” said Bahry. Protocol called for sending the three Aurors who
//were off-duty but not sleeping to investigate anything anomalous. “Maybe
//relieve one of them and take the C spiral, if you two don’t mind.”
-- Я скажу їм, -- сказав Барі. За протоколом треба було відправити трьох
аврорів, що відпочивали, але не спали, дослідити будь-що незвичне. -- Можливо,
заміню одного з них та подивлюся спіраль "`В`", якщо ви двоє не проти.

// 9484
//Li exchanged a glance with McCusker, and they both nodded. It wasn’t too hard
//to break into Azkaban, if you were wealthy enough to hire a powerful wizard,
//and well-intentioned enough to recruit someone who could cast the Patronus
//Charm. People with friends in Azkaban would do that, break in just to give
//someone a half-day’s worth of Patronus time, a chance at some real dreams
//instead of nightmares. Leave them a supply of chocolate to conceal in their
//cell, to increase the chance they lived through their sentence. And the Aurors
//on guard… well, even if you got caught, you could probably convince the Aurors
//to overlook it, in exchange for the right bribe.
Лі перезирнувся з Маккаскером, і вони обидва кивнули. Проникнути в Азкабан було
нескладно, якщо грошей достатньо, щоб найняти могутнього чарівника, і наміри
достатньо гідні, щоб залучити когось, хто здатен викликати патронуса. Багато хто
проникав в Азкабан заради друзів, щоб дати їм пів дня часу з патронусом, можливість
бачити справжні сни замість кошмарів. Щоб залишити їм прихований у їхній камері запас
шоколаду і цим підвищити шанси пережити строк у Азкабані. А аврори-охоронці...
ну, якщо вас упіймають, то, напевно, вийде переконати аврорів забути про цей
злочин за відповідний хабар.

// 9485
//For Li, the right bribe tended to be in the range of two Knuts and a silver
//Sickle. He hated this place.
Для Лі відповідний хабар був у межах між двома кнатами та серпиком. Він ненавидів
це місце.

// 9486
//But Bahry One-Hand had a wife and the wife had healer’s bills, and if you could
//afford to hire someone who could break into Azkaban, then you could afford to
//grease Bahry’s remaining palm pretty hard, if he was the one who caught you.
Але в Барі Однорука була дружина, а в дружини рахунки від цілителів, а хто
міг дозволити собі найняти когось здатного проникнути в Азкабан, міг дозволити
собі й дати на лапу Барі серйозну суму, якщо саме він упіймає порушника.

// 9487
//By unspoken agreement, none of them giving anything away by being the first to
//propose it, the three of them finished out their poker hand first. Li won,
//since no Dementors had actually shown up. And by then the Patronuses had
//stopped staring and gone back to their normal patrol, so it was probably
//nothing, but procedure was procedure.
За мовчазною згодою, бо ніхто не хотів першим пропонувати це вголос, вони
спочатку завершили партію в покер. Лі виграв, адже жоден дементор насправді
не з'явився. А тоді вже й патноруси припинили витріщання й повернулися
до звичайного обходу, тому, напевно, нічого не сталося, проте процедура
є процедура.

// 9488
//After Li raked in the pot, Bahry gave them all formal nods, and stood up from
//the table. The older man’s long white locks brushed against his fancy red
//robes, his robes brushed the metal floor of the command room, as Bahry went
//through the separating door that led to the formerly off-duty Aurors.
Коли Лі загріб весь банк, Барі всім офіційно кивнув та підвівся з-за стола.
Довгі білі пасма волосся старшого чоловіка терлися об його фасонну червону
мантію, а мантія терлася об металеву підлогу командної кімнати, доки Барі йшов
до дверей, що вели до раніше вільних аврорів.

// 9489
//Li had been Sorted into Hufflepuff, and he sometimes felt a little queasy about
//this kind of business. But Bahry had shown them all the pictures, and you had
//to let a man do what he could for his poor sick wife, especially when he only
//had seven months left before his retirement.
Лі відсортували були до Гафелпафу, і подеколи йому було важко сприймати такі
речі. Але Барі показував їм усім світлини, і без сумнівів треба було дати
людині допомогти своїй хворій дружині, особливо враховуючи, що в нього лишилося
лише сім місяців до пенсії.

***

// 9490
//The faint green spark floated through the metal corridors, and the silver
//humanoid, seeming a little dimmer now, followed after it. Sometimes the bright
//figure would flare, especially when they passed one of the huge metal doors,
//but it always died back down again.
Слабка зелена цятка пливла металевим коридором, а срібний гуманоїд, що тепер
був трохи тьмянішим, ішов за нею. Подеколи срібна фігура спалахувала, особливо
коли вони проминали одні з величезних металевих дверей, проте завжди знову
згасала.

// 9491
//Mere eyes could not have seen the invisible others: the eleven-year-old
//Boy-Who-Lived, and the living skeleton that was Bellatrix Black, and the
//Polyjuiced Defense Professor of Hogwarts, all traveling together through
//Azkaban. If that was the beginning of a joke, Harry didn’t know the punchline.
Лише очима неможливо було побачити невидимих інших: одинадцятирічний
Хлопчик-Що-Вижив, живий скелет на ім'я Белатриса Блек та багатозільнутий
професор із захисту Гоґвортсу йшли разом Азкабаном. Якщо це був початок
анекдоту, то Гаррі не знав продовження.

// 9492
//They’d gone up another four flights of stairs before the rough voice of the
//Defense Professor said, simply and without emphasis, “Auror coming.”
Вони проминули ще чотири марші сходів, а тоді грубий голос професора Квірела
рівно й без емоцій сказав: "`наближається аврор`".

// 9493
//It took too long, a whole second maybe, for Harry to understand, for the jolt
//of adrenaline to pump into his blood, and for him to remember what Professor
//Quirrell had already discussed with him and told him to do in this case, and
//then Harry spun on his heel and flew back the way they’d come.
Гаррі надто довго обмірковував це, напевно цілу секунду, а коли збагнув,
у його кров надійшов адреналін, і він згадав, що вони з професором Квірелом
обговорювали були, що робити в цьому випадку. Тоді Гаррі крутнувся на місці
й побіг туди, звідки вони прийшли.

// 9494
//Harry reached the flight of stairs, and frantically laid himself down on the
//third step from the top, the cold metal feeling hard even through his cloak and
//robes. Trying to move his head up, to peer over the lip of the stairs, showed
//that he couldn’t see Professor Quirrell; and that meant that Harry was out of
//the line of any stray fire.
Гаррі дістався найближчого маршу сходів і поспіхом ліг на третю згори сходинку,
холодний метал був твердим, незважаючи на плащ та мантію. Він підвів голову й
визирнув з-за сходинок, але не зміг побачити професора Квірела. Це означало, що
він був поза досяжністю дурних заклять.

// 9495
//His shining Patronus followed after him, and lay down beside him on the step
//just beneath him; for it too must not be seen.
Яскравий патронус підійшов до нього та ліг поряд на сходинку нижче, адже його
теж не мають бачити.

// 9496
//There was a faint sound as of wind or whooshing, and then the sound of
//Bellatrix’s invisible body coming to rest on a stair further below, she had no
//place in this except -
Ледь чутно було вітер та свист повітря, а тоді звук від того, що невидиме тіло
Белатриси опустилося на сходинку ще нижче, від неї нічого не було потрібно,
крім...

// 9497
//“Stay still,” said the cold high whisper, “stay silent.”
-- Лежи спокійно, -- холодно прошепотів він високим голосом, -- і тихо.

// 9498
//There was stillness, and silence.
І був спокій, і тиша.

// 9499
//Harry pressed his wand against the side of the metal step just above him. If he
//was anyone else he would have needed to take a Knut out of his pocket… or rip
//off a bit of cloth from his robe… or bite off one of his nails… or find a speck
//of rock large enough that he could see it and solid enough to stay in one place
//and orientation while it touched his wand. But with Harry’s almighty power of
//partial Transfiguration, this was not necessary; he could skip that particular
//step of the operation and use any material near to hand.
Гаррі доторкнувся паличкою до сторони металевої сходинки поряд з собою. Якби на
його місці був будь-хто інший, то йому довелося б дістати з кишені кнат... чи
відірвати клаптик тканини від мантії... чи відкусити шматочок одного з
нігтів... чи знайти достатньо велику крихту каміння, щоб її можна було бачити,
і вона була достатньо міцною, щоб не розсипатися й не рухатися, доки він
торкався б до неї паличкою. Але Гаррі зі всемогутньої силою часткової
трансфігурації міг використовувати будь-яку матерію під рукою.

// 9500
//Thirty seconds later Harry was the proud new owner of a curved mirror, and…
Тридцять секунд, і Гаррі з гордістю став власником викривленого дзеркала, і...

// 9501
//“__Wingardium Leviosa,__” Harry whispered as quietly as he could.
-- __Вінґардіум Левіоза,__ -- прошепотів Гаррі якомога тихіше.

// 9502
//…was levitating it just above the steps, and watching, in that curved surface,
//almost the whole corridor where Professor Quirrell invisibly waited.
...левітував його над сходами, і спостерігав за допомогою цієї викривленої
поверхні майже за всім коридором, де невидимий професор Квірел чекав.

// 9503
//Harry heard it in the distance, then, the sound of footsteps.
Тоді Гаррі почув далекий звук кроків.

// 9504
//And saw the form (a little hard to see in the mirror) of a person in red robes,
//coming down the stairs, entering the seemingly empty corridor; accompanied by a
//small Patronus animal that Harry couldn’t quite make out.
І побачив фігуру (у дзеркалі було складно побачити подробиці) людини у червоній
мантії, що спустилася сходами, і зайшла до нібито порожнього коридору. Її
супроводжував невеличкий патронус-тварина, хто саме Гаррі не міг розібрати.

// 9505
//The Auror was protected by a blue shimmer, it was hard to see the details but
//Harry could see that much, the Auror had shields already raised and
//strengthened.
Аврора захищало блакитне мерехтіння, складно було сказати точніше, але
принаймні це Гаррі бачив, аврор був під захистом посилених щитів.

// 9506
//__Crap,__ thought Harry. According to the Defense Professor, the essential
//art of dueling consisted of trying to put up defenses that would block whatever
//someone was likely to throw at you, while trying in turn to attack in ways that
//were likely to go past their current set of defenses. And by far the easiest
//way to win any sort of real fight - Professor Quirrell had said this over and
//over - was to shoot the enemy before they raised a shield in the first place,
//either from behind or from close enough range that they couldn’t dodge or
//counter in time.
__Дідько__, подумав Гаррі. Згідно з професором із захисту, ключовим у мистецтві
бою було старатися створити захист, що міг заблокувати все, що хтось інший
може кинути у вас, і водночас намагатися атакувати тим, що ймовірно не заблокує
їхній поточний захист. Відповідно, найлегшим методом виграти будь-яку справжню
битву -- професор Квірел повторював це знову й знову -- було пристрелити ворога
перед тим, як той взагалі встигне створити щит, з-за спини чи з достатньо
близької відстані, щоб він не встиг ані ухилитися, ані протидіяти вчасно.

// 9507
//Though Professor Quirrell might still be able to get in a shot from behind, if
//-
Хоча, можливо, у професора Квірела вийде вистрелити у спину, якщо...

// 9508
//But the Auror halted after taking three steps into the corridor.
Але аврор зупинився після трьох кроків коридором.

// 9509
//“Nice Disillusionment,” said a hard male voice that Harry didn’t recognize.
//“Now show yourself, or you’ll be in __real__ trouble.”
-- Гарне розілюзнення, -- сказав суворий чоловічий голос, якого Гаррі не
впізнавав. -- Тепер покажи себе, інакше ти __справді__ потрапиш у халепу.

// 9510
//The form of the sallow, bearded man became visible then.
Тоді фігура високого бородатого чолов'яги стала видимою.

// 9511
//“And you with the Patronus,” said the hard voice. “Come out too. __Now.__”
-- І ти з патронусом, -- вимовив суворий голос. -- Виходь теж. __Зараз.__

// 9512
//“Wouldn’t be smart,” said the gravelly voice of the sallow man. It was no
//longer the terrified voice of the Dark Lord’s servant; it had suddenly become
//the professional intimidation of a competent criminal. “You don’t want to see
//who’s behind me. Trust me, you don’t. Five hundred Galleons, cold cash up
//front, if you turn around and walk away. Big trouble for your career if you
//don’t.”
-- Нерозумно, -- сказав грубий голос довгов'язого чолов'яги. Тепер це був не
нажаханий голос слуги Темного Лорда -- раптом він став голосом професійного
шантажиста й компетентного злочинця. -- Ти не хочеш знати, хто за мною стоїть.
Повір, не хочеш. П'ятсот ґалеонів прямо зараз у руки, якщо ти просто підеш
геть. Великі неприємності для кар'єри, якщо відмовишся.

// 9513
//There was a long pause.
Запала довга мовчанка.

// 9514
//“Look, whoever you are,” said the hard voice. “You seem confused about how this
//works. I don’t care if that’s Lucius Malfoy behind you or Albus bloody
//Dumbledore. You __all__ come out, I scan the whole lot of you, and
//__then__ we talk about how much this is going to cost you -”
-- Слухай, хай хто ти там є, -- пролунав суворий голос. -- Видається, ти не
розумієш, як це працює. Мені начхати, за тобою стоїть Луціус Мелфой чи
Албус хай йому Дамблдор. Ви __всі__ виходите, я сканую кожного, а __тоді__
ми обговорюємо, скільки вам це коштуватиме...

// 9515
//“Two thousand Galleons, final offer,” said the gravelly voice, taking on a
//warning undertone. “That’s ten times the going rate and more than you make in a
//year. And believe me, if you see something you shouldn’t, you’re going to
//regret not taking that -”
-- Дві тисячі ґалеонів, це остання пропозиція, -- сказав грубий голос, тепер у
ньому чулася погроза. -- Це в десять разів більше за стандартну суму і більше,
ніж ти заробляєш на рік. І повір мені, якщо ти побачиш щось, що не маєш
побачити, то пожалкуєш, що не взяв ці...

// 9516
//“Shut it!” said the hard voice. “You’ve got exactly five seconds to drop that
//wand before I drop you. Five, four -”
-- Мовчати! -- гаркнув суворий голос. -- У тебе рівно п'ять секунд, щоб покласти
паличку, доки я тебе не поклав. П'ять, чотири...

// 9517
//__What are you doing, Professor Quirrell?__ Harry thought frantically.
//__Attack first! Cast a shield at least!__
__Що ви робите, професоре Квірел?__ гарячково думав Гаррі. __Атакуйте першим!
Принаймні створіть щит!__

// 9518
//“- three, two, one! __Stupefy!__”
-- ...три, два, один! __Закляктус!__

***

// 9519
//Bahry stared, a chill running down his spine.
Барі витріщався, мурахи бігали йому по спині.

// 9520
//The man’s wand had moved so fast that it was like it had Apparated into place,
//and Bahry’s stunner was currently sparkling tamely at the end of it, not
//blocked, not countered, not deflected, __caught__ like a fly in honey.
Паличка чоловіка перемістилася була так швидко, ніби вона явилася туди, а його
закляття зараз сумирно сяяло біля неї: не заблоковане, не скасоване, не
віддзеркалене, а __спіймане__, ніби муха у мед.

// 9521
//“My offer has gone back down to five hundred Galleons,” said the man in a
//colder, more formal voice. He smiled dryly, and the smile looked wrong on that
//bearded face. “And you shall need to accept a Memory Charm.”
-- Тепер я пропоную лише п'ятсот ґалеонів, -- сказав чоловік холоднішим,
офіційнішим голосом. Він сухо посміхнувся, і ця посмішка не пасувала бородатому
обличчю. -- І тобі доведеться погодитися на чари пам'яті.

// 9522
//Bahry had already swapped the harmonics on his shields so that his own stunner
//couldn’t pass back through, already tilted his wand back into a defensive
//position, already raised his hardened artificial hand into position to block
//anything blockable, and was already thinking wordless spells to put more layers
//on his shields -
Барі вже змінив гармоніки своїх щитів, щоб його власний проклін не зміг крізь
них пройти, вже нахилив паличку у захисну позицію, вже підвів свою зміцнену
штучну руку так, щоб мати змогу заблокувати все, що можливо, уже подумки
використовував безмовні закляття, щоб додати шарів до своїх щитів...

// 9523
//The man wasn’t looking at Bahry. Instead he was poking curiously at Bahry’s
//stunner where it still wavered on the end of his wand, drawing out red sparks
//and flicking them away with his fingers, slowly disassembling the hex like a
//child’s rod puzzle.
// hedrok @ child's rod puzzle
Чоловік не дивився на Барі. Натомість він з цікавістю тицяв у закляття
Барі, що досі коливалося на кінці палички чоловіка. Він діставав червоні іскри
й відкидав їх пальцями, повільно розбирав проклін, ніби той був дитячою
головоломкою.

// 9524
//The man hadn’t raised any shields of his own.
Чоловік не створив жодного щита.

// 9525
//“Tell me,” the man said in a disinterested voice that didn’t seem to quite fit
//the rough throat - Polyjuice, Bahry would have called it, if he’d thought that
//anyone could possibly do magic that delicate from inside someone else’s body -
//“what did you do in the last war? Put yourself in harm’s way, or stay out of
//trouble?”
-- Скажи, -- промовив він знудженим голосом, що не пасував цьому грубому горлу.
Барі б вирішив, що задіяно багатозільну настоянку, якби міг повірити, що хтось
може так мистецьки використовувати магію з чужого тіла, -- що ти робив в
останню війну? Підставлявся під удар, чи тримався подалі від небезпеки?

// 9526
//“Harm’s way,” said Bahry. His voice kept the iron calm of an Auror with nearly
//a hundred full years on the force, seven months short of mandatory retirement,
//Mad-Eye Moody couldn’t have said it with any more hardness.
-- Під удар, -- сказав Барі. У його голосі був сталевий спокій аврора з майже
сотнею років бойового стажу, за сім місяців до обов'язкової пенсії. Навіть
Дикозор Муді не зміг би це вимовити твердіше.

// 9527
//“Fight any Death Eaters?”
-- Доводилося битися зі смертежерами?

// 9528
//Now a grim smile graced Bahry’s own face. “Two at once.” Two of You-Know-Who’s
//own warrior-assassins, personally trained by their dark master. Two Death
//Eaters at once against Bahry alone. It had been the toughest fight of Bahry’s
//life, but he’d stood his ground, and walked away with only the loss of his left
//hand.
Тепер на обличчі Барі грала невесела посмішка.

-- З двома водночас, -- це були двоє з довірених воїнів-убивць Відомо-Кого,
особисто треновані своїм темним господарем. Два смертежери проти одного Барі.
Це був найважчий бій у житті Барі, але він вистояв, і втратив лише лівицю.

// 9529
//“Did you kill them?” The man sounded idly curious, and he continued to draw
//threads of fire out of the much-diminished stunbolt still captive on the end of
//his wand, his fingers now weaving small patterns of Bahry’s own magic before
//flicking to disperse them.
-- Ти їх убив? -- видавалося, чоловік просто цікавився, він продовжував
витягати нитки вогню зі значно зменшеного прокльону наприкінці його палички,
тепер його пальці сплітали з магії Барі невеличкі візерунки перед тим, як
перетворити їх на ніщо.

// 9530
//Sweat broke out on Bahry’s skin beneath his robes. His metal hand flashed
//downward, ripped the mirror from his belt - “Bahry to Mike, I need backup!”
Піт виступив під мантією Барі. Він мигцем дістав дзеркало з пояса металевою
рукою.

-- Барі Майкові, потрібна підмога!

// 9531
//There was a pause, and silence.
Була пауза, а потім тиша.

// 9532
//“Bahry to Mike!”
-- Барі Майкові!

// 9533
//The mirror lay dull and lifeless in his hand. Slowly, Bahry put it back on his
//belt.
Дзеркало в його руці було тьмяним та нічого не показувало. Барі повільно
прикріпив його назад до пояса.

// 9534
//“It’s been quite a while since I had a serious fight with a serious opponent,”
//the man said, still not looking up at Bahry. “Try not to disappoint me too
//much. You can attack whenever you’re ready. Or you can walk away with five
//hundred Galleons.”
-- Я доволі давно востаннє бився з серйозним опонентом, -- сказав чоловік, так
і не глянувши на Барі. -- Спробуй не надто мене розчарувати. Можеш атакувати
коли будеш готовий. Чи можеш піти з п'ятьма сотнями ґалеонів.

// 9535
//There was a long silence.
Запала довга мовчанка.

// 9536
//Then the air screamed like metal cutting glass as Bahry slashed his wand
//downward.
Тоді повітря заверещало, ніби металом різали скло, коли Барі рубонув паличкою
вниз.

***

// 9537
//Harry could hardly see it, could hardly make out anything amid the lights and
//flashes, his mirror’s curve was perfect (they’d practiced that tactic before in
//the Chaos Legion) but the scene was still too small, and Harry had the feeling
//he wouldn’t be able to understand even if he was watching from a meter away, it
//was all happening too __fast,__ red blasts deflecting from blue shields,
//green bars of light clashing together, shadowy forms appearing and vanishing,
//he couldn’t even tell who was casting what, except that the Auror was shouting
//incantation after incantation and frantically dodging while Professor
//Quirrell’s Polyjuiced form stood in one place and flicked his wand, mostly
//silently, but now and then pronouncing words in unrecognizable languages that
//would white out the whole mirror and show half the Auror’s shielding torn away
//as he staggered back.
Гаррі ледве бачив, ледве міг щось розібрати серед усього світла й спалахів.
Поверхня дзеркала була бездоганною (вони вже практикували цю тактику в Легіоні
Хаосу), але сцена була замаленькою, та Гаррі здавалося, що він нічого не
збагнув би, навіть якби стояв за метр від бою. Усе коїлося надто __швидко__:
червоні струмені відбивалися синіми щитами, зелені сітки світла спліталися
разом, якісь тіні з'являлися й зникали. Він не міг навіть зрозуміти, хто що
створював, лише бачив, що аврор кричав закляття одне за іншим і шалено
ухилявся, а багатозільнутий професор Квірел стояв на місці й тихо злегка
змахував паличкою, хоча подеколи вимовляв слова невідомих мов, через які усе
дзеркало заповнювало біле світло, а потім було видно, що половина щитів аврора
зникла, а він похитнувся назад.

// 9538
//Harry had seen exhibition duels between the strongest seventh-year students,
//and this was so far above it that Harry’s mind felt numbed, looking at how far
//he had left to go. There wasn’t a single seventh-year student who could have
//lasted half a minute against the Auror, all three seventh-year armies put
//together might not be able to scratch the Defense Professor…
Гаррі бачив демонстраційні дуелі між найсильнішими семикласниками, та поточна
дуель була настільки вищою за ті, що мозок Гаррі занімів від того, який перед
ним довгий шлях. Жоден семикласник не протримався б і пів хвилини проти аврора,
усі три війська сьомого року разом не змогли б навіть подряпати професора із
захисту...

// 9539
//The Auror had fallen to the ground, one knee and one hand supporting himself as
//the other hand gestured frantically and his mouth shouted desperate words, the
//few incantations that Harry recognized were all shield spells, as a flock of
//shadows spun around the Auror like a whirlwind of razors.
Аврор упав на землю, він тримався на руці й коліні, друга рука несамовито
жестикулювала, він викрикував слова у відчаї, декілька заклять Гаррі впізнав, і
всі вони були закляттями-щитами, а навколо аврора крутилася зграя тіней, що
нагадували вир бритв.

// 9540
//And Harry saw Professor Quirrell’s Polyjuiced form deliberately point his wand
//at where the Auror kneeled and fought the last moments of his battle.
А тоді Гаррі побачив, як багатозільнутий професор Квірел підкреслено вказав паличкою
туди, де аврор провів на колінах останні миті битви.

// 9541
//“Surrender,” said the gravelly voice.
-- Здавайся, -- сказав грубий голос.

// 9542
//The Auror spat something unspeakable.
Аврор кинув щось невимовне.

// 9543
//“In that case,” said the voice, “__Avada __-”
-- Тоді, -- сказав голос, -- __Авада...__

// 9544
//Time seemed to move very slowly, like there was time to hear the individual
//syllables, __Ke,__ and __Da,__ and __Vra,__ time to watch the
//Auror starting to throw himself desperately aside; and even though it was all
//happening so slowly, somehow there wasn’t time to __do__ anything, no time
//for Harry to open his lips and scream __NO__, no time to move, maybe even
//not any time to think.
Час ніби вкрай сповільнився, ніби можна було почути окремі склади, "`__Ке__`",
"`__Да__`" і "`__Вра__`", був час побачити, як аврор відчайдушно намагався
кинутися вбік. Але хоч усе й відбувалося так повільно, не було часу __зробити__
щось, не було часу навіть розтулити губи й закричати "`__НІ__`", не було часу,
щоб поворухнутися, можливо навіть на думки.

// 9545
//Only time for one desperate wish that an innocent man should not die__ -__
Часу вистачило лише на одне безнадійне бажання, щоб невинна людина не
померла...

// 9546
//And a blazing silver figure stood before the Auror.
І яскрава срібна фігура стала перед аврором.

// 9547
//Stood there just a fraction of a second before the green light struck home.
Стала лише за частку секунди перед тим, як зелене світло влучило у ціль.

***

// 9548
//Bahry was twisting frantically aside, not knowing if he was going to make it -
Баррі несамовито намагався вивернутися вбік і не знав, чи в нього вийде...

// 9549
//His eyes were focused on his opponent and his onrushing death, so Bahry only
//briefly saw the outline of the brilliant silhouette, the Patronus brighter than
//any he’d ever seen, saw it just barely long enough to recognize the impossible
//shape, before the green and the silver light collided and both lights vanished,
//__both __lights vanished, __the Killing Curse had been blocked__, and
//then Bahry’s ears were pierced as he saw his terrible opponent screaming,
//screaming, screaming, clutching at his head and screaming, starting to fall as
//Bahry was already falling -
Він сфокусував погляд на своєму опоненті та дедалі ближчій смерті, тому
лише на мить побачив контури сліпучого силуету, патронуса, що був яскравішим за
всі, що Барі будь-коли бачив, цього ледве вистачило, щоб він розпізнав
неможливу форму, перед тим, як зелене й срібне світла зіткнулися й згасли.
__Обидва__ згасли. __Смертельне прокляття заблокували__, а тоді в нього заболіли
вуха від звуку, і він побачив, що його жахливий опонент кричить, кричить,
кричить, стиснув голову та кричить, і починає падати, а Барі вже падає...

// 9550
//Bahry hit the ground, falling from his own frantic lunge, and his dislocated
//left shoulder and broken rib screamed in protest. Bahry ignored the pain,
//managed to scramble back to his knees, brought up his wand to stun his
//opponent, he didn’t understand what was happening but he knew that this was his
//only chance.
Барі впав на землю через власний несамовитий кидок. Вивихнуте ліве плече та
зламане ребро запротестували. Барі проігнорував біль, впорався знову стати на
коліна, підвів паличку, щоб паралізувати опонента. Він не розумів, що коїться,
проте знав, що це його єдиний шанс.

// 9551
//“__Stupefy!__”
-- __Закляктус!__

// 9552
//The red bolt struck out toward the man’s falling body, and was torn apart in
//midair and dissipated - and not by any shield. Bahry could __see__ it, the
//wavering in the air that surrounded his fallen and screaming opponent.
Червоне закляття полетіло до чоловіка, що падав, розірвалося на частини й
зникло -- не через щити. Барі міг навіть __бачити__ це, як повітря навколо його
опонента, що впав та кричить, колихалося.

// 9553
//Bahry could feel it like a deadly pressure on his skin, the flux of magic
//building and building and building toward some terrible breaking point. His
//instincts screamed at him to run before the explosion came, this was no Charm,
//no Curse, this was wizardry run wild, but before Bahry could even finish
//getting to his feet -
Барі міг відчути це як страшенний тиск на його тіло -- потік магії зростав, зростав
і зростав, наближався до жахливої точки переламу. Інстинкти волали, щоб він тікав,
доки все не вибухнуло. Це були не чари, не прокляття -- це чаклунство знавісніло. Та
Барі навіть не встигнув піднятися на ноги...

// 9554
//The man threw his wand away from himself (he threw away his wand!) and a second
//later, his form blurred and vanished entirely.
А чоловік відкинув свою паличку подалі (він відкинув свою паличку!), і за секунду
він зовсім зникнув.

// 9555
//A green snake lay motionless on the ground, unmoving even before Bahry’s next
//stunner spell, fired in sheer reflex, hit it without resistance.
На землі нерухомо лежав зелений змій, він був нерухомим ще до чергового
паралітичного закляття Барі, яке той викликав рефлекторно. Воно влучило, не
зустрівши жодного опору.

// 9556
//As the dreadful flux and pressure began to dissipate, as the wild wizardry died
//back down, Bahry’s dazed mind noticed that the scream was continuing. Only it
//sounded different, like the scream of a young boy, coming from the stairs
//leading down to the next lower level.
Коли страшенний потік та тиск почали розсіюватися, а знавісніле чаклунство
вгамувалося, вражений Барі помітив, що крик тривав. Тільки він звучав інакше,
ніби кричав хлопчик, і лунав зі сходів, що вели на нижчий рівень.

// 9557
//That scream choked off too, and then there was silence except for Bahry’s
//frantic panting.
Цей крик теж спинився, і тоді запанувала тиша, якщо не зважати на нерівне
дихання Барі.

// 9558
//His thoughts were slow, confused, disarrayed. His opponent had been
//__insanely__ powerful, that hadn’t been a duel, it had been like his first
//year as a trainee Auror trying to fight Madam Tarma. The Death-Eaters hadn’t
//been a tenth that good, Mad-Eye Moody wasn’t that good… and who, what, how in
//the name of Merlin’s balls had anyone blocked a __Killing Curse?__
Його думки були повільними, спантеличеними, безладними. Його опонент був
__божевільно__ могутнім, це була не дуель, це більш скидалося на його перший
рік стажування на аврора, коли він намагався битися з мадам Тармою. Смертежери
не були варті й десятої його частини, Дикозор Муді не був йому рівним... і хто,
що, як, заради яєць Мерліна, заблокували __смертельне прокляття__?

// 9559
//Bahry managed to summon the energy to press his wand against his rib, mutter
//the healing spell, and then press it again to his shoulder. It took more out of
//him than it should have, took far too much out of him, his magic was within a
//bare breath of utter exhaustion; he didn’t have anything left for his minor
//cuts and bruises or even to reinforce the scraps left of his shielding. It was
//all he could do not to let his Patronus go out.
Барі зібрав достатньо сил, щоб торкнутися паличкою ребра й пробурмотіти
закляття зцілення, а потім зробити те ж саме з плечем. Це забрало більше
енергії, ніж мало б, забагато забрало, його магія була на волосину від повного
знесилення. Він уже не був здатен щось зробити з рештою порізів та синців, не
міг посилити жалюгідні рештки своїх щитів. Він міг лише підтримувати свого
патронуса.

// 9560
//Bahry breathed deeply, heavily, steadied his breath as much as he could before
//he spoke.
Барі глибоко, важко вдихнув, вирівняв своє дихання як міг, а тоді заговорив.

// 9561
//“You,” Bahry said. “Whoever you are. Come out.”
-- Ти. Хай хто ти там є. Виходь.

// 9562
//There was silence, and it occurred to Bahry that whoever it was might be
//unconscious. He didn’t understand what had just happened, but he’d heard the
//scream…
Запала тиша, і Барі спало на думку, що цей хтось може бути непритомним. Він не
розумів, що щойно сталося, проте він чув крик...

// 9563
//Well, there was one way to test that.
Ну, був один метод це перевірити.

// 9564
//“Come out,” said Bahry, making his voice harder, “or I start using area-effect
//curses.” He probably couldn’t have managed one if he’d tried.
-- Виходь, -- сказав Барі суворішим голосом, -- або я почну застосовувати прокляття
широкої дії.

Він напевно не зміг би, навіть якби спробував.

// 9565
//“Wait,” said a boy’s voice, a __young__ boy’s voice, high and thin and
//wavering, like someone was holding back exhaustion or tears. The voice now
//seemed to be coming from closer to hand. “Please wait. I’m - coming out -”
-- Зачекайте, -- пролунав голос хлопчика, __маленького__ хлопчика -- високий,
тонкий і тремтячий, ніби хтось стримував втому чи сльози. Голос ніби
наблизився. -- Будь ласка, зачекайте. Я... виходжу...

// 9566
//“Drop the invisibility,” growled Bahry. He was too tired to bother with
//anti-Disillusionment Charms.
-- Скинь невидимість, -- прогарчав Барі. Він був надто стомлений для
антирозілюзнення.

// 9567
//A moment later, a young boy’s face emerged from within an unfolding
//invisibility cloak, and Bahry saw the black hair, the green eyes, the glasses,
//and the angry red lightning-bolt scar.
За мить з-під плаща-невидимки з'явилося обличчя хлопчика, Барі побачив чорне
волосся, зелені очі, окуляри та яскраво червоний шрам у формі блискавки.

// 9568
//If he’d had twenty fewer years of experience under his belt he might have
//blinked. Instead he just spat something that he probably shouldn’t ought to say
//in front of the Boy-Who-Lived.
Якби в нього було на двадцять років менше досвіду, він напевно кліпнув би.
Натомість він бовкнув щось, чого напевно не варто було казати в присутності
Хлопчика-Що-Вижив.

// 9569
//“He, he,” the boy’s wavering voice said, his young face looked frightened and
//exhausted and tears were still trickling down his cheeks, “he kidnapped me, to
//make me cast my Patronus… he said he’d kill me if I didn’t… only I couldn’t let
//him just kill you…”
-- Він, він, -- сказав хлопець тремтячим голосом. Його молоде лице було
переляканим та втомленим, сльози досі струменіли його щоками, -- він викрав
мене і змусив викликати мого патронуса... він сказав, що вб'є мене, якщо я цього
не зроблю... тільки я не міг дозволити йому вбити вас...

// 9570
//Bahry’s mind was still dazed, but things were slowly starting to click into
//place.
Барі досі був спантеличеним, проте все повільно починало ставати на свої місця.

// 9571
//Harry Potter, the only wizard ever to survive a Killing Curse. Bahry might have
//been able to dodge the green death, he’d certainly been trying, but if the
//matter came up before the Wizengamot, they’d rule it was a life debt to a Noble
//House.
Гаррі Поттер, єдиний чарівник, що пережив смертельне прокляття. Можливо, Баррі й
вдалося б ухилитися від зеленої смерті, він точно докладав усіх зусиль, проте
якби це питання розглядав чарверсуд, то було б вирішено, що він у боргу за
життя перед шляхетним родом Поттерів.

// 9572
//“I see,” Bahry said in a much gentler growl. He started to walk toward the boy.
//“Son, I’m sorry for what you’ve been through, but I need you to drop the cloak
//and drop your wand.”
-- Ясно, -- значно лагідніше прогарчав Барі. Він почав йти до хлопця. -- Синку,
мені шкода, що тобі довелося через таке пройти, проте ти маєш кинути плащ і
паличку.

// 9573
//The rest of Harry Potter emerged from invisibility, showing the sweat-soaked
//blue-trimmed Hogwarts robes, and his right hand clutching an eleven-inch holly
//wand so hard his knuckles were white.
Решта Гаррі Поттера з'явилася з-під плаща. Його оздоблена синім гоґвортська
мантія просякла потом, а правиця стискала одинадцятидюймову паличку з
гостролиста так міцно, що побіліла.

// 9574
//“Your wand,” Bahry repeated.
-- Паличку, -- повторив Барі.

// 9575
//“Sorry,” whispered the eleven-year-old boy, “here,” and he held out the wand
//toward Bahry.
-- Вибачте, -- прошепотів одинадцятирічний хлопчик, -- ось.

Він витягнув паличку у напрямку Барі.

// 9576
//Bahry barely stopped himself from snarling at the traumatized boy who’d just
//saved his life. Instead he overrode the impulse with a sigh, and just stretched
//out a hand to take the wand. “Look, son, you’re __really__ not supposed to
//point a wand at -”
Барі ледь зупинив себе, щоб не нагримати на травмованого хлопця, що щойно
врятував йому життя. Натомість він із зітханням стримав імпульс і просто
простягнув руку, щоб забрати паличку.

-- Слухай, синку, __справді__ не можна направляти паличку на...

// 9577
//The wand’s end twisted lightly beneath Bahry’s hand just as the boy whispered,
//“__Somnium__.”
Кінець палички злегка крутнувся під рукою Барі, і хлопчик прошепотів
"`Сомніум`".

***

// 9578
//Harry stared at the Auror’s crumpled body, there was no sense of triumph, just
//a crushing sense of despair.
Гаррі витріщився на тіло аврора на підлозі. Відчуття тріумфу не було -- лише
нищівний розпач.

// 9579
//(Even then it might not have been too late.)
(Навіть тоді ще могло бути не запізно.)

// 9580
//Harry turned to look at where the green snake lay motionless.
Гаррі озирнувся на нерухомого зеленого змі{stress}я.

// 9581
//“__Teacher?__” hissed Harry. ”__Friend? Pleasse, are you alive?__” An
//awful fear was taking hold in Harry’s heart; in that moment he had entirely
//forgotten that he’d just seen the Defense Professor try to kill a police
//officer.
-- __Вчителю?__ -- прошипів Гаррі. -- __Друже? Будь ласска, ти живий?__

Нездоланний страх заполонив серце Гаррі. У ту мить він зовсім забув, що
щойно бачив, як професор із захисту намагався вбити офіцера поліції.

// 9582
//Harry pointed his wand at the snake, and his lips even began to shape the word
//__Innervate__, before his brain caught up with him and screamed at him.
Гаррі направив паличку на змі{stress}я і почав вимовляти слово
"`__Інервація__`", і лише тоді його мозок прокинувся й накричав на нього.

// 9583
//He didn’t dare use magic on Professor Quirrell.
Він не смів використовувати магію на професорі Квірелі.

// 9584
//Harry had felt it, the burning, tearing pain in his head, like his brain was
//about to split in half. He’d felt it, his magic and Professor Quirrell’s magic,
//matched and anti-harmonized in a fulfillment of doom. That was the mysterious
//terrible thing that would happen if Harry and Professor Quirrell ever got too
//close to each other, or if they ever cast magic on each other, or if
//__their spells ever touched,__ their magic would resonate out of control -
// hedrok: копія в 108:18371
Гаррі відчув був це -- пекучий, несамовитий біль у голові, ніби його мозок
от-от розпадеться навпіл. Він відчув це -- як магія професора Квірела та його
магія зійшлися в антигармонії, і справдилася лиха вість. Ось
що таке таємниче й жахливе станеться, якщо Гаррі та професор Квірел надто
наблизяться один до одного, чи застосують один на одному магію, чи якщо __їхні
закляття навіть торкнуться одне одного__, виникне неконтрольований резонанс
їхніх магій...

// 9585
//Harry stared at the snake, he couldn’t tell if it was breathing.
Гаррі витріщився на змі{stress}я, він навіть не міг побачити, чи той дихає.

// 9586
//(The last seconds ticked away.)
(Минали останні секунди.)

// 9587
//He turned to stare at the Auror, who had seen the Boy-Who-Lived, who knew.
Він озирнувся й втупився в аврора, що бачив був Хлопчика-Що-Вижив. Він знав.

// 9588
//The full magnitude of the disaster crushed in on Harry like a thousand
//hundred-ton weights, he’d managed to stun the Auror but now there was nothing
//left to do, no way to recover, the mission had failed, everything had failed,
//__he__ had failed.
Увесь розмах катастрофи навалився на Гаррі, ніби вага у сто тисяч тон. Так,
йому вдалося приспати аврора, проте тепер він нічого не міг вдіяти, не було
шансів на порятунок, місія зазнала краху, усе зазнало краху, __він__ зазнав
краху.

// 9589
//Shocked, dismayed, despairing, he __didn’t think of it__, didn’t see the
//obvious, didn’t remember where the hopeless feelings were coming from, didn’t
//realize that he still needed to recast the True Patronus Charm.
Приголомшений, розгублений, у розпачі він __не подумав про це__, не побачив
очевидного, не згадав, звідки надходять усі відчуття безнадії, не збагнув, що
йому досі треба знову викликати чари справжнього патронуса.

// 9590
//(And then it was already too late.)
(А тоді вже стало запізно.)

***

// 9591
//Auror Li and Auror McCusker had rearranged their chairs around the table, and
//so they both saw it at the same time, the naked, skeletally thin horror rising
//up to hover outside the window, the headache already hitting them from seeing
//it.
Аврор Лі та аврор Маккаскер переставили стільці навколо стола, тому вони побачили
його одночасно -- голий, худий мов скелет жах, що висів за вікном. У них з'явився
головний біль лише від цього видовища.

// 9592
//They both heard the voice, like a long-dead corpse had spoken words and those
//words themselves had aged and died.
Вони обидва почули голос, ніби давно мертвий труп вимовив ці слова, а самі
слова зістарилися й померли.

// 9593
//The Dementor’s speech hurt their ears as it said, “Bellatrix Black is out of
//her cell.”
Слухати дементора було боляче.

-- Белатриса Блек поза своєю камерою, -- сказав він.

// 9594
//There was a split second of horrified silence, and then Li tore out of his
//chair, heading for the communicator to call in reinforcements from the
//Ministry, even as McCusker grabbed his mirror and started frantically trying to
//raise the three Aurors who’d gone on patrol.
На мить від жаху запала мовчанка, а потім Лі вистрибнув зі стільця й побіг до
комунікатора, щоб викликати підкріплення з міністерства, а Маккаскер схопив
дзеркало та почав якомога швидше попереджати трьох аврорів, що пішли на обхід.
