// 11797
//== Self Actualization, Pt 1
== Розділ 66. Пошук себе, ч.1

// 11798
//__Hessitation iss alwayss eassy, rarely usseful.__
// копія з 065:11779
__Вагатисся завжди легко, та лишше зрідка кориссно.__

// 11799
//So the Defense Professor had told him; and while you could quibble about the
//details of the proverb, Harry understood the weaknesses of Ravenclaws well
//enough to know that you had to try __answering__ your own quibbles. Did
//some plans call for waiting? Yes, many plans called for __delayed
//action__; but that was not the same as __hesitating__ to __choose__.
//Not delaying because you knew the right moment to do what was necessary, but
//delaying because you couldn’t make up your mind - there was no cunning plan
//which called for that.
Так сказав був йому професор із захисту. І хоча можна чіплятися до слів
прислівʼя, Гаррі достатньо добре розумів слабкості рейвенкловців, щоб знати,
що треба й спробувати __відповідати__ на власні аргументи. Чи для якихось планів
краще було почекати? Так, багато планів вимагало __відкладеної дії__; та
це не те ж саме, що __зволікання__ з __вибором__. Відкладати не через те,
що ти знаєш, коли буде слушна мить зробити те, що треба, а відкладати лише
через те, що ти не можеш на щось наважитися, -- жоден хитрий план цього не
потребує.

// 11800
//Did you sometimes need more information to choose? Yes, but that could also
//turn into an excuse for delaying; and it would be __tempting__ to delay,
//when you were faced with a choice between two painful alternatives, and
//__not choosing__ would avoid the mental pain for a time. So you would pick
//a piece of information you couldn’t easily obtain, and claim that you couldn’t
//possibly decide without it; that would be your excuse. Although if you knew
//__what__ information you needed, knew __when__ and __how__ you
//would obtain that information, and knew what you would __do__ depending on
//each possible observation, then that was less suspicious as an excuse for
//hesitating.
Чи є інколи потреба в додатковій інформації, щоб вибрати? Так, проте це також
може стати приводом для зволікання. А зволікати може бути __спокусливо__, коли
є вибір між двома неприємними альтернативами, то __відсутність вибору__
позбавляє ментального болю на деякий час. Тому ви вибираєте якесь питання,
відповідь на яке здобути складно, і стверджуєте, що без цієї відповіді не
можете вирішити. Це і є ваш привід. Втім, якщо ви знаєте, __яка__ інформація
вам потрібна, __коли__ і __як__ ви її отримаєте, а також що ви __зробите__ в
залежності від кожної можливої відповіді на своє питання, то це буде значно
менше схоже на виправдання зволікання.

// 11801
//If you __weren’t__ just hesitating, you ought to be able to choose
//__in advance__ what you would do, once you had the extra information you
//claimed you needed.
Якщо ви __не__ просто вагаєтеся, то маєте бути здатні __заздалегідь__ вибрати,
що робитимете, коли отримаєте ту додаткову інформацію, яка, як ви стверджуєте,
вам потрібна.

// 11802
//If the Dark Lord were __really__ out there, would it be smart to go along
//with Professor Quirrell’s plan to have someone impersonate the Dark Lord?
Якщо Темний Лорд __справді__ десь там чигає, чи розумно буде втілювати план
професора Квірела доручити комусь грати роль Темного Лорда?

// 11803
//No. Definitely no. Absolutely not.
Ні. Точно ні. Аж ніяк ні.

// 11804
//And if Harry knew for a __fact__ that the Dark Lord __wasn’t__ really
//out there… in __that__ case…
Якби Гаррі знав __точно__, що Темний Лорд справді __мертвий__... у __цьому__
випадку...

// 11805
//The Defense Professor’s office was a small room, at least today; it had changed
//since the last time Harry had seen it, the stone of the room becoming darker,
//more polished. Behind the Defense Professor’s desk stood the single empty
//bookcase that always decorated the room, a tall bookcase stretching almost from
//the floor to the ceiling, with seven empty wooden shelves. Harry had only once
//seen Professor Quirrell take a book from those empty shelves, and never seen
//him put a book back.
Кабінет професора із захисту був маленькою кімнатою. Принаймні, сьогодні. Він
змінився, відколи Гаррі був у ньому востаннє: каміння в кімнаті стало темнішим,
більш полірованим. З іншого боку від стола стояла єдина книжкова шафа, що
завжди була в цій кімнаті, -- висока книжкова шафа, що ледь не сягала стелі й
містила сім порожніх деревʼяних полиць. Гаррі лише один раз бачив був, як професор
Квірел діставав книжку з цих порожніх полиць, і ніколи не бачив, щоб він
повертав книжку на місце.

// 11806
//The green snake swayed above the seat of the chair behind the Defense
//Professor’s desk, the lidless eyes staring unblinking at Harry from close to
//his own eye level.
Зелений змій звивався на стільці за столом професора із захисту. Очі без вік
незмигно дивилися на Гаррі приблизно на висоті його власних очей.

// 11807
//They were warded now by twenty-two spells, all that could be cast within
//Hogwarts without attracting the Headmaster’s attention.
Тепер вони були під захистом двадцяти двох заклять -- усіх, що можна було
застосувати в Гоґвортсі без привертання уваги директора.

// 11808
//“__No,__” hissed Harry.
-- __Ні__, -- прошипів Гаррі.

// 11809
//The green snake cocked its head, tilting it slightly; no emotion was conveyed
//by the gesture, not that Harry’s Parselmouth talent conveyed to him.
//“__Reasson not?__” said the green snake.
Зелений змій трохи схилив голову набік. Цей жест не передавав жодної емоції,
наскільки дозволяв зрозуміти талант Гаррі в парселмові.

-- __Причина відмови?__ -- запитав зелений змі{stress}й.

// 11810
//“__Too rissky,__” Harry said simply. That was true whether or not the Dark
//Lord was out there. Forcing himself to decide in advance had made him realize
//that he’d just been using the unanswered question as an excuse to hesitate; the
//sane decision was the same, either way.
-- __Надто небезпечно__, -- просто відповів Гаррі.

Це було правдою незалежно від того, існував Темний Лорд чи ні. Коли він примусив
себе вирішити заздалегідь, він зрозумів, що він використовував це питання лише
для того, щоб зволікати. Розумне рішення однакове, незалежно від відповіді.

// 11811
//For a moment the dark pitted eyes seemed to gleam blackly, for a moment the
//scaled mouth gaped to expose the fangs. “__Think you have learned wrong
//lessson, boy, from previouss failure. My planss are not in habit of failing,
//and lasst one would have gone flawlesssly, but for your own foolisshnesss.
//Correct lessson iss to follow ssteps laid down for you by older and wisser
//Sslytherin, tame your wild impulssess.”__
На мить темні очі-ями ніби блиснули чорнотою, на мить змій вишкірив
ікла.

-- __Гадаю, ти ззассвоїв хибний урок, хлопче, черезз попередню невдачу. Мої
плани ззрідка не вдаються, і осстанній пройшшов би безздоганно, якби не твоя
влассна дуріссть. Правильний урок -- йти сстежкою, шщо її проклав для тебе
сстаршший та мудріший сслиззеринець, вгамувати влассні дикі імпульсси.__

// 11812
//“__Lessson I learned is not to try plotss that would make girl-child
//friend think I am evil or boy-child friend think I am sstupid,__” Harry snapped
//back. He’d been planning a more temporizing response than that, but somehow the
//words had just slipped out.
-- __Я засссвоїв іншший урок: не братисся за плани, черезз які дівчинка-друг
вважає
мене лихим, а хлопчик-друг -- дурним__, -- кинув у відповідь Гаррі.

Він планував більш лагідну відповідь, та якимось чином слова просто вирвалися.

// 11813
//The __sssss__-ing sound that came from the snake was not heard by Harry as
//words, only as pure fury. A moment later, “__You told them -__”
Звук "`__шшшшш__`" у відповідь Гаррі не сприйняв як слова -- лише як щиру лють.
За мить змій прошипів:

-- __Ти ссказзав їм...__

// 11814
//“__Of coursse not! But know what they would ssay.__”
-- __Ззвіссно ні! Та ззнаю, шщо вони ссказзали б.__

// 11815
//There was a long pause as the snake-head swayed, staring at Harry; again no
//detectable emotion came through, and Harry wondered what Professor Quirrell
//could be thinking that would take Professor Quirrell that long to think.
У довгому мовчанні зміїна голова хиталася з боку в бік і витріщалася на Гаррі.
Знову Гаррі не міг сприйняти в цьому жодної емоції, і йому було дуже цікаво,
про що ж таке професор Квірел думав, що йому це треба було так довго
обмірковувати.

// 11816
//“__You sserioussly care what thosse two think?__” came the snake’s final
//hiss. ”__True younglingss thosse two are, not like you. Could not weigh
//adult matterss.__”
-- __Для тебе ссправді важливо, шщо ці двоє вважають?__ -- почулося останнє
шипіння змі{stress}я. -- __Ці двоє -- ссправжні діти, на відміну від тебе.
Не зздатні впоратисся зз доросслими ссправами.__

// 11817
//“__Might have done better than me,__” Harry hissed. ”__Boy-child
//friend would have assked after ssecret motivess before asssenting to resscue
//woman -__”
-- __Можливо, в них би вийшло крашще за мене__, -- прошипів Гаррі. --
__Хлопчик-друг ззапитав би про приховані мотиви перед тим, як погодитисся
рятувати жінку...__

// 11818
//“__Glad you undersstand that now,__” the snake hissed coldly.
//”__Alwayss assk after other’ss advantage. Next learn to alwayss assk
//after your own. If my plan iss not to your tasste, what iss yours?__”
-- __Добре, шщо ти тепер це роззумієшш,__ -- холодно прошипів змій. --
__Ззавжди діззнавайсся, в чому ззисск для іншших. Далі навчисся ззавжди
піклуватисся про ззисск для ссебе. Якшщо мій план тобі не до вподоби, який твій
план?__

// 11819
//“__If necesssary - sstay at sschool ssix yearss and sstudy. Hogwartss
//sseemss fine place to dwell. Bookss, friendss, sstrange but tassty food.__”
//Harry wanted to chuckle, but there wasn’t any gesture in Parseltongue for the
//kind of laughter he wanted to express.
-- __Якшщо треба, ззалишшитисся в шшколі на шшіссть років і навчатисся.
Гоґвортсс видається чудовим міссцем для перебування. Книжки, друззі, дивна, але
ссмачна їжа__, -- Гаррі хотілося хихикнути, та для того сміху, який він хотів
висловити, не було відповідного жесту в парселмові.

// 11820
//The pits of the snake’s eyes seemed almost black. “__Eassy to ssay that
//now. Ssuch as you and I, we do not tolerate imprissonment. You will losse
//patience long before sseventh year, perhapss before end of thiss one. I sshall
//plan accordingly.__”
Очі-ями змі{stress}я стали ледь не чорними.

-- __Легко так каззати ззаразз. Таким, як ми зз тобою, нелегко витримувати
увʼяззнення. Ти втратишш терпіння до ссьомого року, можливо, до кінця цього.
Я плануватиму відповідно.__

// 11821
//And before Harry could hiss another word of Parseltongue, the human-shape of
//Professor Quirrell was sitting in his chair once more. “So, Mr. Potter,” said
//the Defense Professor, his voice as calm as if they had been discussing nothing
//important, as if the whole conversation had not occurred at all, “I hear that
//you have begun to practice dueling. Not the worthless sort with __rules__,
//I hope?”
Не встигнув Гаррі прошипіти й слова парселмовою, як на стільці навпроти знову
зʼявилася людська подоба професора Квірела.

-- Отже, містере Поттер, -- спокійно сказав професор Квірел, ніби вони не
обговорювали щойно щось важливе, і вони взагалі не розмовляли щойно. -- Я чув,
що ви почали навчатися дуелей. Сподіваюся, не марного різновиду з
__правилами__?

***

// 11822
//Hannah Abbott looked as unnerved as Hermione had ever seen her (except on the
//day of the phoenix, the day Bellatrix Black had escaped, which shouldn’t ought
//to count for anyone). The Hufflepuff girl had come over to the Ravenclaw table
//during dinner, and tapped Hermione on her shoulder, and very nearly dragged her
//away -
Герміона ще ніколи не бачила Анну Ебот такою стурбованою (крім дня фенікса, дня,
коли втекла Белатриса Блек, проте це не рахується ні для кого). Гафелпафка підійшла
до рейвенкловського стола під час обіду, торкнулася її плеча і ледь не витягла її
з-за нього...

// 11823
//“Neville and Harry Potter are learning dueling from Mr. Diggory!” Hannah
//blurted as soon as they were a few steps away from the table.
-- Невіл і Гаррі Поттер навчаються дуелей у містера Діґорі! -- випалила вона,
щойно вони відійшли на кілька кроків від стола.

// 11824
//“Who?” said Hermione.
-- Кого? -- запитала Герміона.

// 11825
//“__Cedric Diggory!__” said Hannah. “He’s the Captain of our Quidditch
//Team, and general of an army, and he’s taking __all__ the electives and
//getting better grades than anyone, and I hear he learns dueling from
//professional tutors during the summers, and he once beat __two__
//seventh-year students, and even some teachers call him the Super Hufflepuff,
//and Professor Sprout says we should all emu, uh, emudate him or something like
//that, and -”
-- __Седрика Діґорі!__ Він капітан нашої команди квідичу, і генерал війська, і
він записався на __всі__ факультативні заняття, і він отримує ліпші за всіх
оцінки, і я чула, що влітку його навчають дуелей професійні наставники, і якось
він переміг __двох__ семикласників, а деякі вчителі навіть називають його
супергафелпафцем, і професорка Спраут каже, що ми маємо його по.. гм...
послідувати чи щось таке, і...

// 11826
//After Hannah finally stopped for air (the list had gone on for a while),
//Hermione managed to insert a word in edgewise.
Коли Анна нарешті замовкла, щоб набрати повітря (список продовжувався ще
деякий час), Герміоні вдалося вставити різке слово:

// 11827
//“Sunshine Soldier Abbott!” said Hermione. “Calm __down__. We’re not going
//to be fighting General Diggory, right? Sure, Neville’s studying to beat us, but
//we can study too -”
-- Воїне Сонечка Ебот! __Заспокойся.__ Ми не битимемося з генералом Діґорі,
так? Звісно, Невіл навчається, щоб перемогти нас, проте ми теж можемо
навчатися.

// 11828
//“Don’t you __see?__” Hannah shrieked, raising her voice a lot louder than
//it should’ve been, if they were trying to keep the conversation private from
//all the Ravenclaws looking at them. “Neville isn’t studying to beat
//__us!__ He’s practicing so he can fight __Bellatrix Black!__ They’re
//going to go through us like a Bludger through a stack of pancakes!”
-- Хіба ти не __розумієш__? -- вигукнула Анна значно гучніше, ніж варто було,
якщо вона хотіла залишити цю розмову в таємниці від інших рейвенкловців, що
на них дивилися. -- Невіл не навчається перемагати __нас__! Він тренується,
щоб битися з __Белатрисою Блек__!! Вони пройдуть крізь наше військо мов
бладжер крізь стос млинців!

// 11829
//The Sunshine General gave her soldier a look. “Listen,” said Hermione, “I don’t
//think a few weeks of practice is going to make anyone an invincible fighter.
//Plus we already __know__ how to handle invincible fighters. We’ll
//concentrate fire on them and they’ll go down just like Draco.”
Генерал Сонечка значуще на неї поглянула.

-- Послухай. Навряд чи кілька тижнів тренувань зроблять з когось невразливого
бійця. Крім того, ми вже __знаємо__, як давати собі раду з невразливими
бійцями. Ми просто сконцентруємо на них вогонь, і вони падуть так само, як
Драко.

// 11830
//The Hufflepuff girl was looking at her with mixed admiration and skepticism.
//“Aren’t you even, you know, __worried?__”
У погляді гафелпафки читалася суміш поваги й скептицизму.

-- Ти що, навіть, ну знаєш, __не хвилюєшся__?

// 11831
//“Oh, __honestly!__” said Hermione. Sometimes it was hard being the only
//sensible person in your whole school year. “Haven’t you ever heard the saying,
//the only thing we have to fear is fear itself?”
-- Ой, ну __серйозно__! -- сказала Герміона. Подеколи їй здавалося, що вона
єдина нормальна людина на своїй паралелі. -- Ти хіба ніколи не чула, що
боятися варто лише самого страху?

// 11832
//“__What?__” said Hannah. “That’s crazy, what about Lethifolds lurking in
//the darkness, and being put under the Imperius Curse, and horrible
//Transfiguration accidents and -”
-- __Що?__ Це якась маячня, а як же смертефалди, що крадуться в темряві, те, що
тебе можуть проклясти "`Імперіусом`", жахливі нещасні випадки з
трансфігурацією і...

// 11833
//“I __mean,__” said Hermione, exasperation leaking out into her now-raised
//voice, she’d been hearing this sort of thing __all week__ now, “how about
//if we wait until __after__ the Chaos Legion __actually__ crushes us
//to get so scared of them and __did you just mutter ‘Gryffindors’ under
//your voice?__”
-- Я __маю на увазі__, -- сказала Герміона, роздратування чулося в її тепер
підвищеному голосі, адже вона вислуховувала подібне __весь тиждень__, -- як
щодо того, щоб дочекатися, доки Легіон Хаосу __справді__ розтрощить нас, а вже
тоді починати боятися їх і... __ти щойно промимрила "`ґрифіндорці`"?__

// 11834
//A few moments later, Hermione was walking back to her place at the table with a
//sweet smile plastered onto her young face, it wasn’t the terrible cold glare of
//Harry’s dark side but it was the scariest face __she__ knew how to make.
За кілька секунд Герміона вже йшла назад до свого місця за столом. На її юному
обличчі була штучна солодка усмішка. Це не був жахливий холодний погляд темної
сторони Гаррі, проте це було найстрашніше обличчя, яке __вона__ знала, як
зробити.

// 11835
//Harry Potter was going __down.__
Поттерові __гаплик__.

***

// 11836
//“This is loony,” gasped Neville, with what tiny amount of breath he could spare
//from being completely out of breath.
-- Це якось недоумкувато, -- тільки й встигнув вставити між відсапуваннями Невіл.

// 11837
//“This is __brilliant!__” said Cedric Diggory. The eyes of the Super
//Hufflepuff gleamed with manic enthusiasm, shining like the sweat on his
//forehead as he stamped his feet through the dance of one of his dueling
//postures. His usually-light steps had changed to heavier stomps, which might
//have had something to do with the Transfigured metal weights they’d all
//attached to their arms and legs and strapped over their chests. “Where do you
//__get__ these ideas, Mr. Potter?”
-- Це __геніально__! -- сказав Седрик Діґорі.

Очі супергафелпафця блищали від маніакального ентузіазму, мов піт на його чолі,
коли він відбивав ногами танець однієї зі своїх дуельних поз. Його зазвичай
легкі кроки перетворилися на важчі гупання, що було якось повʼязано з додатковою
вагою трансфігурованого металу, що вони навісили на руки, ноги, а також груди.
-- __Звідки__ у вас беруться такі ідеї, містере Поттер?

// 11838
//“A strange old shop… in Oxford… and I’m never… shopping there… again.”
//__Thud.__
-- Дивна стара крамничка... в Оксфорді.... і я більше ніколи... там... не
купуватиму.
