// 19817
//== Something to Protect: Draco Malfoy
== Розділ 120. Варте захисту: Драко Мелфой

// 19818
//__A/N: Farewell, Terry Pratchett, 1948-2015. Your characters were an
//inspiration to me, and now I can see how much they taught me about Level 1 and
//Level 3 Character Intelligence: that self-awareness often manifests as humor or
//as genre-savviness; that an inner spark of optimization can shine just as
//brightly through characters who are told (but not shown) to be lowly and
//stupid; that intelligent characters can go along with a spark of goodness and
//light running through a story, rather than cynicism. I wish I could have met
//you, and spoken with you about your methods. You were loved by so many, and
//surely at least one person who would tear apart the foundations of reality to
//bring you back; but your brain is dead and warm now, and so your story ends.__
// Elvira: genre-savvy - https://tvtropes.org/pmwiki/pmwiki.php/Main/GenreSavvy
__Примітка автора: Прощавайте, Террі Пратчетте, 1948--2015. Ваші персонажі були
натхненням для мене, і зараз я розумію, скільком речам вони навчили мене стосовно
інтелекту персонажів першого й третього рівня. Що самосвідомість часто проявляється
через почуття гумору чи розуміння законів жанру. Що іскра оптимізації може засяяти
не менш яскраво у персонажах, що їм приписують (без демонстрації) низькі становище
й інтелект. Що розумні персонажі можуть існувати поряд із іскрою доброти і світла,
що сяє крізь історію замість цинізму. Я б так хотів мати змогу зустрітися з вами і
поговорити про ваші методи. Ви були любимі стількома людьми, авжеж є серед них хтось,
хто здатен розірвати на частини основи реальності й повернути вас. Але ваш мозок вже
мертвий і теплий, і так закінчується ваша історія.__

//!Elvira - треба?
//!hedrok хай буде
Примітка перекладача: якщо формулювання "`інтелект персонажів першого й третього рівня`"
вас зацікавило, можливо, ви захочете прочитати текст за цим посиланням:
https://yudkowsky.tumblr.com/writing (на жаль, не перекладений).

// 19819
//__Even if the stars should die in heaven,__
__Навіть зорям у небі судилося небуття,__

// 19820
//__Our sins can never be undone.__
__Ніколи не буде гріхам нашим спокуття.__

// 19821
//__No single death will be forgiven__
__Жодна смерть не буде пробачена__

// 19822
//__When fades at last the last lit sun.__
__Коли, врешті, решта сонць буде втрачена.__

// 19823
//__Then in the cold and silent black__
__Тоді, у холодній мовчазній чорноті,__

// 19824
//__As light and matter end,__
__У кінці світла й матерії,__

// 19825
//__We’ll have ourselves a last look back__
__Ми кинемо останній погляд назад,__

// 19826
//__And toast an absent friend.__
__Про друзів, що зникли, на згад.__

// 19827
//____
***

// 19828
//The boy sat in an office near to where the once-Deputy Headmistress had held
//court. His tears had run dry hours ago. Now there was only the waiting to see
//what would become of him, the orphan ward of Hogwarts, whose life and happiness
//lay in the hands of his family’s enemies. The boy had been called to this room,
//and he had come because there was nothing else to do and nowhere else to go.
//Vincent and Gregory had left his side, called back by their mothers for their
//fathers’ hurried funerals. Perhaps the boy should have gone with them, but he
//could not bring himself to do so. He would not have been able to act the part
//of a Malfoy. The feeling of emptiness that filled him up was so profound that
//it left no room even for pretended courtesy.
// Elvira: майже повний повтор 19860
// hedrok: точніше повна копія, крім "pretended courtesy" -> "lies" наприкінці
// hedrok @ had held court @Eliezer спитати про це
Хлопець сидів у кабінеті недалеко від місця, де колишня заступниця
зібрала двір. Його сльози всохли години тому. Тепер він міг тільки чекати,
що з ним станеться. Сирота-ув'язнений Гоґвортсу, чиї життя і щастя були
в руках ворогів його сім'ї. Хлопця викликали у цю кімнату, і він прийшов, бо
нічого іншого не міг зробити, і нікуди більше було піти. Вінсент і Ґреґорі його
покинули, матері{stress} викликали їх на спішні похорони їхніх тат. Можливо, хлопцю варто
було поїхати з ними, але він не зміг змусити себе це зробити. Він не здатен був
грати роль Мелфоя. Відчуття порожнечі, що наповнювало його, було таким глибоким,
що не залишало місця навіть для вдаваної люб'язності.

// 19829
//Everyone was dead.
Всі померли.

// 19830
//His father was dead, and his godfather Mr. MacNair, and his fallback godfather
//Mr. Avery. Even Sirius Black, his mother’s cousin, had somehow managed to die,
//and the last remnant of House Black was no friend to any Malfoy.
Його батько помер, і його хрещений, містер Макнейр, і його запасний хрещений, містер
Евері. Навіть Сіріус Блек, кузен його матері, примудрився вмерти, а останні спадкоємці
роду Блеків не були другом жодному Мелфою.

// 19831
//Everyone was dead.
Всі померли.

// 19832
//There came a knock upon the office’s door; and then, when the boy made no
//reply, the door opened, revealing -
У двері кабінету постукали. Хлопець не відповів, і тоді двері відчинилися, а за ними...

// 19833
//“Go away,” Draco Malfoy said to the Boy-Who-Lived. He couldn’t muster any force
//in the words.
-- Іди геть, -- сказав Драко Мелфой Хлопчику-Що-Вижив. Він не здатен був вкласти
хоч якусь силу у свої слова.

// 19834
//“I will soon,” Harry Potter said, as he stepped into the room. “But there’s a
//decision to be made, and only you can make it.”
-- Невдовзі піду, -- Гаррі Поттер увійшов у кімнату. -- Але рішення має бути прийняте,
і тільки ти можеш це зробити.

// 19835
//Draco turned his head toward the wall, because just looking at Harry Potter
//took more energy than he had left in him.
Драко відвернувся до стіни. Навіть просто дивитися на Гаррі Поттера потребувало
більше енергії, ніж у ньому лишилося.

// 19836
//“You have to decide,” Harry said, “what happens to Draco Malfoy after this. I
//don’t mean that in any ominous way. No matter what, you’re still going to grow
//up to be the rich heir of a Noble and Most Ancient House. The thing is,”
//Harry’s voice was wavering now, “the thing is, there’s a horrible truth you
//don’t know, and I keep thinking that if you knew, you’d tell me not to be your
//friend anymore. And I don’t want to stop being your friend. But to just - never
//tell you - and always maintain that lie so I can go on being your friend - I
//can’t do that. It’s also wrong. I don’t… don’t want this anymore, I don’t want
//to be __manipulating__ you. I’ve hurt you too much already.”
-- Ти маєш вирішити, -- сказав Гаррі, -- що станеться із Драко Мелфоєм далі. Я не
намагаюся тобі погрожувати. Хай там як, ти все одно виростеш і станеш багатим
спадкоємцем шляхетного й найдавнішого роду.

-- Річ у тому, -- голос Гаррі почав тремтіти, -- річ у тому, що є дещо жахливе,
чого ти не знаєш. І я не можу припинити думати про те, що якби ти знав, ти сказав
би мені більше не бути твоїм другом. Але я не хочу припиняти бути твоїм другом. Але...
Але просто ніколи не говорити тобі... І постійно підтримувати брехню, щоб я міг і
надалі залишатися твоїм другом, -- я так не можу. Це також неправильно. Я... Я цього
більше не хочу, я не хочу __маніпулювати__ тобою. Я завдав тобі достатньо болю.

// 19837
//__Then stop trying to be my friend, you’re no good at it anyway.__ The
//words rose up into Draco’s consciousness, and were rejected from his lips. He
//felt like he’d mostly lost Harry already, from the games Harry had played with
//their friendship, the lies and manipulations; and yet the thought of going back
//to Slytherin alone, maybe without Vincent and Gregory if their mothers
//terminated the arrangement… Draco didn’t want to do that, he didn’t want to go
//back to Slytherin and live out his life among only people who’d agreed to be
//Sorted into Slytherin House. Draco was barely sensible enough to remember how
//many of his real friends were also friends with Harry, that Padma was a
//Ravenclaw and even Theodore was a Chaotic Lieutenant. All that remained of
//Malfoy House was a tradition, now; and that tradition said it wasn’t clever to
//tell the war’s victor to go away and stop trying to be friends with you.
__Тоді припини намагатися бути моїм другом, в тебе все одно не виходить.__
Слова з'явилися у свідомості Драко, але їм було відмовлено у спробі досягнути губ.
Він відчував, що і так вже втратив Гаррі, через те, як Гаррі грав з їхньою дружбою,
через брехню та маніпуляції. Але думка про те, щоб повернутися до Слизерину самому, можливо
навіть без Вінсента й Ґреґорі, якщо їхні матері обірвуть домовленість... Драко не
хотів цього, він не хотів повернутися до Слизерину й прожити своє життя серед тих лише,
хто погодився потрапити до Слизерину. Драко ледве вистачало свідомості, щоб згадати,
скільки його справжніх друзів також були друзями Гаррі. Що Падма була з Рейвенклову,
і навіть Теодор був лейтенантом Хаосу. Традиція -- це все, що наразі лишилося від роду
Мелфоїв. І ця традиція підказувала, що нерозумно казати переможцю війни йти геть і
припинити намагатися бути твоїм другом.


// 19838
//“All right,” Draco said emptily. “Tell me.”
-- Добре, -- порожнім голосом сказав Драко. -- Розкажи мені.

// 19839
//“That’s what I’m going to do,” Harry said. “And then the Headmistress will come
//in after I leave, and seal away your last half-hour of memory. But before then,
//knowing the whole truth, you’ll get to decide whether you still want to be
//involved with me.” Harry’s voice was shaking. “Um. According to the records I
//was reading through before I came here, the story really began in 1926 with the
//birth of a half-blood wizard named Tom Morfin Riddle. His mother died in
//childbirth, and he grew up in a Muggle orphanage, until his Hogwarts letter was
//brought to him by Professor Dumbledore…”
-- Саме це я і зроблю. А тоді прийде директорка і запечатає останні пів години твоїх
спогадів. Але перед тим, знаючи усю правду, ти вирішиш, чи все ще хочеш мати справу
зі мною.

Голос Гаррі тремтів.

-- Тож... Згідно із записами, які я читав перед тим, як сюди прийти, історія насправді
почалася у 1926, із народженням напівкровного чарівника на ім'я Том Морфін Редл. Його
мати померла при пологах, і він виховувався у маґлівському дитячому будинку, аж доки професор
Дамблдор не доставив йому його листа із Гоґвортсу...

// 19840
//The Boy-Who-Lived continued speaking, words that slammed into what was left of
//Draco’s mind like falling houses.
Хлопчик-Що-Вижив розповідав далі, слова вдарялися об залишки розуму Драко, наче
падаючі будинки.

// 19841
//__The Dark Lord had been a half-blood. He’d never believed in blood
//purity for a fraction of a second.__
__Темний Лорд був напівкровкою. Він і частку секунди не вірив у чистоту крові.__

// 19842
//__Tom Riddle had come up with the idea of Lord Voldemort as a bad joke.__
__Том Редл придумав лорда Волдеморта як поганий жарт.__

// 19843
//__The Death Eaters had been meant to lose to David Monroe, so Monroe
//could take over.__
__Смертежери мали програти Девіду Монро, щоб Монро міг захопити владу.__

// 19844
//__After giving up on that, Tom Riddle had gone on playing Voldemort
//instead of actually trying to win, because he’d liked bossing the Death Eaters
//around.__
__Коли із цим не вийшло, Том Редл вирішив грати Волдеморта, бо йому подобалося
командувати смертежерами.__

// 19845
//__Voldemort used me to try to frame Father for my attempted murder, then
//used me again to go after the Philosopher’s Stone.__ Draco couldn’t remember
//that part, but he’d already been told that he’d been used as a pawn alongside
//Professor Sprout, and that no charges would be filed.
__Волдеморт використав мене, щоб спробувати звинуватити батька у спробі мене вбити.
Потім він використав мене знову, щоб здобути філософський камінь.__ Драко не пам'ятав
цього, але йому розповіли, що він, так само, як і професорка Спраут, був пішаком, і що
його ні в чому не звинувачують.

// 19846
//And then the last horror.
І тоді останнє жахіття.

// 19847
//“You -” whispered Draco Malfoy. “You -”
-- Ти... -- прошепотів Драко. -- Ти...

// 19848
//“I’m the one who killed your father and all the other Death Eaters last night.
//They’d been told to open fire on me the moment I did anything, so I had to kill
//them in order to have a chance at dealing with Voldemort, who was a danger to
//the entire world.” Harry Potter’s voice was strained. “I didn’t think about you
//and Theodore and Vincent and Gregory, but if I had, I’d have done it anyway. My
//mind managed not to realise until afterwards that Mr. White was Lucius, but if
//I’d realised, I still wouldn’t have risked leaving him alive, in case he knew
//wandless magic. The thought occurred to me long before that it would be pretty
//convenient, in terms of the political landscape, for all the Death Eaters to
//suddenly die. I always thought that the Death Eaters were horrible people, much
//more strongly than I ever let on to you, since the first day we met. But if
//your father hadn’t been there, and I’d had a button that could kill him
//remotely, I wouldn’t have pressed the button just for political reasons. The
//way I feel about what I’ve done, and whether there’s remorse… well, there’s a
//part of me that’s screaming in generic horror about having killed anyone. And
//another part that says that from a moral standpoint, the Death Eaters signed
//away their lives on the day they signed up with Voldemort. They pointed their
//wands at me first, blah blah and so on. But right now I just feel sick about
//what I’ve done to you. Again. I feel like,” Harry Potter’s voice wobbled a bit,
//“everything I do only hurts you, for all my __good intentions,__ that
//you’ve only ever lost things from being around me, so if you tell me to stay
//away entirely from Draco Malfoy after this, then I will. And if you want me to
//try to be your friend for real this time, without ever trying to manipulate you
//again, without ever using you again or risking hurting you again, then I will,
//I swear I will.”
-- Це я вбив твого батька і всіх інших смертежерів минулої ночі. Їм наказали напасти
на мене, щойно я зроблю бодай щось, тож мені довелося вбити їх, щоб мати змогу розібратися
з Волдемортом, який загрожував усьому світу.

Голос Гаррі був здавленим.

-- Я не подумав про тебе, і Теодора, і Вінсента, і Ґреґорі. Але якби я подумав, то
все одно зробив би це. Мій мозок спромігся до останнього не розуміти, що містер
Білий
-- це Луціус. Але навіть якби я зрозумів, я все одно не ризикував би, залишивши його
живим, адже він міг володіти безпаличковою магією. Задовго до того мені вже приходила
така думка, що це було б дуже політично зручно, якби всі смертежери раптово загинули.
Я завжди вважав, що смертежери -- жахливі люди, я впевнений в цьому набагато сильніше,
ніж показував тобі із нашої першої зустрічі. Але, якби твого батька там не було, і я
мав би кнопку, що може вбити його на відстані, я не натиснув би її тільки заради політики.
Як я почуваюся через свій вчинок і чи мучить мене сумління... Що ж, частина мене кричить
від загального жаху через те, що я вбив когось. А інша частина каже, що з моральної точки зору,
смертежери заклали свої життя того дня, коли підписалися співпрацювати з Волдемортом. Вони
перші націлили на мене свої палички і таке інше. Але саме зараз мені просто дуже погано від того,
як я вчинив з тобою. Знову. Я почуваюся так, наче, -- голос Гаррі здригнувся, -- наче все, що
я роблю, лише завдає тобі болю, незважаючи на мої __добрі наміри__. Що в моєму
оточенні ти постійно лише втрачав, тому, якщо ти скажеш мені надалі триматися на відстані від
Драко Мелфоя, я зроблю це. А якщо ти хочеш, щоб я спробував бути твоїм другом, цього разу
по-справжньому, не намагаючись маніпулювати тобою, не використовуючи тебе, і не ризикуючи тим,
щоб завдати тобі болю, тоді я ним буду, клянуся, я буду.

// 19849
//The next Lord Malfoy was crying, openly in front of his enemy, decorum and
//composure abandoned, because he didn’t have anyone left for whose sake he could
//keep it.
Наступний лорд Мелфой плакав. Прямо перед очима свого ворога, закинувши пристойність і
самовладання, бо не було більше задля кого їх зберігати.

// 19850
//A lie.
Брехня.

// 19851
//A lie.
Брехня.

// 19852
//Everything had been a lie, it was all lies piled on top of lies, lies lies lies
//-
Все було брехнею, самі лише брехні на брехнях, брехня брехня брехня...

// 19853
//“__You__ should die,” Draco forced out. “You should die for having killed
//Father.” The words only filled him with more emptiness, but they had to be
//said.
-- __Ти__ маєш вмерти, -- видавив з себе Драко. -- Ти маєш вмерти, за те, що
вбив батька.

Ці слова ще більше наповнили його порожнечею. Але вони мали бути сказані.

// 19854
//Harry Potter just shook his head. “And if that’s not an option?”
Гаррі Поттер похитав головою.

-- А якщо це не варіант?

// 19855
//“You should __hurt.__”
-- Ти маєш __страждати__.

// 19856
//Harry only shook his head again.
Гаррі знову похитав головою.

// 19857
//The Boy-Who-Lived pressed the Lord Malfoy for his decision.
Хлопчик-Що-Вижив вимагав від лорда Мелфоя прийняття рішення.

// 19858
//The Lord Malfoy refused to give it. He couldn’t say it, couldn’t bring himself
//to say it, either way. He didn’t want the war’s victor and their mutual friends
//to abandon him, and he wasn’t going to give Harry the absolution he wanted,
//either.
Лорд Мелфой відмовлявся це зробити. Він не міг цього сказати, не міг змусити себе цього
сказати, що б він не обрав. Він не хотів, щоб переможець війни і їхні спільні
друзі його
покинули. Та він не збирався давати Гаррі відпущення, якого той хотів.

// 19859
//So Draco Malfoy refused to answer, and then the time of that self’s memory
//ended.
Тож Драко Мелфой відмовився відповідати. А тоді час цієї пам'яті закінчився.

***

// 19860
//The boy sat in an office near to where the once-Deputy Headmistress had held
//court. His tears had run dry hours ago. Now there was only the waiting to see
//what would become of him, the orphan ward of Hogwarts, whose life and happiness
//lay in the hands of his family’s enemies. The boy had been called to this room,
//and he had come, because there was nothing else to do, and nowhere else to go.
//Vincent and Gregory had left his side, called back by their mothers for their
//fathers’ hurried funerals. Perhaps the boy should have gone with them, but he
//could not bring himself to do so. He would not have been able to act the part
//of a Malfoy. The feeling of emptiness that filled him up was so profound that
//it left no room even for lies.
// Elvira: майже повний повтор 19828
Хлопець сидів у кабінеті недалеко від місця, де колишня заступниця
директора вершила суд. Його сльози всохли години тому. Тепер він міг тільки чекати,
що з ним станеться. Сирота-ув'язнений Гоґвортсу, що його життя й щастя були
в руках ворогів його сім'ї. Хлопця викликали у цю кімнату, і він прийшов, бо
нічого іншого не міг зробити, і нікуди більше було піти. Вінсент і Ґреґорі його
покинули, матері{stress} викликали їх на спішні похорони їхніх тат. Можливо, хлопцю варто
було поїхати з ними, але він не зміг змусити себе це зробити. Він не здатен був
грати роль Мелфоя. Відчуття порожнечі, що наповнювало його, було таким глибоким,
що не залишало місця навіть для брехні.

// 19861
//Everyone was dead.
Всі були мертві.

// 19862
//Everyone was dead, and it had all been futile from the beginning.
Всі були мертві, і все було марно від початку.

// 19863
//There was a knock upon the office door, and then, after a polite pause, it
//opened to reveal Headmistress McGonagall, dressed much as she had dressed when
//she was a Professor. “Mr. Malfoy?” his family’s victorious enemy said. “Please
//come with me.”
У двері кабінету постукали, і, після ввічливої паузи, з-за них з'явилася директорка
Макґонеґел, вдягнена так само, як вона вдягалася, коли була професоркою.

-- Містере Мелфой? -- промовив ворог, що здобув перемогу. -- Будь ласка, ідіть зі мною.

// 19864
//Listlessly, Draco rose up, and followed her out of the office. Seeing Harry
//Potter waiting beside her gave him some pause, but then his mind simply shut it
//out.
Байдужий до всього, Драко піднявся й пішов слідом за нею. Він на мить зупинився, побачивши, що
Гаррі Поттер чекає поряд із директоркою. Але потім його розум просто ізолювався від цього.


// 19865
//“Here’s the last thing,” Harry Potter said. “I found it in a folded parchment
//whose outside said that it was the last weapon to be used against House Malfoy,
//telling me not to read any further until the whole war hung in the balance. I
//didn’t want to tell it to you before because I thought it might prejudice your
//decision unfairly. If you were a good person who never killed or lied, but you
//had to do one or the other, which would be worse?”
-- Це останнє, -- сказав Гаррі Поттер. -- Я знайшов це у складеному пергаменті, на
якому було написано, що це остання зброя, яку можна використати проти роду Мелфоїв,
і що не варто читати далі, хіба що вся війна залежатиме від цього.
Я не сказав тобі цього раніше, бо думав, що це несправедливо вплине на твоє рішення.
Якби ти був гарною людиною, яка ніколи не брехала і не вбивала, але мав би зробити
щось з цього, що було б гірше?

// 19866
//Draco ignored him and continued in Headmistress McGonagall’s company, leaving
//Harry behind looking sadly after.
Драко не зважав на нього. Він ішов далі в компанії директорки Макґонеґел, а
Гаррі залишився із сумом дивитися вслід.

// 19867
//They came to the Headmistress’s old office, where she lit her Floo-fire with a
//wave of her wand, said to the green flame “Gringotts travel office” and stepped
//through after a firm glance in his direction.
Вони прийшли до старого кабінету директорки, де вона запалила порошок флу помахом палички і
сказала зеленому полум'ю: "`Мандрівна служба '`Ґрінґотс`'`". Кинувши на Драко суворий погляд,
вона увійшла у полум'я.

// 19868
//For lack of any other option, Draco Malfoy followed.
Драко Мелфой пішов за нею, бо інших варіантів не мав.

***

// 19869
//She lay in bed, feeling more listless than usual that morning, awoken too early
//with the Sun just beginning to rise - though the direct sunlight was blocked by
//the skyscrapers that shadowed her house. A faint tinge of hangover gnawed at
//her temples, dried her mouth; she tried to be sparing with the drink (though
//she didn’t know why she bothered) but yesterday she’d felt… even more depressed
//than usual, like she’d lost something, somehow. Not for the first time, not for
//the hundredth time, she thought about moving - to Adelaide, to Perth, maybe to
//Perth Amboy if that was what it took. She always had the sense there was
//somewhere else she ought to be; but while she could live a comfortable life on
//the payments the insurance company made to her, she couldn’t afford luxuries.
//She couldn’t pay to go gallivanting around the world looking for someplace that
//fit her unsatisfied sense of belonging. She’d watched the TV for long enough,
//she’d rented enough travelogues, to know that nowhere the VCR showed her gave
//her any more sense of rightness than Sydney.
Цього ранку вона лежала в ліжку, почуваючись навіть більш байдужою, ніж звичайно.
Вона прокинулася надто рано, коли сонце тільки почало здійматися, хоча сонячне
світло й було заблоковане хмарочосами, в тіні яких було розташовано її будинок. Слабке
нагадування про похмілля билося у її скронях і сушило їй рота. Вона намагалася не
зловживати напоями (хоча й не знала, заради чого), але вчора вона відчула...
депресію навіть сильнішу, ніж зазвичай. Наче вона, якимось чином, щось втратила.
Не вперше, і навіть не в сотий раз, вона думала переїхати -- до Аделаїди, до Перта,
може у Перт-Амбой, якщо знадобиться. Їй постійно здавалося, що вона має бути в іншому
місці. Її життя, оплачене страхувальною компанією, було доволі комфортабельним, але
не розкішним. Вона не могла дозволити собі швендяти по світу в пошуках якогось місця,
що не викликало б в неї відчуття, що вона має бути деінде. Вона достатньо дивилася телебачення і
фільми про подорожі, щоб зрозуміти: жодне місце, яке може показати відеокасета,
не видається їй доречнішим, ніж Сідней.

// 19870
//She’d felt frozen, stopped in time, ever since the traffic accident that had
//stolen her memories - not just of a dead family that meant nothing to her now,
//but memories like how a stove worked. She suspected, no, she __knew,__
//that whatever her heart was waiting for, whatever key needed to turn inside her
//to make her life begin moving again, it was one more thing she’d lost to that
//runaway minivan. She thought about that almost every morning, trying to guess
//what she was missing, missing, missing from her life and mind.
Вона почувалася застиглою, зупиненою у часі, аж відколи аварія вкрала її спогади.
Не тільки спогади про загиблу сім'ю, що тепер нічого для неї не значила, а й
спогади про те, як працює плита, наприклад. Вона підозрювала, ні, вона __знала__,
що хай на що чекає її серце, хай якого ключа треба було повернути всередині неї,
щоб її життя знову почало рухатися, це була ще одна річ, яку вона втратила через той
мінівен, що втратив керування. Вона думала про це майже щоранку, намагаючись вгадати, чого їй
бракувало, бракувало, бракувало у її житті та її свідомості.

// 19871
//Somebody rang her doorbell.
Хтось подзвонив у двері.

// 19872
//She groaned, turning her head far enough to look at the LED alarm clock at the
//side of her bed. 6:31, it said, with the AM dot lit. __Seriously?__ Well,
//that idiot could wait while she staggered out of bed at her own pace, then.
Вона застогнала, повернула голову, щоб подивитися на дисплей будильника, що він стояв
біля ліжка. 6:31. Ранку. __Серйозно?__ Що ж, як так, той ідіот може почекати, доки вона встане
з ліжка у своєму звичайному темпі.

// 19873
//Stagger out of bed she did, ignoring the doorbell as it rang again, as she
//ducked into the bathroom and dressed herself.
Вона, хитаючись, підвелася, і, ігноруючи дверний дзвінок, попрямувала до ванної кімнати,
щоб одягтися.

// 19874
//She clambered down the stairs, ignoring the ever-nagging sense that someone
//else ought to be answering her door for her. “Who’s there?” she called to the
//closed door; the door had a peephole, but it was fogged over.
Вона в'яло спустилася сходами, незважаючи на постійне почуття, що хтось інший має
підходити до дверей за неї.

-- Хто там? - спитала вона у зачинених дверей. В них було вічко, але воно затуманилося.

// 19875
//“Are you Nancy Manson?” came a woman’s voice, speaking in a precise Scottish
//accent.
-- Ви Ненсі Менсон? -- спитав жіночий голос із чітким шотландським акцентом.

// 19876
//“Yes,” she said cautiously.
-- Так, -- обережно сказала вона.

// 19877
//“__Eunoe,__” spoke the Scottish voice, and Nancy leapt back in shock as a
//flash of light came from the door and __hit __her and…
// ElviraIzmailova https://en.wikipedia.org/wiki/Eunoe
// ElviraIzmailova переклад Є.Дроб'язко, Фоліо, 2001.
// ElviraIzmailova 2. Чистилище, пісня 33
-- __Євноя__ -- сказав шотландський голос, і Ненсі подалася назад від подиву. Спалах світла
пройшов крізь двері і __вдарив__ її, і...

// 19878
//Nancy swayed, putting a hand to her forehead. Flashes of light just going
//through doors and hitting people, that was… that was… that wasn’t particularly
//surprising…
Ненсі похитнулася, поклавши руку на лоба. Спалахи світла, що проходять крізь двері
і вдаряють людей, це було... це було... це не було чимось надто вже незвичним...

// 19879
//“Would you please open the door?” said the Scottish woman’s voice. “The war is
//over and your memories should be returning shortly. There’s someone here who
//ought to see you.”
-- Чи не відчините ви, будь ласка, двері? -- спитав голос шотландки. -- Війну закінчено,
і ваші спогади скоро повернуться. Дехто поряд зі мною має вас побачити.

// 19880
//__My memories__ -
__Мої спогади...__

// 19881
//Nancy’s head was already feeling clogged, like she was about to start hacking
//something out of her brain, but she managed to reach out and yank the door
//open.
Голова Ненсі уже була забита, наче з її мозку от-от щось почне сипатися, але вона
спромоглася дотягнутися до дверей і розчахнути їх.

// 19882
//There in front of her was a woman dressed as a __(perfectly normal)__
//witch, from black robes to tall pointed hat -
Перед нею стояла жінка, вдягнена __(цілком нормально)__ як відьма, від
чорної мантії до загостреного капелюха...

// 19883
//- and standing beside her a boy, with short white-blonde hair and wearing
//__(perfectly normal)__ dark robes trimmed in green, staring at her with
//his jaw dropped and eyes wide and beginning to fill with tears.
...а поряд із нею стояв хлопчик, із коротким білим волоссям, вдягнений
__(цілком нормально)__ у темну мантію із зеленою облямівкою, і, роззявивши рота,
дивився на неї. Його широко розплющені очі починали наповнюватися сльозами.

// 19884
//__Green-trimmed robes and white-blonde hair…__
__Мантія, облямована зеленим, і біле волосся...__

// 19885
//Something warm stirred in her memory. She felt her heart rising into her throat
//as she realized that the thing that she’d been looking for these past ten years
//might be right in front of her this very instant. Somewhere deep inside her,
//ice was cracking around her heart, the piece of her that had been stopped for
//so long preparing to move once more.
Щось тепле з'явилося у її пам'яті. Вона почувалася так, наче серце піднялося їй у горло:
все, чого вона шукала минулі десять років, було прямо перед нею, просто зараз. Десь глибоко
всередині неї лід тріскався навколо її серця. Та її частина, що застигла так надовго,
готувалася знову почати рух.

// 19886
//The boy was staring at her, his mouth working soundlessly.
Хлопчик дивився на неї, його рот беззвучно рухався.

// 19887
//A mysterious name came into her mind, rose to her lips.
Таємниче ім'я з'явилося в її розумі, попрямувало до її губ.

// 19888
//“Lucius?” she whispered.
-- Луціус? -- прошепотіла вона.

// 19889
//__The next update will be on__ **March 13th, 2015** at **12PM
//Pacific** __(__**7PM UTC**__).__

***

// 19890
//__A good place to start reading Pratchett is with the book__
//**Mort**__.__
__**Морт** -- чудовий вибір першої книжки для ознайомлення з творчістю Пратчетта.
