// 19891
//== Something to Protect: Severus Snape
== Розділ 121. Варте захисту: Северус Снейп

// 19892
//A somber mood pervaded the Headmistress’s office. Minerva had returned after
//dropping off Draco and Narcissa/Nancy at St. Mungo’s, where the Lady Malfoy was
//being examined to see if a decade living as a Muggle had done any damage to her
//health; and Harry had come up to the Headmistress’s office again and then… not
//been able to think of priorities. There was so __much__ to do, so many
//things, that even Headmistress McGonagall didn’t seem to know where to start,
//and certainly not Harry. Right now Minerva was repeatedly writing words on
//parchment and then erasing them with a handwave, and Harry had closed his eyes
//for clarity. Was there any __next__ first thing that needed to happen…
Кабінет директорки пронизувала серйозність. Мінерва повернулась з лікарні Святого Мунґо,
де залишила Драко з Нарцисою/Ненсі. Там мали оглянути леді Мелфой та визначити,
яку шкоду заподіяв її здоров’ю
десяток років життя маґлом. Гаррі знов прийшов до кабінету директорки, а тоді...
просто не знав, за що взятися насамперед. Було __стільки всього__, стільки справ,
що, видавалося, навіть директорка Макґонеґел не знала, з чого почати, а Гаррі й
поготів. Наразі Мінерва знов і знов щось писала на пергаменті, а тоді
стирала все помахом руки. Гаррі тим часом заплющив очі, щоб зосередитися. Чи була якась
__наступна__ першочергова справа?
//! Тут не певен що до того, чи Гаррі розтавляє його прирорітети, а Макґонеґел
//! свої чи мова суто про те що в директорки в голові.
//! hedrok: Lady Malfoys was being examined - її оглянули

// 19893
//There came a knock upon the great oaken door that had been Dumbledore’s, and
//the Headmistress opened it with a word.
У великі дубові двері, що раніше були Дамблдорові, постукали, і від одного слова
директорки ті розчахнулися.

// 19894
//The man who entered the Headmistress’s office appeared worn, he had discarded
//his wheelchair but still walked with a limp. He wore black robes that were
//simple, yet clean and unstained. Over his left shoulder was slung a knapsack,
//of sturdy gray leather set with silver filigree that held four green pearl-like
//stones. It looked like a thoroughly enchanted knapsack, one that could contain
//the contents of a Muggle house.
Чоловік, що увійшов до кабінету директорки, здавався виснаженим, він вже не
їздив на візку, але досі кульгав. Він був одягнений в просту, але чисту й
охайну чорну мантію. Через ліве плече висів наплічник з грубої сірої шкіри
із срібним різьбленням, в якому були вставлені чотири зелені камінці, схожі на
перлини. Наплічник виглядав був ретельно зачарованим, в такий могли влізти
всі речі з маґлівського будинку.

// 19895
//One look at him, and Harry knew.
Гаррі вистачило одного погляду на нього, щоб зрозуміти.

// 19896
//Headmistress McGonagall sat frozen behind her new desk.
Директорка Макґонеґел завмерла за своїм столом.

// 19897
//Severus Snape inclined his head to her.
Северус Снейп схилив голову до неї.

// 19898
//“What is the meaning of this?” said the Headmistress, sounding… heart-sick,
//like she’d known, upon a glance, just like Harry had.
-- Що це означає? -- спитала директорка таким голосом, ніби їй вхопило серце,
та вона все одразу зрозуміла, як і Гаррі.

// 19899
//“I resign my position as the Potions Master of Hogwarts,” the man said simply.
//“I will not stay to draw my last month’s salary. If there are students who have
//been particularly harmed by me, you may use the money for their benefit.”
-- Я йду з посади майстра зіллєваріння Гоґвортсу, -- просто повідомив він.
-- І я не залишусь, щоб отримати зарплатню за останній місяць. Якщо є учні, яким
я особливо нашкодив, -- можете використати для їхніх потреб.

// 19900
//__He knows.__ The thought came to Harry, and he couldn’t have said in
//words just __what__ the Potions Master now knew; except that it was clear
//that Severus knew it.
__Він знає__. Це спало на думку Гаррі. Він не міг висловити, __що саме__ майстер
зіллєваріння тепер знає, але ясно було -- Северус це знає.

// 19901
//“Severus…” Headmistress McGonagall began. Her voice sounded hollow. “Professor
//Severus Snape, you may not realize how difficult it is to find Potions Masters
//who can safely teach Muggleborns, or Professors sharp enough to keep Slytherin
//House in any semblance of order…”
-- Северусе... -- почала директорка Макґонеґел глухим голосом. -- Професоре
Северус Снейп, можливо, ви не усвідомлюєте, як важко знайти майстра
зіллєваріння, що здатен безпечно навчати учнів маґлівського роду, чи достатньо
хитрого професора, щоб тримати в Слизерині подобу порядку...

// 19902
//Again the man inclined his head. “I think it need not be said to you,
//Headmistress, but I recommend in the strongest possible terms that the next
//Head of Slytherin be nothing like me.”
Чоловік знов похилив голову:

-- Я гадав, що немає потреби вам це казати,
директорко, проте з усією наполегливістю раджу призначити новим вихователем
Слизерину людину, що якнайменше мене нагадує.

// 19903
//“Severus, you only did as Albus told you to do! You could stay on and act
//differently!”
-- Северусе, ти робив лише те, що казав Албус! Ти міг би лишитись і поводитись
інакше!

// 19904
//“Headmistress,” Harry said. His own voice seemed also hollow, and Harry
//wondered at it, for he hadn’t known Severus Snape that well. “If he wants to
//go, I think you should let him go.”
-- Пані директорко, -- мовив Гаррі. Його голос теж здавався понурим, що його
здивувало, бо він не знав Северуса Снейпа так вже добре. -- Я вважаю, ви маєте
його відпустити, якщо він хоче піти.

// 19905
//__Dumbledore was using him. Maybe not exactly the way Professor Quirrell
//thought, maybe it was prophecy rather than sabotaging Slytherin, but Dumbledore
//was still using him. There were things that could have been said long ago to
//Severus, to free him. It’s clear why Dumbledore didn’t risk that, but still,
//Severus wasn’t being used kindly. Even his blindness and grief were being used,
//the way he didn’t grasp the consequences of his actions as Potions Master…__
__Дамблдор використовував його. Можливо не так, як думав професор Квірел, можливо
через пророцтво, а не для саботажу Слизерину, але Дамблдор точно його
використовував. Були речі, які вже давно можна було сказати Северусові, щоб
той відчув себе вільним. Зрозуміло, чому Дамблдор не ризикував це зробити, та все ж,
Северусом користувались зовсім не по-доброму. Навіть його засліплення й смуток були
використані так, що він не міг зрозуміти наслідків своїх дій як майстра
зіллєваріння...__

// 19906
//“It is well to find you here, Mr. Potter,” Severus said. “There is unfinished
//business between us.”
-- Добре, що я вас тут зустрів, містере Поттер. -- сказав Северус. -- У нас є
незавершена справа.

// 19907
//Harry didn’t know what to say, so he just nodded.
Гаррі не знав, що відповісти, і просто кивнув.

// 19908
//Severus seemed to be having some difficulty speaking, as he stood before the
//two of them with the grey knapsack on his shoulder. Finally he seemed to find
//the words he’d come to speak. “Your mother. Lily. She was -”
Здавалося, Северусу важко говорити. Він просто стояв з сірим
наплічником на плечі перед ними обома. Нарешті, він знайшов слова:

-- Твоя матір. Лілі. Вона була...

// 19909
//“I know,” Harry said, through the thickness of his throat. “You don’t have to
//say it.”
-- Я знаю, -- слова Гаррі пройшли товщу його горла. -- Ви не мусите це
казати.

// 19910
//“Lily was a fine upstanding witch, Mr. Potter. I would not have you think
//otherwise from any words I said to you.”
// hedrok: раптом що йдеться про 027:5601 і далі
-- Лілі була прекрасна, видатна чаклунка, містере Поттер. Я не можу дозволити,
щоб ви думали інакше через те, що я вам казав був.

// 19911
//“__Severus?__” said Minerva McGonagall, looking as shocked as if she’d
//been bitten by her own shoes.
-- __Северусе__? -- сказала Макґонеґел, вона видавалася такою шокованою, ніби
власні чоботи її щойно вкусили.

// 19912
//The former Potions Master kept his eyes on Harry. “More than one bar lay
//between myself and Lily, most notably my ill-advised attempts to curry favor
//with the purebloods of my house. If I made it sound like one mistake upon a
//muddy field ended it all, if I pretended that she had no reason but shallowness
//not to love me, I hope your books have also told you why fools may say such
//things.”
Колишній майстер зіллєваріння не відводив очей від Гаррі:

// hedrok @ muddy field не розумію до чого тут
// hedrok "books have also told you" копія з 027:5598
-- Між мною та Лілі було більше одної перешкоди, насамперед мої необачні спроби
підлеститися до чистокровних учнів мого гуртожитку.
Якщо мої слова справили враження, ніби єдина помилка на неясному тлі скінчила
все, якщо я вдавав, ніби в неї не було жодної іншої причини, крім її
неглибокості, щоб не кохати мене, сподіваюся, ваші книжки також навчили вас, що
такі речі кажуть ду{stress}рні.
//! hedrok: зі словника
//!         to curry favour with smb. підлещуватися до когось.
//!         тут house -- гуртожиток

// 19913
//“They did,” Harry said. He was looking at the fine gray knapsack on Severus
//Snape’s left shoulder, unable to meet the Potions Master’s eyes. “They did.”
-- Навчили, -- сказав Гаррі. Він дивився на добротний сірий наплічник на
лівому плечі Снейпа, не в змозі зустрітись з майстром зіллєваріння поглядом.
-- Навчили.

// 19914
//“However,” the former Potions Master continued, “I’m afraid I have nothing more
//to say about your father than what I’ve already told you.”
-- Втім, -- вів далі колишній майстер зіллєваріння, -- Боюся, що не можу додати
нічого про вашого батька, крім того, що вже сказав.

// 19915
//__“Severus!”__
-- __Северусе!__

// 19916
//The former Potions Master seemed to have eyes only for Harry. “The Dark Mark
//upon my arm is not dead, nor is the prophecy fulfilled by that story you
//recounted before the crowd. How did you destroy all but a remnant of the Dark
//Lord?”
Колишній майстер зіллєваріння дивився лише на Гаррі.

-- Чорна мітка на моїй руці не мертва, і пророцтво не було виконане так, як ти
розповів перед натовпом. Як ти знищив усе, крім залишку Темного Лорда?

// 19917
//Harry hesitated. “I Obliviated most of his memories and… sealed him, I guess is
//how wizards say it. Even if the seal breaks, he won’t come back as himself.”
Гаррі завагався.

-- Я забуттятнув більшість його спогадів і... запечатав його,
як кажуть чаклуни. Навіть якщо печать буде зламано, він не повернеться
собою.

// 19918
//Severus frowned briefly and then shrugged. “I suppose that is acceptable.”
Северус коротко нахмурився й знизав плечима:

-- Гадаю, це прийнятно.

// 19919
//“Professor Snape,” Harry said, because this too was now his responsibility,
//“the Order of the Phoenix owes you for services rendered. I’m in an excellent
//position to repay it, both financially and magically. Just in case you want to
//start your next life in a position of wealth, or with better hair, or
//something.”
-- Професоре Снейп, -- сказав Гаррі, бо і це тепер було його відповідальністю,
-- Орден Фенікса має віддати вам належне за вашу службу. У мене є всі
можливості, щоб розплатитися і фінансово, і магією. Ну, раптом ви бажаєте почати
нове життя заможним, чи з ліпшим волоссям абощо.

// 19920
//“Strange words to say to such as me,” the former Potions Master said in a soft
//drawl. “I went to the Dark Lord intending to sell him the prophecy in exchange
//for Lily’s love becoming mine, by whatever darkness was required to achieve it.
//That is hardly something to be forgiven lightly. And then, in the years after
//when I was a Potions Master… that you experienced yourself. Do you think my
//service to the Order of the Phoenix has repaid all my sins?”
-- Дивно таке казати такому, як я, -- протяжно сказав колишній майстер зіллєваріння.
-- Я вирушив до Темного Лорда з метою продати йому пророцтво в обмін
на любов Лілі, хай які темні засоби будуть використані задля цієї мети.
Не можна це так легко пробачати. А потім,
роками пізніше, коли я став майстром зіллєваріння... ти сам бачив... Ти
справді вважаєш, що служба Ордену Фенікса спокутує всі мої гріхи?

// 19921
//“People are always broken,” Harry said, though the words stuck in his throat.
//“They always make mistakes. At least you tried to repay them.”
-- Люди завжди недосконалі, -- сказав Гаррі, хоч слова застрягали в горлі.
-- Вони завжди роблять помилки. Ви принаймні намагалися свої компенсувати.

// 19922
//“Perhaps,” said the former Potions Master. “My final duty was to fail in
//guarding the Stone, to be struck down. This I have done, and I survived it,
//which I never expected to do.” Severus was leaning against the door through
//which he’d entered, taking his weight off his left leg. “I would not have
//thought to ask for your forgiveness, but since you offer it so freely, I will
//accept with thanks. From this day on I wish to take less unkindly ways, and I
//think that is best done by starting over.”
-- Можливо, -- мовив колишній майстер зіллєваріння. -- Моєю останньою повинністю
було провалити охорону Каменя, бути переможеним. І я зробив це, і вижив, чого
ніколи не очікував, -- Северус притулився до дверей, через які увійшов, знімаючи
навантаження з лівої ноги. -- Я навіть не думав просити твого пробачення, але
якщо ти пропонуєш його так вільно, я прийму його з вдячністю. Відсьогодні
я хочу обирати менше поганих шляхів. Гадаю, це найкраще зробити, почавши спочатку.

// 19923
//Tears glistened on Minerva McGonagall’s nose and cheeks, when she spoke her
//voice was without hope. “Surely you could start over inside Hogwarts.”
Сльози заблищали на носі й щоках Мінерви Макґонеґел, її голос не мав надії:

-- Впевнена, ти міг би почати наново в Гоґвортсі.

// 19924
//Severus shook his head. “Too many students would remember me as the evil
//Potions Master. No, Minerva. I will go someplace new, and take a new name, and
//find someone new to love.”
Северус похитав головою:

-- Забагато учнів пам’ятатимуть мене як злого майстра зіллєваріння.
Ні, Мінерво. Я піду в нове місце, зміню ім’я та знайду нове кохання.

// 19925
//“Severus Snape,” Harry said, because it was his responsibility to say it, “has
//all your will been done?”
-- Северусе Снейп, -- сказав Гаррі, бо це була його відповідальність спитати:
-- Чи всі ваші побажання виконано?

// 19926
//“Lily’s killer is vanquished,” the man said. “I am content.”
-- Вбивцю Лілі подолали, -- сказав чоловік. -- Я задоволений.

// 19927
//The Headmistress lowered her head. “Be well, Severus,” she whispered.
Директорка опустила голову.

-- Будьте здорові, Северусе! -- прошепотіла вона.

// 19928
//“I do have one last piece of advice,” Harry said. “If you want it.”
-- В мене остання порада, -- мовив Гаррі, -- якщо бажаєте.

// 19929
//“What is it?” said Severus Snape.
-- І яка ж? -- спитав Северус Снейп.

// 19930
//“Ruminating about the past can contribute to depression. You have my blanket
//permisson to just never think about your past, ever. You shouldn’t think that
//it’s your responsibility to Lily to bear your guilt for her, or anything like
//that. Just keep your mind on your future and whatever new people you meet.”
-- Копирсання в минулому може довести до депресії. Я даю вам повний дозвіл більше
ніколи не думати про минуле, ніколи. Ви не маєте вважати, що це ваш обов’язок
перед Лілі -- відчувати за неї провину, або щось подібне. Просто зосередьтеся на
майбутньому, на своїх нових знайомцях.

// 19931
//“I shall take your wisdom into consideration,” Severus said neutrally.
-- Я врахую вашу мудрість, -- нейтрально сказав Северус.

// 19932
//“Also, try a different brand of hair shampoo.”
-- І спробуйте використовувати інший шампунь.

// 19933
//A wry grin crossed Severus’s face, and Harry thought it might have been, for
//the first time, that man’s true smile. “Drop dead, Potter.”
Суха усмішка розтягнулася на обличчі Северуса, і Гаррі подумав, що це він
вперше побачив його щиро усміхненим:

-- Щоб ти здох, Поттере.

// 19934
//Harry laughed.
Гаррі засміявся.

// 19935
//Severus laughed.
Северус засміявся.

// 19936
//Minerva was sobbing.
Мінерва схлипувала.

// 19937
//Without saying anything else, the free man took a pinch of Floo powder, and
//cast it into the office’s fireplace, and strode into the green flame whispering
//something that nobody caught; and that was the last that anyone ever heard of
//Severus Snape.
Без зайвих слів вільний чоловік взяв щіпку порошку флу, кинув її в камін і
увійшов у зелене полумʼя, прошепотівши щось, чого ніхто не вловив, і це було
останнє, що колись чули про Северуса Снейпа.

// 19938
//**The last chapter will post on March 14th, 2015, at 9AM Pacific (4PM
//UTC).**

// 19939
//**Thank you all for reading.**
