== Коротесенький вступ від команди перекладачів

Це переклад чудового фанфіку Harry Potter and Methods of Rationality Елізера
Юдковскі (усі права на персонажів та світ належать Дж. К. Ролінґ, комерційне
використання заборонене).

Хоч усі розділи перекладено й ми докладали всіх зусиль, щоб виконати переклад
якісно, та це не остаточний варіант перекладу.

Зараз над текстом працює редакторка (уже опрацьовано 1-15 розділи).

Останню версію перекладу, список перекладачів тощо можна знайти на сайті:
https://гпімр.укр[].

Будемо вдячні за будь-які коментарі та повідомлення про помилки.

Приємного читання!
